Time,storageTank_mod1.conditions.u[1],storageTank_mod1.conditions.u[2],storageTank_mod1.conditions.u[3],storageTank_mod1.conditions.y,storageTank_mod1.T5,storageTank_mod1.T3,storageTank_mod1.delta_T.y
0,0,1,0,0,298.15,293.15,0
2,0,1,0,0,298.362,293.337,0.0875
4,0,1,0,0,298.575,293.525,0.175
6,0,1,0,0,298.787,293.712,0.2625
8,0,1,0,0,299,293.9,0.35
10,0,1,0,0,299.212,294.087,0.4375
12,0,1,0,0,299.425,294.275,0.525
14,0,1,0,0,299.637,294.462,0.6125
16,0,1,0,0,299.85,294.65,0.7
18,0,1,0,0,300.063,294.837,0.7875
20,0,1,0,0,300.275,295.025,0.875
22,0,1,0,0,300.487,295.212,0.9625
24,0,1,0,0,300.7,295.4,1.05
26,0,1,0,0,300.912,295.587,1.1375
28,0,1,0,0,301.125,295.775,1.225
30,0,1,0,0,301.337,295.962,1.3125
32,0,1,0,0,301.55,296.15,1.4
34,0,1,0,0,301.762,296.337,1.4875
36,0,1,0,0,301.975,296.525,1.575
38,0,1,0,0,302.188,296.712,1.6625
40,0,1,0,0,302.4,296.9,1.75
42,0,1,0,0,302.612,297.087,1.8375
44,0,1,0,0,302.825,297.275,1.925
46,0,1,0,0,303.037,297.462,2.0125
48,0,1,0,0,303.25,297.65,2.1
50,0,1,0,0,303.462,297.837,2.1875
52,0,1,0,0,303.675,298.025,2.275
54,0,1,0,0,303.887,298.212,2.3625
56,0,1,0,0,304.1,298.4,2.45
58,0,1,0,0,304.313,298.587,2.5375
60,0,1,0,0,304.525,298.775,2.625
62,0,1,0,0,304.737,298.962,2.7125
64,0,1,0,0,304.95,299.15,2.8
66,0,1,0,0,305.162,299.337,2.8875
68,0,1,0,0,305.375,299.525,2.975
70,0,1,0,0,305.587,299.712,3.0625
72,0,1,0,0,305.8,299.9,3.15
74,0,1,0,0,306.012,300.087,3.2375
76,0,1,0,0,306.225,300.275,3.325
78,0,1,0,0,306.438,300.462,3.4125
80,0,1,0,0,306.65,300.65,3.5
82,0,1,0,0,306.862,300.837,3.5875
84,0,1,0,0,307.075,301.025,3.675
86,0,1,0,0,307.287,301.212,3.7625
88,0,1,0,0,307.5,301.4,3.85
90,0,1,0,0,307.712,301.587,3.9375
92,0,1,0,0,307.925,301.775,4.025
94,0,1,0,0,308.137,301.962,4.1125
96,0,1,0,0,308.35,302.15,4.2
98,0,1,0,0,308.563,302.337,4.2875
100,0,1,0,0,308.775,302.525,4.375
102,0,1,0,0,308.987,302.712,4.4625
104,0,1,0,0,309.2,302.9,4.55
106,0,1,0,0,309.412,303.087,4.6375
106.667,0,1,0,0,309.483,303.15,4.66667
106.667,0,1,1,0,309.483,303.15,4.66667
108,0,1,1,0,309.625,303.275,4.725
110,0,1,1,0,309.837,303.462,4.8125
112,0,1,1,0,310.05,303.65,4.9
114,0,1,1,0,310.262,303.837,4.9875
116,0,1,1,0,310.475,304.025,5.075
118,0,1,1,0,310.688,304.212,5.1625
120,0,1,1,0,310.9,304.4,5.25
122,0,1,1,0,311.112,304.587,5.3375
124,0,1,1,0,311.325,304.775,5.425
126,0,1,1,0,311.537,304.962,5.5125
128,0,1,1,0,311.75,305.15,5.6
130,0,1,1,0,311.962,305.337,5.6875
132,0,1,1,0,312.175,305.525,5.775
134,0,1,1,0,312.387,305.712,5.8625
136,0,1,1,0,312.6,305.9,5.95
138,0,1,1,0,312.813,306.087,6.0375
140,0,1,1,0,313.025,306.275,6.125
142,0,1,1,0,313.237,306.462,6.2125
144,0,1,1,0,313.45,306.65,6.3
146,0,1,1,0,313.662,306.837,6.3875
148,0,1,1,0,313.875,307.025,6.475
150,0,1,1,0,314.087,307.212,6.5625
152,0,1,1,0,314.3,307.4,6.65
154,0,1,1,0,314.512,307.587,6.7375
156,0,1,1,0,314.725,307.775,6.825
158,0,1,1,0,314.938,307.962,6.9125
160,0,1,1,0,315.15,308.15,7
162,0,1,1,0,315.362,308.337,7.0875
164,0,1,1,0,315.575,308.525,7.175
166,0,1,1,0,315.787,308.712,7.2625
168,0,1,1,0,316,308.9,7.35
170,0,1,1,0,316.212,309.087,7.4375
172,0,1,1,0,316.425,309.275,7.525
174,0,1,1,0,316.637,309.462,7.6125
176,0,1,1,0,316.85,309.65,7.7
178,0,1,1,0,317.063,309.837,7.7875
180,0,1,1,0,317.275,310.025,7.875
182,0,1,1,0,317.487,310.212,7.9625
184,0,1,1,0,317.7,310.4,8.05
186,0,1,1,0,317.912,310.587,8.1375
188,0,1,1,0,318.125,310.775,8.225
190,0,1,1,0,318.337,310.962,8.3125
192,0,1,1,0,318.55,311.15,8.4
194,0,1,1,0,318.762,311.337,8.4875
196,0,1,1,0,318.975,311.525,8.575
198,0,1,1,0,319.188,311.712,8.6625
200,0,1,1,0,319.4,311.9,8.75
202,0,1,1,0,319.612,312.087,8.8375
204,0,1,1,0,319.825,312.275,8.925
205.714,0,1,1,0,320.007,312.436,9
205.714,1,1,1,1,320.007,312.436,9
206,1,1,1,1,320.037,312.462,9.0125
208,1,1,1,1,320.25,312.65,9.1
210,1,1,1,1,320.462,312.837,9.1875
212,1,1,1,1,320.675,313.025,9.275
214,1,1,1,1,320.887,313.212,9.3625
216,1,1,1,1,321.1,313.4,9.45
218,1,1,1,1,321.313,313.587,9.5375
220,1,1,1,1,321.525,313.775,9.625
222,1,1,1,1,321.737,313.962,9.7125
224,1,1,1,1,321.95,314.15,9.8
226,1,1,1,1,322.162,314.337,9.8875
228,1,1,1,1,322.375,314.525,9.975
230,1,1,1,1,322.587,314.712,10.0625
232,1,1,1,1,322.8,314.9,10.15
234,1,1,1,1,323.012,315.087,10.2375
236,1,1,1,1,323.225,315.275,10.325
238,1,1,1,1,323.438,315.462,10.4125
240,1,1,1,1,323.65,315.65,10.5
242,1,1,1,1,323.862,315.837,10.5875
244,1,1,1,1,324.075,316.025,10.675
246,1,1,1,1,324.287,316.212,10.7625
248,1,1,1,1,324.5,316.4,10.85
250,1,1,1,1,324.712,316.587,10.9375
252,1,1,1,1,324.925,316.775,11.025
254,1,1,1,1,325.137,316.962,11.1125
256,1,1,1,1,325.35,317.15,11.2
258,1,1,1,1,325.563,317.337,11.2875
260,1,1,1,1,325.775,317.525,11.375
262,1,1,1,1,325.987,317.712,11.4625
264,1,1,1,1,326.2,317.9,11.55
266,1,1,1,1,326.412,318.087,11.6375
268,1,1,1,1,326.625,318.275,11.725
270,1,1,1,1,326.837,318.462,11.8125
272,1,1,1,1,327.05,318.65,11.9
274,1,1,1,1,327.262,318.837,11.9875
276,1,1,1,1,327.475,319.025,12.075
278,1,1,1,1,327.688,319.212,12.1625
280,1,1,1,1,327.9,319.4,12.25
282,1,1,1,1,328.112,319.587,12.3375
284,1,1,1,1,328.325,319.775,12.425
286,1,1,1,1,328.537,319.962,12.5125
288,1,1,1,1,328.75,320.15,12.6
290,1,1,1,1,328.962,320.337,12.6875
292,1,1,1,1,329.175,320.525,12.775
294,1,1,1,1,329.387,320.712,12.8625
296,1,1,1,1,329.6,320.9,12.95
298,1,1,1,1,329.813,321.087,13.0375
300,1,1,1,1,330.025,321.275,13.125
302,1,1,1,1,330.237,321.462,13.2125
304,1,1,1,1,330.45,321.65,13.3
306,1,1,1,1,330.662,321.837,13.3875
308,1,1,1,1,330.875,322.025,13.475
310,1,1,1,1,331.087,322.212,13.5625
312,1,1,1,1,331.3,322.4,13.65
314,1,1,1,1,331.512,322.587,13.7375
316,1,1,1,1,331.725,322.775,13.825
318,1,1,1,1,331.938,322.962,13.9125
320,1,1,1,1,332.15,323.15,14
322,1,1,1,1,332.362,323.337,14.0875
324,1,1,1,1,332.575,323.525,14.175
326,1,1,1,1,332.787,323.712,14.2625
328,1,1,1,1,333,323.9,14.35
330,1,1,1,1,333.212,324.087,14.4375
332,1,1,1,1,333.425,324.275,14.525
334,1,1,1,1,333.637,324.462,14.6125
336,1,1,1,1,333.85,324.65,14.7
338,1,1,1,1,334.063,324.837,14.7875
340,1,1,1,1,334.275,325.025,14.875
342,1,1,1,1,334.487,325.212,14.9625
344,1,1,1,1,334.7,325.4,15.05
346,1,1,1,1,334.912,325.587,15.1375
348,1,1,1,1,335.125,325.775,15.225
350,1,1,1,1,335.337,325.962,15.3125
352,1,1,1,1,335.55,326.15,15.4
354,1,1,1,1,335.762,326.337,15.4875
356,1,1,1,1,335.975,326.525,15.575
358,1,1,1,1,336.188,326.712,15.6625
360,1,1,1,1,336.4,326.9,15.75
362,1,1,1,1,336.612,327.087,15.8375
364,1,1,1,1,336.825,327.275,15.925
366,1,1,1,1,337.037,327.462,16.0125
368,1,1,1,1,337.25,327.65,16.1
370,1,1,1,1,337.462,327.837,16.1875
372,1,1,1,1,337.675,328.025,16.275
374,1,1,1,1,337.887,328.212,16.3625
376,1,1,1,1,338.1,328.4,16.45
378,1,1,1,1,338.313,328.587,16.5375
380,1,1,1,1,338.525,328.775,16.625
382,1,1,1,1,338.737,328.962,16.7125
384,1,1,1,1,338.95,329.15,16.8
386,1,1,1,1,339.162,329.337,16.8875
388,1,1,1,1,339.375,329.525,16.975
390,1,1,1,1,339.587,329.712,17.0625
392,1,1,1,1,339.8,329.9,17.15
394,1,1,1,1,340.012,330.087,17.2375
396,1,1,1,1,340.225,330.275,17.325
398,1,1,1,1,340.438,330.462,17.4125
400,1,1,1,1,340.65,330.65,17.5
402,1,1,1,1,340.862,330.837,17.5875
404,1,1,1,1,341.075,331.025,17.675
406,1,1,1,1,341.287,331.212,17.7625
408,1,1,1,1,341.5,331.4,17.85
410,1,1,1,1,341.712,331.587,17.9375
412,1,1,1,1,341.925,331.775,18.025
414,1,1,1,1,342.137,331.962,18.1125
416,1,1,1,1,342.35,332.15,18.2
418,1,1,1,1,342.563,332.337,18.2875
420,1,1,1,1,342.775,332.525,18.375
422,1,1,1,1,342.987,332.712,18.4625
424,1,1,1,1,343.2,332.9,18.55
426,1,1,1,1,343.412,333.087,18.6375
428,1,1,1,1,343.625,333.275,18.725
430,1,1,1,1,343.837,333.462,18.8125
432,1,1,1,1,344.05,333.65,18.9
434,1,1,1,1,344.262,333.837,18.9875
436,1,1,1,1,344.475,334.025,19.075
438,1,1,1,1,344.688,334.212,19.1625
440,1,1,1,1,344.9,334.4,19.25
442,1,1,1,1,345.112,334.587,19.3375
444,1,1,1,1,345.325,334.775,19.425
446,1,1,1,1,345.537,334.962,19.5125
448,1,1,1,1,345.75,335.15,19.6
450,1,1,1,1,345.962,335.337,19.6875
452,1,1,1,1,346.175,335.525,19.775
454,1,1,1,1,346.387,335.712,19.8625
456,1,1,1,1,346.6,335.9,19.95
458,1,1,1,1,346.813,336.087,20.0375
460,1,1,1,1,347.025,336.275,20.125
462,1,1,1,1,347.237,336.462,20.2125
464,1,1,1,1,347.45,336.65,20.3
466,1,1,1,1,347.662,336.837,20.3875
468,1,1,1,1,347.875,337.025,20.475
470,1,1,1,1,348.087,337.212,20.5625
472,1,1,1,1,348.3,337.4,20.65
474,1,1,1,1,348.512,337.587,20.7375
476,1,1,1,1,348.725,337.775,20.825
478,1,1,1,1,348.938,337.962,20.9125
480,1,1,1,1,349.15,338.15,21
482,1,1,1,1,349.362,338.337,21.0875
484,1,1,1,1,349.575,338.525,21.175
486,1,1,1,1,349.787,338.712,21.2625
488,1,1,1,1,350,338.9,21.35
490,1,1,1,1,350.212,339.087,21.4375
492,1,1,1,1,350.425,339.275,21.525
494,1,1,1,1,350.637,339.462,21.6125
496,1,1,1,1,350.85,339.65,21.7
498,1,1,1,1,351.063,339.837,21.7875
500,1,1,1,1,351.275,340.025,21.875
502,1,1,1,1,351.487,340.212,21.6625
504,1,1,1,1,351.7,340.4,21.45
506,1,1,1,1,351.912,340.587,21.2375
508,1,1,1,1,352.125,340.775,21.025
510,1,1,1,1,352.337,340.962,20.8125
512,1,1,1,1,352.55,341.15,20.6
514,1,1,1,1,352.762,341.337,20.3875
516,1,1,1,1,352.975,341.525,20.175
518,1,1,1,1,353.188,341.712,19.9625
520,1,1,1,1,353.4,341.9,19.75
522,1,1,1,1,353.612,342.087,19.5375
524,1,1,1,1,353.825,342.275,19.325
526,1,1,1,1,354.037,342.462,19.1125
528,1,1,1,1,354.25,342.65,18.9
530,1,1,1,1,354.462,342.837,18.6875
532,1,1,1,1,354.675,343.025,18.475
534,1,1,1,1,354.887,343.212,18.2625
536,1,1,1,1,355.1,343.4,18.05
538,1,1,1,1,355.313,343.587,17.8375
540,1,1,1,1,355.525,343.775,17.625
542,1,1,1,1,355.737,343.962,17.4125
544,1,1,1,1,355.95,344.15,17.2
546,1,1,1,1,356.162,344.337,16.9875
548,1,1,1,1,356.375,344.525,16.775
550,1,1,1,1,356.587,344.712,16.5625
552,1,1,1,1,356.8,344.9,16.35
554,1,1,1,1,357.012,345.087,16.1375
556,1,1,1,1,357.225,345.275,15.925
558,1,1,1,1,357.438,345.462,15.7125
560,1,1,1,1,357.65,345.65,15.5
562,1,1,1,1,357.862,345.837,15.2875
564,1,1,1,1,358.075,346.025,15.075
566,1,1,1,1,358.287,346.212,14.8625
568,1,1,1,1,358.5,346.4,14.65
570,1,1,1,1,358.712,346.587,14.4375
572,1,1,1,1,358.925,346.775,14.225
574,1,1,1,1,359.137,346.962,14.0125
576,1,1,1,1,359.35,347.15,13.8
578,1,1,1,1,359.563,347.337,13.5875
580,1,1,1,1,359.775,347.525,13.375
582,1,1,1,1,359.987,347.712,13.1625
584,1,1,1,1,360.2,347.9,12.95
586,1,1,1,1,360.412,348.087,12.7375
588,1,1,1,1,360.625,348.275,12.525
590,1,1,1,1,360.837,348.462,12.3125
592,1,1,1,1,361.05,348.65,12.1
594,1,1,1,1,361.262,348.837,11.8875
596,1,1,1,1,361.475,349.025,11.675
598,1,1,1,1,361.688,349.212,11.4625
600,1,1,1,1,361.9,349.4,11.25
602,1,1,1,1,362.112,349.587,11.0375
604,1,1,1,1,362.325,349.775,10.825
606,1,1,1,1,362.537,349.962,10.6125
608,1,1,1,1,362.75,350.15,10.4
610,1,1,1,1,362.962,350.337,10.1875
612,1,1,1,1,363.175,350.525,9.975
614,1,1,1,1,363.387,350.712,9.7625
616,1,1,1,1,363.6,350.9,9.55
618,1,1,1,1,363.813,351.087,9.3375
620,1,1,1,1,364.025,351.275,9.125
621.176,1,1,1,1,364.15,351.385,9
622,1,1,1,1,364.237,351.462,8.9125
624,1,1,1,1,364.45,351.65,8.7
626,1,1,1,1,364.662,351.837,8.4875
628,1,1,1,1,364.875,352.025,8.275
630,1,1,1,1,365.087,352.212,8.0625
632,1,1,1,1,365.3,352.4,7.85
634,1,1,1,1,365.512,352.587,7.6375
636,1,1,1,1,365.725,352.775,7.425
638,1,1,1,1,365.938,352.962,7.2125
640,1,1,1,1,366.15,353.15,7
642,1,1,1,1,366.362,353.337,6.7875
644,1,1,1,1,366.575,353.525,6.575
646,1,1,1,1,366.787,353.712,6.3625
648,1,1,1,1,367,353.9,6.15
650,1,1,1,1,367.212,354.087,5.9375
652,1,1,1,1,367.425,354.275,5.725
654,1,1,1,1,367.637,354.462,5.5125
656,1,1,1,1,367.85,354.65,5.3
658,1,1,1,1,368.063,354.837,5.0875
660,1,1,1,1,368.275,355.025,4.875
662,1,1,1,1,368.487,355.212,4.6625
664,1,1,1,1,368.7,355.4,4.45
666,1,1,1,1,368.912,355.587,4.2375
668,1,1,1,1,369.125,355.775,4.025
670,1,1,1,1,369.337,355.962,3.8125
672,1,1,1,1,369.55,356.15,3.6
674,1,1,1,1,369.762,356.337,3.3875
676,1,1,1,1,369.975,356.525,3.175
678,1,1,1,1,370.188,356.712,2.9625
680,1,1,1,1,370.4,356.9,2.75
682,1,1,1,1,370.612,357.087,2.5375
682.353,1,1,1,1,370.65,357.121,2.5
682.353,0,1,1,0,370.65,357.121,2.5
684,0,1,1,0,370.825,357.275,2.325
686,0,1,1,0,371.037,357.462,2.1125
688,0,1,1,0,371.25,357.65,1.9
690,0,1,1,0,371.462,357.837,1.6875
692,0,1,1,0,371.675,358.025,1.475
694,0,1,1,0,371.887,358.212,1.2625
696,0,1,1,0,372.1,358.4,1.05
698,0,1,1,0,372.313,358.587,0.8375
700,0,1,1,0,372.525,358.775,0.625
702,0,1,1,0,372.737,358.962,0.4125
704,0,1,1,0,372.95,359.15,0.2
706,0,1,1,0,373.162,359.337,-0.0125
708,0,1,1,0,373.375,359.525,-0.225
710,0,1,1,0,373.587,359.712,-0.4375
712,0,1,1,0,373.8,359.9,-0.65
714,0,1,1,0,374.012,360.087,-0.8625
716,0,1,1,0,374.225,360.275,-1.075
718,0,1,1,0,374.438,360.462,-1.2875
720,0,1,1,0,374.65,360.65,-1.5
722,0,1,1,0,374.862,360.837,-1.7125
724,0,1,1,0,375.075,361.025,-1.925
726,0,1,1,0,375.287,361.212,-2.1375
728,0,1,1,0,375.5,361.4,-2.35
730,0,1,1,0,375.712,361.587,-2.5625
732,0,1,1,0,375.925,361.775,-2.775
734,0,1,1,0,376.137,361.962,-2.9875
736,0,1,1,0,376.35,362.15,-3.2
738,0,1,1,0,376.563,362.337,-3.4125
740,0,1,1,0,376.775,362.525,-3.625
742,0,1,1,0,376.987,362.712,-3.8375
744,0,1,1,0,377.2,362.9,-4.05
746,0,1,1,0,377.412,363.087,-4.2625
748,0,1,1,0,377.625,363.275,-4.475
750,0,1,1,0,377.837,363.462,-4.6875
752,0,1,1,0,378.05,363.65,-4.9
754,0,1,1,0,378.262,363.837,-5.1125
756,0,1,1,0,378.475,364.025,-5.325
758,0,1,1,0,378.688,364.212,-5.5375
760,0,1,1,0,378.9,364.4,-5.75
762,0,1,1,0,379.112,364.587,-5.9625
764,0,1,1,0,379.325,364.775,-6.175
766,0,1,1,0,379.537,364.962,-6.3875
768,0,1,1,0,379.75,365.15,-6.6
770,0,1,1,0,379.962,365.337,-6.8125
772,0,1,1,0,380.175,365.525,-7.025
774,0,1,1,0,380.387,365.712,-7.2375
776,0,1,1,0,380.6,365.9,-7.45
778,0,1,1,0,380.813,366.087,-7.6625
780,0,1,1,0,381.025,366.275,-7.875
781.176,0,1,1,0,381.15,366.385,-8
781.176,0,0,1,0,381.15,366.385,-8
782,0,0,1,0,381.237,366.462,-8.0875
784,0,0,1,0,381.45,366.65,-8.3
786,0,0,1,0,381.662,366.837,-8.5125
788,0,0,1,0,381.875,367.025,-8.725
790,0,0,1,0,382.087,367.212,-8.9375
792,0,0,1,0,382.3,367.4,-9.15
794,0,0,1,0,382.512,367.587,-9.3625
796,0,0,1,0,382.725,367.775,-9.575
798,0,0,1,0,382.938,367.962,-9.7875
800,0,0,1,0,383.15,368.15,-10
802,0,0,1,0,383.15,368.15,-10
804,0,0,1,0,383.15,368.15,-10
806,0,0,1,0,383.15,368.15,-10
808,0,0,1,0,383.15,368.15,-10
810,0,0,1,0,383.15,368.15,-10
812,0,0,1,0,383.15,368.15,-10
814,0,0,1,0,383.15,368.15,-10
816,0,0,1,0,383.15,368.15,-10
818,0,0,1,0,383.15,368.15,-10
820,0,0,1,0,383.15,368.15,-10
822,0,0,1,0,383.15,368.15,-10
824,0,0,1,0,383.15,368.15,-10
826,0,0,1,0,383.15,368.15,-10
828,0,0,1,0,383.15,368.15,-10
830,0,0,1,0,383.15,368.15,-10
832,0,0,1,0,383.15,368.15,-10
834,0,0,1,0,383.15,368.15,-10
836,0,0,1,0,383.15,368.15,-10
838,0,0,1,0,383.15,368.15,-10
840,0,0,1,0,383.15,368.15,-10
842,0,0,1,0,383.15,368.15,-10
844,0,0,1,0,383.15,368.15,-10
846,0,0,1,0,383.15,368.15,-10
848,0,0,1,0,383.15,368.15,-10
850,0,0,1,0,383.15,368.15,-10
852,0,0,1,0,383.15,368.15,-10
854,0,0,1,0,383.15,368.15,-10
856,0,0,1,0,383.15,368.15,-10
858,0,0,1,0,383.15,368.15,-10
860,0,0,1,0,383.15,368.15,-10
862,0,0,1,0,383.15,368.15,-10
864,0,0,1,0,383.15,368.15,-10
866,0,0,1,0,383.15,368.15,-10
868,0,0,1,0,383.15,368.15,-10
870,0,0,1,0,383.15,368.15,-10
872,0,0,1,0,383.15,368.15,-10
874,0,0,1,0,383.15,368.15,-10
876,0,0,1,0,383.15,368.15,-10
878,0,0,1,0,383.15,368.15,-10
880,0,0,1,0,383.15,368.15,-10
882,0,0,1,0,383.15,368.15,-10
884,0,0,1,0,383.15,368.15,-10
886,0,0,1,0,383.15,368.15,-10
888,0,0,1,0,383.15,368.15,-10
890,0,0,1,0,383.15,368.15,-10
892,0,0,1,0,383.15,368.15,-10
894,0,0,1,0,383.15,368.15,-10
896,0,0,1,0,383.15,368.15,-10
898,0,0,1,0,383.15,368.15,-10
900,0,0,1,0,383.15,368.15,-10
902,0,0,1,0,383.15,368.15,-10
904,0,0,1,0,383.15,368.15,-10
906,0,0,1,0,383.15,368.15,-10
908,0,0,1,0,383.15,368.15,-10
910,0,0,1,0,383.15,368.15,-10
912,0,0,1,0,383.15,368.15,-10
914,0,0,1,0,383.15,368.15,-10
916,0,0,1,0,383.15,368.15,-10
918,0,0,1,0,383.15,368.15,-10
920,0,0,1,0,383.15,368.15,-10
922,0,0,1,0,383.15,368.15,-10
924,0,0,1,0,383.15,368.15,-10
926,0,0,1,0,383.15,368.15,-10
928,0,0,1,0,383.15,368.15,-10
930,0,0,1,0,383.15,368.15,-10
932,0,0,1,0,383.15,368.15,-10
934,0,0,1,0,383.15,368.15,-10
936,0,0,1,0,383.15,368.15,-10
938,0,0,1,0,383.15,368.15,-10
940,0,0,1,0,383.15,368.15,-10
942,0,0,1,0,383.15,368.15,-10
944,0,0,1,0,383.15,368.15,-10
946,0,0,1,0,383.15,368.15,-10
948,0,0,1,0,383.15,368.15,-10
950,0,0,1,0,383.15,368.15,-10
952,0,0,1,0,383.15,368.15,-10
954,0,0,1,0,383.15,368.15,-10
956,0,0,1,0,383.15,368.15,-10
958,0,0,1,0,383.15,368.15,-10
960,0,0,1,0,383.15,368.15,-10
962,0,0,1,0,383.15,368.15,-10
964,0,0,1,0,383.15,368.15,-10
966,0,0,1,0,383.15,368.15,-10
968,0,0,1,0,383.15,368.15,-10
970,0,0,1,0,383.15,368.15,-10
972,0,0,1,0,383.15,368.15,-10
974,0,0,1,0,383.15,368.15,-10
976,0,0,1,0,383.15,368.15,-10
978,0,0,1,0,383.15,368.15,-10
980,0,0,1,0,383.15,368.15,-10
982,0,0,1,0,383.15,368.15,-10
984,0,0,1,0,383.15,368.15,-10
986,0,0,1,0,383.15,368.15,-10
988,0,0,1,0,383.15,368.15,-10
990,0,0,1,0,383.15,368.15,-10
992,0,0,1,0,383.15,368.15,-10
994,0,0,1,0,383.15,368.15,-10
996,0,0,1,0,383.15,368.15,-10
998,0,0,1,0,383.15,368.15,-10
1000,0,0,1,0,383.15,368.15,-10
1000,0,0,1,0,383.15,368.15,-10
