%!PS-Adobe-3.0 EPSF-3.0
%%Title: D:/Github/solarsystem/Outputs/Issues/Algo/S6_S5.eps
%%Creator: matplotlib version 1.3.1, http://matplotlib.org/
%%CreationDate: Fri Jun 20 14:53:15 2014
%%Orientation: portrait
%%BoundingBox: -558 -37 1170 829
%%EndComments
%%BeginProlog
/mpldict 10 dict def
mpldict begin
/m { moveto } bind def
/l { lineto } bind def
/r { rlineto } bind def
/c { curveto } bind def
/cl { closepath } bind def
/box {
m
1 index 0 r
0 exch r
neg 0 r
cl
} bind def
/clipbox {
box
clip
newpath
} bind def
%!PS-Adobe-3.0 Resource-Font
%%Title: Bitstream Vera Serif
%%Copyright: Copyright (c) 2003 by Bitstream, Inc. All Rights Reserved.
%%Creator: Converted from TrueType to type 3 by PPR
25 dict begin
/_d{bind def}bind def
/_m{moveto}_d
/_l{lineto}_d
/_cl{closepath eofill}_d
/_c{curveto}_d
/_sc{7 -1 roll{setcachedevice}{pop pop pop pop pop pop}ifelse}_d
/_e{exec}_d
/FontName /BitstreamVeraSerif-Roman def
/PaintType 0 def
/FontMatrix[.001 0 0 .001 0 0]def
/FontBBox[-183 -236 1287 928]def
/FontType 3 def
/Encoding [ /hyphen /zero /one /two /three /four /five /six /eight /colon /C /D /S /T /V /underscore /a /e /l /o /r /s /t /degree /minus ] def
/FontInfo 10 dict dup begin
/FamilyName (Bitstream Vera Serif) def
/FullName (Bitstream Vera Serif) def
/Notice (Copyright (c) 2003 by Bitstream, Inc. All Rights Reserved. Bitstream Vera is a trademark of Bitstream, Inc.) def
/Weight (Roman) def
/Version (Release 1.10) def
/ItalicAngle 0.0 def
/isFixedPitch false def
/UnderlinePosition -213 def
/UnderlineThickness 133 def
end readonly def
/CharStrings 25 dict dup begin
/hyphen{338 0 44 230 294 306 _sc
44 306 _m
294 306 _l
294 230 _l
44 230 _l
44 306 _l
_cl}_d
/zero{636 0 66 -13 570 742 _sc
318 34 _m
368 34 405 61 430 116 _c
454 170 467 253 467 364 _c
467 474 454 557 430 612 _c
405 666 368 694 318 694 _c
268 694 230 666 206 612 _c
181 557 169 474 169 364 _c
169 253 181 170 206 116 _c
230 61 268 34 318 34 _c
318 -13 _m
238 -13 176 20 132 86 _c
88 152 66 244 66 364 _c
66 483 88 576 132 642 _c
176 708 238 742 318 742 _c
397 742 459 708 503 642 _c
547 576 570 483 570 364 _c
570 244 547 152 503 86 _c
459 20 397 -13 318 -13 _c
_cl}_d
/one{636 0 122 0 494 742 _sc
142 0 _m
142 52 _l
269 52 _l
269 658 _l
122 563 _l
122 627 _l
300 742 _l
367 742 _l
367 52 _l
494 52 _l
494 0 _l
142 0 _l
_cl}_d
/two{{636 0 68 0 538 742 _sc
128 555 _m
73 555 _l
73 685 _l
107 703 142 717 178 727 _c
213 737 248 742 282 742 _c
358 742 418 723 462 687 _c
506 650 528 600 528 537 _c
528 465 478 380 378 281 _c
370 273 365 268 361 264 _c
177 80 _l
481 80 _l
481 170 _l
538 170 _l
538 0 _l
68 0 _l
68 53 _l
289 274 _l
337 322 372 367 393 408 _c
414 449 425 492 425 537 _c
}_e{425 586 412 624 386 652 _c
360 680 325 694 281 694 _c
234 694 198 682 173 659 _c
147 636 132 601 128 555 _c
_cl}_e}_d
/three{{636 0 76 -13 562 742 _sc
97 698 _m
135 712 171 723 206 731 _c
241 738 274 742 305 742 _c
376 742 432 726 472 696 _c
512 665 532 622 532 568 _c
532 524 518 487 490 458 _c
462 428 423 408 373 398 _c
433 389 479 367 512 332 _c
545 297 562 252 562 197 _c
562 129 539 77 493 41 _c
447 5 382 -13 296 -13 _c
258 -13 220 -9 184 -1 _c
148 6 112 18 76 35 _c
76 177 _l
}_e{131 177 _l
134 129 150 94 178 70 _c
206 46 246 34 298 34 _c
348 34 387 48 416 77 _c
444 106 459 146 459 196 _c
459 253 444 296 414 326 _c
384 355 341 370 284 370 _c
238 370 _l
238 420 _l
262 420 _l
319 420 362 431 390 455 _c
418 479 433 514 433 562 _c
433 604 421 637 398 660 _c
374 682 341 694 297 694 _c
253 694 218 683 194 662 _c
170 641 156 610 152 570 _c
}_e{97 570 _l
97 698 _l
_cl}_e}_d
/four{636 0 31 0 586 742 _sc
349 247 _m
349 635 _l
100 247 _l
349 247 _l
564 0 _m
232 0 _l
232 52 _l
349 52 _l
349 195 _l
31 195 _l
31 248 _l
350 742 _l
447 742 _l
447 247 _l
586 247 _l
586 195 _l
447 195 _l
447 52 _l
564 52 _l
564 0 _l
_cl}_d
/five{{636 0 85 -13 559 729 _sc
503 729 _m
503 649 _l
169 649 _l
169 440 _l
185 452 205 460 228 466 _c
250 472 276 475 304 475 _c
382 475 444 453 490 409 _c
536 365 559 306 559 231 _c
559 153 536 93 490 51 _c
444 8 379 -13 296 -13 _c
262 -13 228 -9 193 -1 _c
157 6 121 18 85 35 _c
85 177 _l
140 177 _l
143 130 158 94 184 70 _c
210 46 248 34 296 34 _c
}_e{347 34 386 51 414 85 _c
442 119 456 167 456 231 _c
456 294 442 342 415 376 _c
387 410 348 427 296 427 _c
266 427 240 421 218 411 _c
196 401 176 385 159 363 _c
117 363 _l
117 729 _l
503 729 _l
_cl}_e}_d
/six{{636 0 67 -13 573 742 _sc
327 34 _m
373 34 408 50 433 84 _c
457 118 470 166 470 230 _c
470 293 457 341 433 375 _c
408 409 373 426 327 426 _c
280 426 244 409 220 377 _c
196 344 184 297 184 236 _c
184 171 196 121 221 86 _c
245 51 281 34 327 34 _c
168 401 _m
190 425 215 444 243 456 _c
271 468 302 474 338 474 _c
410 474 468 452 510 408 _c
552 364 573 305 573 230 _c
}_e{573 156 550 97 505 53 _c
459 9 399 -13 323 -13 _c
241 -13 177 17 133 78 _c
89 139 67 227 67 341 _c
67 468 93 567 145 637 _c
197 707 271 742 367 742 _c
393 742 420 739 448 735 _c
476 730 505 723 535 713 _c
535 593 _l
480 593 _l
476 625 463 650 442 668 _c
421 685 393 694 357 694 _c
293 694 246 670 215 622 _c
184 574 168 500 168 401 _c
_cl}_e}_d
/eight{{636 0 67 -13 569 742 _sc
466 199 _m
466 251 453 291 427 320 _c
401 349 364 364 318 364 _c
271 364 235 349 209 320 _c
183 291 170 251 170 199 _c
170 147 183 106 209 77 _c
235 48 271 34 318 34 _c
364 34 401 48 427 77 _c
453 106 466 147 466 199 _c
446 553 _m
446 597 434 632 412 657 _c
389 681 358 694 318 694 _c
278 694 246 681 224 657 _c
201 632 190 597 190 553 _c
}_e{190 508 201 473 224 449 _c
246 424 278 412 318 412 _c
358 412 389 424 412 449 _c
434 473 446 508 446 553 _c
393 388 _m
448 380 491 360 522 327 _c
553 293 569 251 569 199 _c
569 131 547 78 504 42 _c
460 5 398 -13 318 -13 _c
237 -13 175 5 132 42 _c
88 78 67 131 67 199 _c
67 251 82 293 113 327 _c
144 360 187 380 243 388 _c
193 396 156 415 130 444 _c
}_e{104 472 91 509 91 553 _c
91 611 111 657 151 691 _c
191 725 247 742 318 742 _c
388 742 444 725 484 691 _c
524 657 545 611 545 553 _c
545 509 531 472 505 444 _c
479 415 441 396 393 388 _c
_cl}_e}_d
/colon{337 0 104 -13 234 434 _sc
104 51 _m
104 69 110 84 123 97 _c
135 109 151 116 169 116 _c
187 116 202 109 215 97 _c
227 84 234 69 234 51 _c
234 32 227 17 215 5 _c
203 -7 187 -13 169 -13 _c
150 -13 134 -7 122 5 _c
110 17 104 32 104 51 _c
104 369 _m
104 387 110 402 123 415 _c
135 427 151 434 169 434 _c
187 434 203 427 215 415 _c
227 403 234 387 234 369 _c
234 350 227 334 215 322 _c
203 310 187 304 169 304 _c
151 304 135 310 123 323 _c
110 335 104 351 104 369 _c
_cl}_d
/C{{765 0 56 -13 705 742 _sc
705 193 _m
683 125 647 73 597 39 _c
546 4 482 -13 405 -13 _c
357 -13 312 -5 272 11 _c
231 27 195 50 164 82 _c
127 118 100 160 82 206 _c
64 252 56 305 56 364 _c
56 477 88 568 154 638 _c
219 707 305 742 413 742 _c
453 742 495 736 540 726 _c
584 716 633 700 685 679 _c
685 511 _l
630 511 _l
618 572 593 617 557 646 _c
}_e{521 675 470 690 405 690 _c
327 690 268 662 228 607 _c
188 551 168 470 168 364 _c
168 257 188 176 228 121 _c
268 65 327 38 405 38 _c
459 38 503 51 539 77 _c
574 103 599 141 615 193 _c
705 193 _l
_cl}_e}_d
/D{802 0 55 0 744 729 _sc
247 52 _m
338 52 _l
432 52 505 79 556 133 _c
606 187 632 264 632 365 _c
632 466 606 543 556 597 _c
505 650 432 677 338 677 _c
247 677 _l
247 52 _l
55 0 _m
55 52 _l
148 52 _l
148 677 _l
55 677 _l
55 729 _l
345 729 _l
471 729 569 697 639 633 _c
709 569 744 479 744 365 _c
744 250 708 160 638 96 _c
568 32 470 0 345 0 _c
55 0 _l
_cl}_d
/S{{685 0 84 -13 612 742 _sc
93 35 _m
93 201 _l
149 201 _l
150 145 166 104 197 78 _c
227 51 274 38 336 38 _c
394 38 438 49 468 72 _c
498 95 514 129 514 173 _c
514 208 504 235 486 254 _c
468 272 429 291 370 309 _c
274 338 _l
204 359 154 385 126 417 _c
98 448 84 491 84 547 _c
84 609 106 657 150 691 _c
194 725 255 742 335 742 _c
369 742 406 738 446 731 _c
}_e{486 723 529 713 575 699 _c
575 544 _l
520 544 _l
514 595 497 632 468 655 _c
439 678 395 690 337 690 _c
285 690 246 679 219 658 _c
192 637 179 607 179 567 _c
179 532 189 505 209 485 _c
229 465 272 445 338 426 _c
428 399 _l
494 379 541 353 569 323 _c
597 292 612 251 612 199 _c
612 128 589 75 544 40 _c
498 4 431 -13 342 -13 _c
302 -13 261 -9 219 -1 _c
}_e{177 6 135 18 93 35 _c
_cl}_e}_d
/T{667 0 10 0 657 729 _sc
191 0 _m
191 52 _l
284 52 _l
284 671 _l
70 671 _l
70 557 _l
10 557 _l
10 729 _l
657 729 _l
657 557 _l
597 557 _l
597 671 _l
383 671 _l
383 52 _l
476 52 _l
476 0 _l
191 0 _l
_cl}_d
/V{722 0 -9 0 737 729 _sc
175 677 _m
390 117 _l
605 677 _l
523 677 _l
523 729 _l
737 729 _l
737 677 _l
666 677 _l
406 0 _l
322 0 _l
63 677 _l
-9 677 _l
-9 729 _l
256 729 _l
256 677 _l
175 677 _l
_cl}_d
/underscore{500 0 0 -235 500 -196 _sc
500 -196 _m
500 -235 _l
0 -235 _l
0 -196 _l
500 -196 _l
_cl}_d
/a{{596 0 50 -13 568 533 _sc
398 163 _m
398 273 _l
282 273 _l
237 273 204 263 182 244 _c
160 224 150 195 150 156 _c
150 120 161 91 183 70 _c
205 48 235 38 273 38 _c
310 38 340 49 363 72 _c
386 95 398 125 398 163 _c
488 324 _m
488 52 _l
568 52 _l
568 0 _l
398 0 _l
398 56 _l
378 32 355 14 329 3 _c
303 -7 272 -13 238 -13 _c
180 -13 134 2 100 32 _c
}_e{66 62 50 104 50 156 _c
50 209 69 250 108 280 _c
146 310 201 325 272 325 _c
398 325 _l
398 361 _l
398 400 386 430 362 452 _c
338 474 304 485 261 485 _c
225 485 197 476 176 460 _c
154 444 141 420 136 388 _c
90 388 _l
90 493 _l
121 506 151 516 181 523 _c
210 529 239 533 267 533 _c
339 533 393 515 431 479 _c
469 443 488 392 488 324 _c
_cl}_e}_d
/e{{592 0 50 -13 542 533 _sc
542 250 _m
155 250 _l
155 246 _l
155 176 168 123 194 87 _c
220 51 259 34 311 34 _c
350 34 382 44 408 65 _c
433 85 451 116 461 157 _c
533 157 _l
519 100 492 57 454 29 _c
415 1 364 -13 302 -13 _c
226 -13 165 11 119 61 _c
73 111 50 177 50 260 _c
50 342 72 408 118 458 _c
163 508 222 533 296 533 _c
374 533 435 508 477 460 _c
}_e{519 412 540 342 542 250 _c
436 302 _m
434 362 421 408 397 439 _c
373 469 340 485 296 485 _c
254 485 222 469 198 438 _c
174 407 160 362 155 302 _c
436 302 _l
_cl}_e}_d
/l{320 0 29 0 290 760 _sc
205 52 _m
290 52 _l
290 0 _l
29 0 _l
29 52 _l
115 52 _l
115 708 _l
29 708 _l
29 760 _l
205 760 _l
205 52 _l
_cl}_d
/o{602 0 50 -13 552 533 _sc
301 34 _m
349 34 385 53 410 91 _c
434 129 447 185 447 260 _c
447 334 434 390 410 428 _c
385 466 349 485 301 485 _c
253 485 216 466 192 428 _c
167 390 155 334 155 260 _c
155 185 167 129 192 91 _c
216 53 253 34 301 34 _c
301 -13 _m
225 -13 165 11 119 61 _c
73 111 50 177 50 260 _c
50 342 72 408 118 458 _c
164 508 225 533 301 533 _c
377 533 437 508 483 458 _c
529 408 552 342 552 260 _c
552 177 529 111 483 61 _c
437 11 377 -13 301 -13 _c
_cl}_d
/r{478 0 36 0 478 533 _sc
478 520 _m
478 390 _l
426 390 _l
424 416 417 435 405 448 _c
392 460 373 467 349 467 _c
305 467 271 451 247 421 _c
223 390 212 346 212 289 _c
212 52 _l
316 52 _l
316 0 _l
41 0 _l
41 52 _l
122 52 _l
122 468 _l
36 468 _l
36 519 _l
212 519 _l
212 427 _l
229 463 251 489 279 507 _c
307 524 341 533 381 533 _c
395 533 411 531 427 529 _c
443 527 460 524 478 520 _c
_cl}_d
/s{{513 0 56 -13 462 533 _sc
56 29 _m
56 150 _l
108 150 _l
109 111 121 82 144 63 _c
167 43 201 34 246 34 _c
286 34 317 41 338 57 _c
359 72 370 94 370 123 _c
370 145 362 164 347 178 _c
331 192 299 207 249 223 _c
184 245 _l
139 259 107 277 87 299 _c
67 320 57 347 57 381 _c
57 428 74 465 109 492 _c
144 519 192 533 254 533 _c
281 533 310 529 340 522 _c
}_e{370 515 402 505 434 491 _c
434 378 _l
382 378 _l
380 411 369 437 347 456 _c
325 475 295 485 257 485 _c
219 485 190 478 171 465 _c
151 451 142 431 142 405 _c
142 383 149 365 164 352 _c
178 339 208 326 252 312 _c
323 290 _l
372 274 407 255 429 232 _c
451 209 462 180 462 144 _c
462 94 443 56 405 28 _c
367 0 316 -13 250 -13 _c
216 -13 184 -9 152 -3 _c
}_e{120 3 88 14 56 29 _c
_cl}_e}_d
/t{402 0 29 -13 394 680 _sc
108 467 _m
29 467 _l
29 519 _l
108 519 _l
108 680 _l
198 680 _l
198 519 _l
367 519 _l
367 467 _l
198 467 _l
198 137 _l
198 93 202 64 211 52 _c
219 40 235 34 258 34 _c
281 34 298 41 309 55 _c
319 69 325 91 326 122 _c
394 122 _l
391 74 378 40 355 19 _c
332 -2 297 -13 250 -13 _c
198 -13 161 -1 140 21 _c
118 43 108 82 108 137 _c
108 467 _l
_cl}_d
/degree{{500 0 95 432 405 742 _sc
250 675 _m
225 675 204 666 187 649 _c
170 632 162 611 162 586 _c
162 561 170 540 187 524 _c
203 507 224 499 250 499 _c
274 499 295 507 312 524 _c
329 540 338 561 338 586 _c
338 610 329 631 312 649 _c
294 666 274 675 250 675 _c
250 742 _m
270 742 290 738 310 730 _c
329 722 346 710 360 696 _c
374 681 385 664 393 646 _c
401 627 405 607 405 586 _c
}_e{405 542 389 506 359 476 _c
329 446 292 432 249 432 _c
205 432 168 446 139 476 _c
109 505 95 542 95 586 _c
95 629 110 666 140 696 _c
170 726 206 742 250 742 _c
_cl}_e}_d
/minus{838 0 106 274 732 353 _sc
106 353 _m
732 353 _l
732 274 _l
106 274 _l
106 353 _l
_cl}_d
end readonly def

/BuildGlyph
 {exch begin
 CharStrings exch
 2 copy known not{pop /.notdef}if
 true 3 1 roll get exec
 end}_d

/BuildChar {
 1 index /Encoding get exch get
 1 index /BuildGlyph get exec
}_d

FontName currentdict end definefont pop
%!PS-Adobe-3.0 Resource-Font
%%Title: Anonymous Pro
%%Copyright: Copyright (c) Mark Simonson 2009-2010. All rights reserved.
%%Creator: Converted from TrueType to type 3 by PPR
25 dict begin
/_d{bind def}bind def
/_m{moveto}_d
/_l{lineto}_d
/_cl{closepath eofill}_d
/_c{curveto}_d
/_sc{7 -1 roll{setcachedevice}{pop pop pop pop pop pop}ifelse}_d
/_e{exec}_d
/FontName /AnonymousPro def
/PaintType 0 def
/FontMatrix[.001 0 0 .001 0 0]def
/FontBBox[-81 -193 560 905]def
/FontType 3 def
/Encoding [ /space /five /six /A /S /c /d /e /g /h /i /l /m /n /o /r /t ] def
/FontInfo 10 dict dup begin
/FamilyName (Anonymous Pro) def
/FullName (Anonymous Pro) def
/Notice (Copyright (c) Mark Simonson 2009-2010. All rights reserved. Anonymous Pro is a trademark of Mark Simonson.) def
/Weight (Regular) def
/Version (Version 1.002) def
/ItalicAngle 0.0 def
/isFixedPitch true def
/UnderlinePosition -187 def
/UnderlineThickness 123 def
end readonly def
/CharStrings 17 dict dup begin
/space{546 0 0 0 0 0 _sc
}_d
/five{{546 0 2 -10 458 637 _sc
458 214 _m
458 182 452 153 440 126 _c
428 98 412 74 392 54 _c
372 34 347 18 319 7 _c
290 -4 259 -10 225 -10 _c
194 -10 166 -5 140 3 _c
114 11 91 24 71 41 _c
51 58 36 79 24 104 _c
12 128 4 157 2 189 _c
67 199 _l
69 177 74 156 82 137 _c
90 118 101 102 115 89 _c
129 75 145 65 164 57 _c
182 49 203 46 225 46 _c
}_e{251 46 274 50 294 59 _c
314 67 332 79 346 95 _c
360 110 371 128 379 148 _c
387 168 391 190 391 214 _c
391 238 387 260 379 281 _c
371 301 361 319 347 334 _c
333 349 315 361 295 370 _c
275 378 252 383 228 383 _c
202 383 177 377 153 366 _c
129 355 108 339 91 319 _c
24 319 _l
24 637 _l
423 637 _l
423 580 _l
91 580 _l
91 381 _l
110 399 132 414 157 424 _c
}_e{182 434 208 440 234 440 _c
266 440 296 434 324 424 _c
351 413 375 398 395 379 _c
415 359 430 336 441 308 _c
452 280 458 248 458 214 _c
_cl}_e}_d
/six{{546 0 -3 -10 468 648 _sc
468 217 _m
468 181 462 150 450 122 _c
438 94 422 70 402 50 _c
381 30 356 15 328 5 _c
300 -5 269 -10 237 -10 _c
191 -10 153 -1 123 17 _c
92 35 67 59 49 89 _c
30 119 17 154 9 194 _c
1 234 -3 275 -3 318 _c
-3 361 2 402 13 442 _c
24 482 41 517 63 548 _c
85 578 113 603 147 621 _c
181 639 220 648 266 648 _c
}_e{329 648 382 626 424 582 _c
380 543 _l
350 575 312 591 266 591 _c
232 591 201 584 175 571 _c
149 558 127 540 110 517 _c
92 493 79 465 71 433 _c
62 400 58 364 58 325 _c
62 341 71 357 84 372 _c
96 386 111 399 128 410 _c
144 420 162 429 182 435 _c
201 441 220 445 240 445 _c
273 445 304 439 332 428 _c
360 416 384 401 404 381 _c
424 361 439 337 451 309 _c
}_e{462 281 468 250 468 217 _c
401 217 _m
401 241 397 263 390 284 _c
382 305 372 323 358 339 _c
344 354 328 366 308 375 _c
288 383 265 388 240 388 _c
215 388 192 384 172 376 _c
151 368 133 356 119 342 _c
104 327 93 310 85 290 _c
77 270 73 247 73 223 _c
73 199 76 176 83 155 _c
89 133 99 114 113 98 _c
127 82 144 69 164 60 _c
184 50 209 46 237 46 _c
}_e{261 46 283 50 303 58 _c
323 66 340 77 355 92 _c
369 106 381 124 389 146 _c
397 167 401 191 401 217 _c
_cl}_e}_d
/A{546 0 -28 0 486 637 _sc
486 0 _m
414 0 _l
354 182 _l
102 182 _l
43 0 _l
-28 0 _l
183 637 _l
274 637 _l
486 0 _l
335 241 _m
228 570 _l
121 241 _l
335 241 _l
_cl}_d
/S{{546 0 12 -10 439 648 _sc
439 166 _m
439 139 433 115 422 93 _c
411 71 396 53 378 37 _c
359 21 338 10 314 2 _c
290 -6 265 -10 239 -10 _c
203 -10 170 -3 140 9 _c
110 22 86 42 69 68 _c
69 0 _l
12 0 _l
12 194 _l
69 194 _l
69 172 74 152 84 134 _c
94 116 106 100 122 87 _c
138 74 156 64 176 57 _c
196 49 217 46 239 46 _c
257 46 275 48 291 54 _c
}_e{307 59 321 67 333 77 _c
345 87 354 99 361 113 _c
368 127 372 144 372 162 _c
372 182 367 200 358 215 _c
349 229 337 242 322 252 _c
307 262 290 271 271 279 _c
252 286 233 293 214 301 _c
190 309 167 317 144 326 _c
121 335 100 346 82 360 _c
64 374 49 390 38 410 _c
26 430 21 454 21 484 _c
21 510 26 533 37 553 _c
48 573 63 591 81 605 _c
}_e{99 619 119 629 143 637 _c
167 644 191 648 217 648 _c
247 648 276 641 302 629 _c
328 616 349 597 364 571 _c
364 637 _l
423 637 _l
423 455 _l
364 455 _l
364 474 360 492 352 509 _c
344 525 333 540 319 552 _c
305 564 290 573 272 580 _c
254 587 236 591 217 591 _c
199 591 183 589 167 585 _c
151 581 138 574 126 566 _c
114 557 105 546 98 532 _c
91 518 88 502 88 484 _c
}_e{88 467 92 453 100 441 _c
108 429 120 419 134 410 _c
148 401 164 393 182 386 _c
200 378 219 371 239 364 _c
263 355 286 345 310 335 _c
334 325 355 312 374 298 _c
393 283 409 265 421 244 _c
433 222 439 196 439 166 _c
_cl}_e}_d
/c{{546 0 0 -10 438 466 _sc
438 87 _m
418 57 392 33 359 16 _c
325 -1 286 -10 240 -10 _c
204 -10 172 -4 142 7 _c
112 18 87 34 66 55 _c
45 76 29 101 17 130 _c
5 159 0 191 0 227 _c
0 261 5 293 16 323 _c
26 352 42 377 62 398 _c
82 419 106 436 135 448 _c
163 460 195 466 231 466 _c
245 466 259 464 274 461 _c
288 457 302 452 315 446 _c
}_e{328 439 340 431 350 422 _c
360 412 368 401 374 389 _c
374 455 _l
434 455 _l
434 273 _l
374 273 _l
374 293 370 311 363 328 _c
355 344 345 359 333 371 _c
320 383 305 392 287 399 _c
269 405 251 409 231 409 _c
203 409 179 404 159 395 _c
139 385 122 372 108 356 _c
94 340 84 321 77 299 _c
70 277 67 253 67 227 _c
67 201 71 177 79 155 _c
87 133 98 114 113 98 _c
}_e{128 82 146 69 168 60 _c
189 50 213 46 240 46 _c
274 46 304 52 330 66 _c
356 79 377 97 391 119 _c
438 87 _l
_cl}_e}_d
/d{{546 0 0 -10 431 637 _sc
431 0 _m
364 0 _l
364 42 _l
344 24 323 11 300 3 _c
277 -5 254 -10 230 -10 _c
194 -10 161 -4 133 7 _c
104 18 80 34 60 55 _c
40 76 25 101 15 131 _c
5 160 0 192 0 227 _c
0 261 5 293 15 323 _c
25 352 40 377 60 398 _c
80 419 104 436 133 448 _c
161 460 194 466 230 466 _c
254 466 277 461 300 453 _c
}_e{323 444 344 431 364 414 _c
364 580 _l
273 580 _l
273 637 _l
431 637 _l
431 0 _l
364 349 _m
344 370 323 385 301 395 _c
278 404 254 409 229 409 _c
202 409 178 404 158 395 _c
138 385 121 372 107 356 _c
93 340 83 321 76 299 _c
69 277 66 253 66 227 _c
66 201 69 177 76 155 _c
83 133 93 113 107 97 _c
121 81 138 68 158 59 _c
178 49 202 45 229 45 _c
}_e{280 45 325 65 364 106 _c
364 349 _l
_cl}_e}_d
/e{{546 0 -1 -10 460 466 _sc
67 204 _m
71 156 89 117 119 89 _c
149 60 189 46 238 46 _c
272 46 302 53 329 67 _c
355 81 375 98 389 119 _c
436 87 _l
413 55 386 30 354 14 _c
322 -2 284 -10 238 -10 _c
202 -10 170 -4 141 7 _c
111 18 86 34 65 55 _c
43 76 27 101 16 130 _c
4 159 -1 191 -1 227 _c
-1 261 4 293 14 322 _c
24 351 40 376 60 398 _c
}_e{80 419 104 436 133 448 _c
161 460 193 466 229 466 _c
267 466 301 459 330 446 _c
359 433 383 415 403 392 _c
422 369 436 342 446 310 _c
455 278 460 242 460 204 _c
67 204 _l
389 261 _m
381 311 363 348 335 372 _c
306 396 271 409 229 409 _c
207 409 187 405 169 398 _c
151 391 135 381 121 368 _c
107 355 95 339 86 321 _c
76 303 70 283 68 261 _c
389 261 _l
_cl}_e}_d
/g{{546 0 0 -192 431 466 _sc
431 5 _m
431 -25 425 -53 415 -77 _c
404 -101 389 -122 370 -139 _c
350 -156 327 -169 301 -178 _c
275 -187 246 -192 214 -192 _c
168 -192 130 -183 98 -166 _c
66 -149 39 -125 16 -93 _c
63 -57 _l
77 -78 97 -96 123 -110 _c
149 -124 180 -132 214 -132 _c
260 -132 296 -120 323 -97 _c
350 -73 364 -40 364 3 _c
364 52 _l
324 17 278 0 228 0 _c
}_e{156 0 100 20 60 60 _c
20 100 0 156 0 227 _c
0 261 5 293 15 322 _c
25 351 40 376 60 398 _c
80 419 104 436 132 448 _c
160 460 192 466 228 466 _c
252 466 276 461 300 453 _c
323 444 344 431 364 414 _c
364 455 _l
431 455 _l
431 5 _l
364 349 _m
344 370 323 385 300 395 _c
277 404 253 409 228 409 _c
201 409 177 404 157 395 _c
137 385 120 372 107 356 _c
}_e{93 340 83 320 76 298 _c
69 276 66 252 66 227 _c
66 175 79 133 106 102 _c
133 71 174 56 228 56 _c
253 56 277 60 300 70 _c
323 80 344 95 364 117 _c
364 349 _l
_cl}_e}_d
/h{546 0 24 0 431 637 _sc
431 0 _m
364 0 _l
364 281 _l
364 321 355 353 337 375 _c
319 397 291 409 252 409 _c
227 409 205 403 185 392 _c
165 380 148 365 134 346 _c
120 327 109 305 102 281 _c
94 256 91 230 91 204 _c
91 0 _l
24 0 _l
24 637 _l
91 637 _l
91 341 _l
123 424 180 466 263 466 _c
375 466 431 404 431 281 _c
431 0 _l
_cl}_d
/i{546 0 91 0 364 637 _sc
273 546 _m
182 546 _l
182 637 _l
273 637 _l
273 546 _l
364 0 _m
91 0 _l
91 57 _l
194 57 _l
194 398 _l
91 398 _l
91 455 _l
261 455 _l
261 57 _l
364 57 _l
364 0 _l
_cl}_d
/l{546 0 91 0 364 637 _sc
364 0 _m
91 0 _l
91 57 _l
194 57 _l
194 580 _l
91 580 _l
91 637 _l
261 637 _l
261 57 _l
364 57 _l
364 0 _l
_cl}_d
/m{{546 0 0 0 455 466 _sc
455 0 _m
388 0 _l
388 327 _l
388 353 383 373 374 387 _c
365 401 352 409 335 409 _c
309 409 291 395 279 369 _c
267 342 261 305 261 257 _c
261 0 _l
194 0 _l
194 327 _l
194 353 189 373 180 387 _c
170 401 157 409 140 409 _c
124 409 111 404 102 395 _c
92 385 85 373 80 359 _c
74 344 71 328 69 310 _c
67 292 67 274 67 257 _c
67 0 _l
}_e{0 0 _l
0 455 _l
67 455 _l
67 389 _l
81 440 111 466 158 466 _c
202 466 233 443 249 399 _c
271 443 302 466 343 466 _c
381 466 410 454 428 431 _c
446 408 455 373 455 327 _c
455 0 _l
_cl}_e}_d
/n{546 0 24 0 431 466 _sc
431 0 _m
364 0 _l
364 281 _l
364 321 355 353 337 375 _c
319 397 291 409 252 409 _c
227 409 205 403 185 392 _c
165 380 148 365 134 346 _c
120 327 109 305 102 281 _c
94 256 91 230 91 204 _c
91 0 _l
24 0 _l
24 455 _l
91 455 _l
91 341 _l
123 424 180 466 263 466 _c
375 466 431 404 431 281 _c
431 0 _l
_cl}_d
/o{{546 0 -9 -10 467 466 _sc
467 226 _m
467 190 461 158 450 129 _c
438 100 422 75 401 55 _c
380 34 355 18 326 7 _c
296 -4 264 -10 228 -10 _c
192 -10 160 -4 131 7 _c
101 18 76 34 55 55 _c
34 75 18 100 7 129 _c
-3 158 -9 190 -9 226 _c
-9 260 -3 292 7 322 _c
18 352 34 377 55 398 _c
76 419 101 436 131 448 _c
160 460 192 466 228 466 _c
}_e{264 466 296 460 326 448 _c
355 436 380 419 401 398 _c
422 377 438 352 450 322 _c
461 292 467 260 467 226 _c
400 226 _m
400 252 396 276 388 298 _c
380 320 369 339 354 356 _c
339 372 321 385 300 395 _c
278 404 254 409 228 409 _c
201 409 177 404 156 395 _c
134 385 116 372 102 356 _c
87 339 76 320 68 298 _c
60 276 57 252 57 226 _c
57 200 60 176 68 154 _c
}_e{76 132 87 113 102 97 _c
116 81 134 68 156 59 _c
177 50 201 46 228 46 _c
254 46 278 50 300 59 _c
321 68 339 81 354 97 _c
369 113 380 132 388 154 _c
396 176 400 200 400 226 _c
_cl}_e}_d
/r{546 0 0 0 452 466 _sc
430 391 _m
406 403 377 409 344 409 _c
316 409 292 403 271 391 _c
249 379 231 364 216 345 _c
201 326 190 304 182 280 _c
174 255 170 230 170 204 _c
170 57 _l
273 57 _l
273 0 _l
0 0 _l
0 57 _l
103 57 _l
103 398 _l
0 398 _l
0 455 _l
170 455 _l
170 341 _l
200 424 258 466 344 466 _c
367 466 387 464 404 461 _c
421 458 437 453 452 446 _c
430 391 _l
_cl}_d
/t{{546 0 0 -10 460 637 _sc
460 145 _m
454 97 435 59 403 31 _c
371 3 330 -10 282 -10 _c
255 -10 231 -6 209 2 _c
187 10 168 22 152 38 _c
136 54 124 73 116 95 _c
107 117 103 141 103 167 _c
103 398 _l
0 398 _l
0 455 _l
103 455 _l
103 637 _l
170 637 _l
170 455 _l
364 455 _l
364 398 _l
170 398 _l
170 167 _l
170 150 172 134 178 120 _c
183 105 190 92 200 81 _c
}_e{210 70 221 61 235 55 _c
249 49 264 46 282 46 _c
315 46 343 56 365 77 _c
387 97 400 124 404 157 _c
460 145 _l
_cl}_e}_d
end readonly def

/BuildGlyph
 {exch begin
 CharStrings exch
 2 copy known not{pop /.notdef}if
 true 3 1 roll get exec
 end}_d

/BuildChar {
 1 index /Encoding get exch get
 1 index /BuildGlyph get exec
}_d

FontName currentdict end definefont pop
%!PS-Adobe-3.0 Resource-Font
%%Title: Anonymous Pro Bold
%%Copyright: Copyright (c) Mark Simonson 2009-2010. All rights reserved.
%%Creator: Converted from TrueType to type 3 by PPR
25 dict begin
/_d{bind def}bind def
/_m{moveto}_d
/_l{lineto}_d
/_cl{closepath eofill}_d
/_c{curveto}_d
/_sc{7 -1 roll{setcachedevice}{pop pop pop pop pop pop}ifelse}_d
/_e{exec}_d
/FontName /AnonymousPro-Bold def
/PaintType 0 def
/FontMatrix[.001 0 0 .001 0 0]def
/FontBBox[-91 -193 562 905]def
/FontType 3 def
/Encoding [ /space /five /six /A /S /c /d /e /g /h /i /l /m /n /o /p /r /s /t ] def
/FontInfo 10 dict dup begin
/FamilyName (Anonymous Pro) def
/FullName (Anonymous Pro Bold) def
/Notice (Copyright (c) Mark Simonson 2009-2010. All rights reserved. Anonymous Pro is a trademark of Mark Simonson.) def
/Weight (Bold) def
/Version (Version 1.002) def
/ItalicAngle 0.0 def
/isFixedPitch true def
/UnderlinePosition -187 def
/UnderlineThickness 123 def
end readonly def
/CharStrings 19 dict dup begin
/space{546 0 0 0 0 0 _sc
}_d
/five{{546 0 2 -10 460 637 _sc
460 214 _m
460 182 453 153 441 126 _c
428 98 411 74 389 54 _c
367 34 342 18 314 7 _c
286 -4 256 -10 225 -10 _c
194 -10 166 -5 140 3 _c
114 11 91 24 71 41 _c
51 58 36 79 24 104 _c
12 128 4 157 2 189 _c
98 203 _l
101 166 113 136 134 114 _c
154 91 185 80 225 80 _c
245 80 264 83 280 90 _c
296 97 309 107 321 119 _c
}_e{332 131 341 145 347 161 _c
353 177 356 195 356 214 _c
356 256 345 289 323 313 _c
301 337 272 349 236 349 _c
212 349 191 344 171 334 _c
151 324 136 309 125 287 _c
24 287 _l
24 637 _l
423 637 _l
423 546 _l
125 546 _l
125 381 _l
155 420 198 440 256 440 _c
283 440 309 434 334 424 _c
358 413 380 398 399 379 _c
417 359 432 336 443 308 _c
454 280 460 248 460 214 _c
_cl}_e}_d
/six{{546 0 -3 -10 463 648 _sc
463 217 _m
463 181 457 150 445 122 _c
433 94 417 70 397 50 _c
377 30 353 15 325 5 _c
297 -5 268 -10 237 -10 _c
189 -10 149 -1 118 17 _c
87 35 63 59 45 89 _c
27 119 14 154 7 194 _c
0 234 -3 275 -3 318 _c
-3 361 2 402 12 442 _c
22 482 39 517 61 548 _c
83 578 110 603 143 621 _c
176 639 215 648 261 648 _c
}_e{293 648 323 643 351 633 _c
379 623 404 609 426 591 _c
371 517 _l
354 531 337 542 319 548 _c
301 554 282 557 261 557 _c
233 557 209 551 188 540 _c
166 529 148 514 134 494 _c
120 474 109 450 102 423 _c
94 395 91 365 91 333 _c
101 367 120 394 148 416 _c
176 437 213 448 259 448 _c
286 448 312 442 337 430 _c
361 418 383 402 402 382 _c
420 362 435 337 446 309 _c
}_e{457 281 463 250 463 217 _c
362 217 _m
362 257 351 290 329 317 _c
307 344 275 358 234 358 _c
194 358 162 345 138 320 _c
114 295 102 262 102 222 _c
102 202 104 183 110 166 _c
115 149 123 134 134 121 _c
145 108 159 98 176 91 _c
193 83 214 80 238 80 _c
274 80 303 92 327 116 _c
350 140 362 173 362 217 _c
_cl}_e}_d
/A{546 0 -28 0 485 637 _sc
379 0 _m
333 152 _l
122 152 _l
77 0 _l
-28 0 _l
170 637 _l
286 637 _l
485 0 _l
379 0 _l
149 241 _m
306 241 _l
228 504 _l
149 241 _l
_cl}_d
/S{{546 0 13 -10 439 648 _sc
439 175 _m
439 145 434 119 424 96 _c
414 73 400 54 383 38 _c
366 22 346 10 322 2 _c
298 -6 273 -10 247 -10 _c
217 -10 190 -5 166 5 _c
142 15 121 33 104 58 _c
104 0 _l
13 0 _l
13 208 _l
104 208 _l
104 187 107 169 115 153 _c
122 137 132 123 144 112 _c
156 101 170 93 186 87 _c
202 81 219 79 237 79 _c
267 79 291 86 310 100 _c
}_e{328 114 338 136 338 167 _c
338 183 335 196 329 208 _c
323 219 315 229 305 238 _c
294 247 281 255 266 262 _c
250 268 233 275 214 283 _c
190 291 167 299 144 309 _c
121 319 100 331 82 345 _c
64 359 49 377 38 398 _c
26 419 21 446 21 478 _c
21 506 26 530 36 551 _c
46 572 60 590 77 604 _c
94 618 114 629 137 637 _c
159 644 183 648 209 648 _c
}_e{238 648 263 641 284 629 _c
305 617 321 600 333 580 _c
333 637 _l
424 637 _l
424 439 _l
333 439 _l
333 476 323 505 303 526 _c
283 547 257 558 224 558 _c
194 558 170 551 151 537 _c
131 523 122 504 122 480 _c
122 467 124 456 129 447 _c
134 438 141 430 151 423 _c
161 415 173 408 188 402 _c
202 396 219 389 239 382 _c
263 373 286 363 310 353 _c
334 342 355 329 374 313 _c
}_e{393 297 409 278 421 256 _c
433 234 439 207 439 175 _c
_cl}_e}_d
/c{{546 0 -9 -10 438 466 _sc
438 65 _m
408 35 377 15 345 5 _c
313 -5 278 -10 240 -10 _c
202 -10 167 -4 136 6 _c
105 17 79 33 57 54 _c
35 74 19 99 8 129 _c
-3 158 -9 191 -9 227 _c
-9 261 -3 293 8 323 _c
19 352 34 377 54 398 _c
74 419 97 436 124 448 _c
150 460 179 466 209 466 _c
240 466 267 459 290 446 _c
313 433 330 414 341 389 _c
341 455 _l
}_e{431 455 _l
431 243 _l
341 243 _l
341 283 330 315 308 339 _c
286 363 257 375 222 375 _c
208 375 193 372 178 366 _c
162 360 148 352 135 340 _c
122 328 111 312 103 294 _c
95 275 91 253 91 227 _c
91 201 95 179 103 161 _c
111 143 121 128 135 116 _c
148 104 164 95 182 89 _c
200 83 218 80 238 80 _c
270 80 299 85 323 95 _c
347 105 368 119 386 136 _c
438 65 _l
_cl}_e}_d
/d{{546 0 0 -10 431 637 _sc
431 0 _m
330 0 _l
330 42 _l
310 24 291 11 271 3 _c
251 -5 228 -10 203 -10 _c
173 -10 146 -4 121 7 _c
96 18 75 34 57 55 _c
39 76 25 101 15 131 _c
5 160 0 192 0 227 _c
0 261 5 293 15 323 _c
25 352 39 377 57 398 _c
75 419 96 436 121 448 _c
146 460 173 466 203 466 _c
228 466 251 461 271 453 _c
}_e{291 444 310 431 330 414 _c
330 546 _l
242 546 _l
242 637 _l
431 637 _l
431 0 _l
330 334 _m
318 347 302 357 283 364 _c
264 371 246 375 229 375 _c
191 375 160 361 136 334 _c
112 306 100 271 100 227 _c
100 183 112 147 136 120 _c
160 93 191 80 229 80 _c
246 80 264 83 283 90 _c
302 97 318 107 330 121 _c
330 334 _l
_cl}_e}_d
/e{{546 0 -9 -10 474 466 _sc
93 189 _m
97 157 112 131 137 111 _c
162 90 196 80 238 80 _c
270 80 299 85 323 95 _c
347 105 368 119 386 136 _c
438 65 _l
408 35 377 15 345 5 _c
312 -5 276 -10 238 -10 _c
202 -10 169 -4 139 7 _c
109 18 83 34 61 55 _c
39 76 21 101 9 130 _c
-3 159 -9 191 -9 227 _c
-9 261 -3 293 8 322 _c
19 351 35 376 56 398 _c
}_e{77 419 102 436 132 448 _c
161 460 193 466 229 466 _c
265 466 299 459 329 447 _c
359 434 384 416 406 392 _c
427 368 444 339 456 305 _c
468 271 474 232 474 189 _c
93 189 _l
360 278 _m
354 307 339 330 314 348 _c
289 366 261 375 229 375 _c
197 375 168 366 143 348 _c
117 330 102 307 97 278 _c
360 278 _l
_cl}_e}_d
/g{{546 0 0 -192 431 466 _sc
431 5 _m
431 -25 425 -53 415 -77 _c
404 -101 389 -122 370 -139 _c
350 -156 327 -169 301 -178 _c
275 -187 246 -192 214 -192 _c
134 -192 67 -168 11 -120 _c
59 -42 _l
105 -82 157 -102 214 -102 _c
248 -102 276 -93 298 -76 _c
319 -59 330 -33 330 3 _c
330 52 _l
309 34 289 20 270 12 _c
250 4 228 0 203 0 _c
173 0 146 6 121 18 _c
}_e{96 30 75 46 57 68 _c
39 89 25 114 15 142 _c
5 170 0 201 0 233 _c
0 265 5 295 15 323 _c
25 351 39 376 57 397 _c
75 418 96 435 121 447 _c
146 459 173 466 203 466 _c
228 466 251 461 271 453 _c
291 444 310 431 330 414 _c
330 455 _l
431 455 _l
431 5 _l
330 334 _m
318 347 302 357 283 364 _c
264 371 246 375 228 375 _c
190 375 159 361 135 335 _c
}_e{111 308 100 274 100 233 _c
100 212 103 193 109 176 _c
115 158 124 143 136 131 _c
147 118 160 108 176 101 _c
192 93 209 90 228 90 _c
246 90 264 93 283 101 _c
302 108 318 118 330 132 _c
330 334 _l
_cl}_e}_d
/h{546 0 24 0 431 637 _sc
431 0 _m
330 0 _l
330 281 _l
330 316 323 340 310 354 _c
296 368 277 375 252 375 _c
214 375 184 359 160 329 _c
136 299 125 257 125 204 _c
125 0 _l
24 0 _l
24 637 _l
125 637 _l
125 341 _l
135 380 153 411 181 433 _c
208 455 242 466 282 466 _c
328 466 365 450 391 420 _c
417 390 431 343 431 281 _c
431 0 _l
_cl}_d
/i{546 0 76 0 382 637 _sc
289 514 _m
166 514 _l
166 637 _l
289 637 _l
289 514 _l
382 0 _m
76 0 _l
76 91 _l
177 91 _l
177 364 _l
76 364 _l
76 455 _l
278 455 _l
278 91 _l
382 91 _l
382 0 _l
_cl}_d
/l{546 0 77 0 383 637 _sc
383 0 _m
77 0 _l
77 91 _l
177 91 _l
177 546 _l
77 546 _l
77 637 _l
278 637 _l
278 91 _l
383 91 _l
383 0 _l
_cl}_d
/m{{546 0 0 0 455 466 _sc
455 0 _m
354 0 _l
354 312 _l
354 333 351 349 347 359 _c
343 369 335 375 324 375 _c
304 375 291 363 286 341 _c
280 318 278 285 278 242 _c
278 0 _l
177 0 _l
177 312 _l
177 333 174 349 170 359 _c
165 369 157 375 146 375 _c
126 375 113 363 108 341 _c
103 318 101 285 101 242 _c
101 0 _l
0 0 _l
0 455 _l
102 455 _l
102 389 _l
}_e{109 414 120 433 134 446 _c
148 459 166 466 190 466 _c
209 466 225 460 239 448 _c
252 436 261 419 266 399 _c
277 421 289 438 301 449 _c
313 460 332 466 358 466 _c
389 466 413 454 430 431 _c
446 408 455 373 455 327 _c
455 0 _l
_cl}_e}_d
/n{546 0 24 0 431 466 _sc
431 0 _m
330 0 _l
330 281 _l
330 316 323 340 310 354 _c
296 368 277 375 252 375 _c
214 375 184 359 160 329 _c
136 299 125 257 125 204 _c
125 0 _l
24 0 _l
24 455 _l
125 455 _l
125 341 _l
135 380 153 411 181 433 _c
208 455 242 466 282 466 _c
328 466 365 450 391 420 _c
417 390 431 343 431 281 _c
431 0 _l
_cl}_d
/o{{546 0 -9 -10 467 466 _sc
467 227 _m
467 191 461 159 450 130 _c
438 101 422 76 401 55 _c
380 34 355 18 326 7 _c
296 -4 264 -10 228 -10 _c
192 -10 160 -4 131 7 _c
101 18 76 34 55 55 _c
34 76 18 101 7 130 _c
-3 159 -9 191 -9 227 _c
-9 261 -3 293 7 323 _c
18 352 34 377 55 399 _c
76 420 101 436 131 448 _c
160 460 192 466 228 466 _c
}_e{264 466 296 460 326 448 _c
355 436 380 420 401 399 _c
422 377 438 352 450 323 _c
461 293 467 261 467 227 _c
366 227 _m
366 247 362 267 356 285 _c
350 303 341 319 329 332 _c
317 345 302 355 285 363 _c
268 371 249 375 228 375 _c
206 375 187 371 170 363 _c
153 355 139 345 127 332 _c
115 319 106 303 100 285 _c
94 267 91 247 91 227 _c
91 205 94 186 100 168 _c
}_e{106 150 115 135 127 122 _c
139 108 153 98 170 91 _c
187 83 206 80 228 80 _c
249 80 268 83 285 91 _c
302 98 317 108 329 122 _c
341 135 350 150 356 168 _c
362 186 366 205 366 227 _c
_cl}_e}_d
/p{{546 0 24 -181 455 466 _sc
24 455 _m
125 455 _l
125 414 _l
144 431 163 444 183 453 _c
203 461 225 466 251 466 _c
280 466 307 460 332 448 _c
357 436 379 419 397 398 _c
415 377 429 352 439 323 _c
449 293 455 261 455 227 _c
455 192 449 160 439 131 _c
429 101 415 76 397 55 _c
379 34 357 18 332 7 _c
307 -4 280 -10 251 -10 _c
225 -10 203 -5 183 3 _c
}_e{163 11 144 24 125 42 _c
125 -181 _l
24 -181 _l
24 455 _l
125 122 _m
137 108 152 98 171 91 _c
189 83 207 80 225 80 _c
263 80 294 93 318 120 _c
342 147 354 183 354 227 _c
354 271 342 306 318 334 _c
294 361 263 375 225 375 _c
207 375 189 371 171 364 _c
152 357 137 347 125 334 _c
125 122 _l
_cl}_e}_d
/r{{546 0 0 0 482 466 _sc
444 347 _m
432 353 419 357 407 360 _c
394 363 380 365 364 365 _c
341 365 320 361 300 355 _c
280 348 263 338 249 325 _c
235 311 224 295 216 275 _c
208 255 204 231 204 204 _c
204 91 _l
306 91 _l
306 0 _l
0 0 _l
0 91 _l
103 91 _l
103 364 _l
0 364 _l
0 455 _l
204 455 _l
204 341 _l
220 386 245 418 277 437 _c
309 456 348 466 393 466 _c
}_e{407 466 421 464 437 461 _c
452 458 467 453 482 446 _c
444 347 _l
_cl}_e}_d
/s{{546 0 -4 -10 443 466 _sc
443 136 _m
443 106 436 82 423 64 _c
409 45 392 30 371 19 _c
350 7 327 0 301 -4 _c
275 -8 249 -10 225 -10 _c
183 -10 142 -4 101 7 _c
60 19 25 34 -4 54 _c
37 137 _l
73 116 105 101 135 93 _c
165 84 195 80 225 80 _c
265 80 295 84 314 93 _c
332 101 342 113 342 129 _c
342 136 339 142 334 147 _c
328 152 320 157 308 161 _c
}_e{296 165 280 169 260 173 _c
240 177 216 181 187 186 _c
163 190 141 194 120 200 _c
99 206 81 214 65 224 _c
49 234 36 248 26 264 _c
16 280 12 300 12 324 _c
12 348 18 370 31 388 _c
43 406 60 420 80 432 _c
100 444 123 452 149 458 _c
174 463 199 466 225 466 _c
261 466 295 461 329 452 _c
363 442 392 429 418 412 _c
378 334 _l
352 350 328 360 304 366 _c
}_e{280 372 253 375 225 375 _c
213 375 200 374 187 373 _c
174 371 162 369 151 365 _c
140 361 131 356 124 350 _c
116 344 113 336 113 327 _c
113 315 123 305 145 297 _c
166 289 202 282 254 275 _c
282 271 307 266 330 260 _c
353 254 373 245 390 235 _c
406 225 419 212 429 196 _c
438 180 443 160 443 136 _c
_cl}_e}_d
/t{{546 0 0 -10 460 637 _sc
460 145 _m
454 97 435 59 403 31 _c
371 3 330 -10 282 -10 _c
255 -10 231 -6 209 2 _c
187 10 168 22 152 38 _c
136 54 124 73 116 95 _c
107 117 103 141 103 167 _c
103 364 _l
0 364 _l
0 455 _l
103 455 _l
103 637 _l
204 637 _l
204 455 _l
395 455 _l
395 364 _l
204 364 _l
204 167 _l
204 137 211 115 225 101 _c
239 87 258 80 282 80 _c
}_e{310 80 332 88 346 105 _c
360 121 368 141 371 165 _c
460 145 _l
_cl}_e}_d
end readonly def

/BuildGlyph
 {exch begin
 CharStrings exch
 2 copy known not{pop /.notdef}if
 true 3 1 roll get exec
 end}_d

/BuildChar {
 1 index /Encoding get exch get
 1 index /BuildGlyph get exec
}_d

FontName currentdict end definefont pop
end
%%EndProlog
mpldict begin
-558 -37.8 translate
1728 867.6 0 0 clipbox
gsave
0 0 m
1728 0 l
1728 867.6 l
0 867.6 l
cl
1.000 setgray
fill
grestore
gsave
127.872 563.94 m
795.508 563.94 l
795.508 772.164 l
127.872 772.164 l
cl
1.000 setgray
fill
grestore
2.000 setlinewidth
1 setlinejoin
2 setlinecap
[] 0 setdash
0.796 0.294 0.086 setrgbcolor
gsave
667.6 208.2 127.9 563.9 clipbox
127.872 593.686 m
166.595 601.777 l
179.948 604.559 l
220.006 612.932 l
233.359 615.713 l
273.417 624.087 l
286.769 626.868 l
326.828 635.242 l
340.18 638.023 l
380.239 646.397 l
393.591 649.178 l
433.649 657.552 l
447.002 660.333 l
487.06 668.706 l
500.413 671.488 l
540.471 679.861 l
553.824 682.643 l
593.882 691.016 l
607.235 693.797 l
647.293 702.171 l
660.646 704.952 l
661.981 705.235 l
795.508 705.235 l
795.508 705.235 l
stroke
grestore
0.522 0.600 0.000 setrgbcolor
gsave
667.6 208.2 127.9 563.9 clipbox
127.872 601.123 m
166.595 610.285 l
179.948 613.453 l
197.306 617.558 l
198.641 617.974 l
198.641 617.87 l
211.994 621.038 l
252.052 630.512 l
265.405 633.68 l
305.463 643.154 l
318.816 646.322 l
358.874 655.797 l
372.227 658.965 l
412.285 668.439 l
425.638 671.607 l
465.696 681.081 l
479.049 684.249 l
519.107 693.723 l
532.46 696.891 l
572.518 706.365 l
585.871 709.533 l
625.929 719.007 l
639.281 722.175 l
661.981 727.545 l
795.508 727.545 l
795.508 727.545 l
stroke
grestore
0.500 setlinewidth
0 setlinecap
[1 3] 0 setdash
0.000 setgray
gsave
667.6 208.2 127.9 563.9 clipbox
248.047 563.94 m
248.047 772.164 l
stroke
grestore
[] 0 setdash
gsave
/o {
gsave
newpath
translate
0.5 setlinewidth
1 setlinejoin
0 setlinecap
0 0 m
0 4 l
gsave
0.000 setgray
fill
grestore
stroke
grestore
} bind def
248.047 563.94 o
grestore
gsave
/o {
gsave
newpath
translate
0.5 setlinewidth
1 setlinejoin
0 setlinecap
0 0 m
0 -4 l
gsave
0.000 setgray
fill
grestore
stroke
grestore
} bind def
248.047 772.164 o
grestore
[1 3] 0 setdash
gsave
667.6 208.2 127.9 563.9 clipbox
448.337 563.94 m
448.337 772.164 l
stroke
grestore
[] 0 setdash
gsave
/o {
gsave
newpath
translate
0.5 setlinewidth
1 setlinejoin
0 setlinecap
0 0 m
0 4 l
gsave
0.000 setgray
fill
grestore
stroke
grestore
} bind def
448.337 563.94 o
grestore
gsave
/o {
gsave
newpath
translate
0.5 setlinewidth
1 setlinejoin
0 setlinecap
0 0 m
0 -4 l
gsave
0.000 setgray
fill
grestore
stroke
grestore
} bind def
448.337 772.164 o
grestore
[1 3] 0 setdash
gsave
667.6 208.2 127.9 563.9 clipbox
648.628 563.94 m
648.628 772.164 l
stroke
grestore
[] 0 setdash
gsave
/o {
gsave
newpath
translate
0.5 setlinewidth
1 setlinejoin
0 setlinecap
0 0 m
0 4 l
gsave
0.000 setgray
fill
grestore
stroke
grestore
} bind def
648.628 563.94 o
grestore
gsave
/o {
gsave
newpath
translate
0.5 setlinewidth
1 setlinejoin
0 setlinecap
0 0 m
0 -4 l
gsave
0.000 setgray
fill
grestore
stroke
grestore
} bind def
648.628 772.164 o
grestore
[1 3] 0 setdash
gsave
667.6 208.2 127.9 563.9 clipbox
127.872 563.94 m
795.508 563.94 l
stroke
grestore
[] 0 setdash
gsave
/o {
gsave
newpath
translate
0.5 setlinewidth
1 setlinejoin
0 setlinecap
0 0 m
4 0 l
gsave
0.000 setgray
fill
grestore
stroke
grestore
} bind def
127.872 563.94 o
grestore
/b'BitstreamVeraSerif-Roman' findfont
10.000 scalefont
setfont
gsave
118.825125 561.182188 translate
0.000000 rotate
0.000000 0.000000 m /zero glyphshow
grestore
[1 3] 0 setdash
gsave
667.6 208.2 127.9 563.9 clipbox
127.872 593.686 m
795.508 593.686 l
stroke
grestore
[] 0 setdash
gsave
/o {
gsave
newpath
translate
0.5 setlinewidth
1 setlinejoin
0 setlinecap
0 0 m
4 0 l
gsave
0.000 setgray
fill
grestore
stroke
grestore
} bind def
127.872 593.686 o
grestore
gsave
112.497000 590.928473 translate
0.000000 rotate
0.000000 0.000000 m /two glyphshow
6.362305 0.000000 m /zero glyphshow
grestore
[1 3] 0 setdash
gsave
667.6 208.2 127.9 563.9 clipbox
127.872 623.433 m
795.508 623.433 l
stroke
grestore
[] 0 setdash
gsave
/o {
gsave
newpath
translate
0.5 setlinewidth
1 setlinejoin
0 setlinecap
0 0 m
4 0 l
gsave
0.000 setgray
fill
grestore
stroke
grestore
} bind def
127.872 623.433 o
grestore
gsave
112.122000 620.674759 translate
0.000000 rotate
0.000000 0.000000 m /four glyphshow
6.362305 0.000000 m /zero glyphshow
grestore
[1 3] 0 setdash
gsave
667.6 208.2 127.9 563.9 clipbox
127.872 653.179 m
795.508 653.179 l
stroke
grestore
[] 0 setdash
gsave
/o {
gsave
newpath
translate
0.5 setlinewidth
1 setlinejoin
0 setlinecap
0 0 m
4 0 l
gsave
0.000 setgray
fill
grestore
stroke
grestore
} bind def
127.872 653.179 o
grestore
gsave
112.481375 650.421045 translate
0.000000 rotate
0.000000 0.000000 m /six glyphshow
6.362305 0.000000 m /zero glyphshow
grestore
[1 3] 0 setdash
gsave
667.6 208.2 127.9 563.9 clipbox
127.872 682.925 m
795.508 682.925 l
stroke
grestore
[] 0 setdash
gsave
/o {
gsave
newpath
translate
0.5 setlinewidth
1 setlinejoin
0 setlinecap
0 0 m
4 0 l
gsave
0.000 setgray
fill
grestore
stroke
grestore
} bind def
127.872 682.925 o
grestore
gsave
112.481375 680.167330 translate
0.000000 rotate
0.000000 0.000000 m /eight glyphshow
6.362305 0.000000 m /zero glyphshow
grestore
[1 3] 0 setdash
gsave
667.6 208.2 127.9 563.9 clipbox
127.872 712.671 m
795.508 712.671 l
stroke
grestore
[] 0 setdash
gsave
/o {
gsave
newpath
translate
0.5 setlinewidth
1 setlinejoin
0 setlinecap
0 0 m
4 0 l
gsave
0.000 setgray
fill
grestore
stroke
grestore
} bind def
127.872 712.671 o
grestore
gsave
106.668875 709.913616 translate
0.000000 rotate
0.000000 0.000000 m /one glyphshow
6.362305 0.000000 m /zero glyphshow
12.724609 0.000000 m /zero glyphshow
grestore
[1 3] 0 setdash
gsave
667.6 208.2 127.9 563.9 clipbox
127.872 742.418 m
795.508 742.418 l
stroke
grestore
[] 0 setdash
gsave
/o {
gsave
newpath
translate
0.5 setlinewidth
1 setlinejoin
0 setlinecap
0 0 m
4 0 l
gsave
0.000 setgray
fill
grestore
stroke
grestore
} bind def
127.872 742.418 o
grestore
gsave
106.668875 739.659902 translate
0.000000 rotate
0.000000 0.000000 m /one glyphshow
6.362305 0.000000 m /two glyphshow
12.724609 0.000000 m /zero glyphshow
grestore
[1 3] 0 setdash
gsave
667.6 208.2 127.9 563.9 clipbox
127.872 772.164 m
795.508 772.164 l
stroke
grestore
[] 0 setdash
gsave
/o {
gsave
newpath
translate
0.5 setlinewidth
1 setlinejoin
0 setlinecap
0 0 m
4 0 l
gsave
0.000 setgray
fill
grestore
stroke
grestore
} bind def
127.872 772.164 o
grestore
gsave
106.668875 769.406187 translate
0.000000 rotate
0.000000 0.000000 m /one glyphshow
6.362305 0.000000 m /four glyphshow
12.724609 0.000000 m /zero glyphshow
grestore
/b'BitstreamVeraSerif-Roman' findfont
13.000 scalefont
setfont
gsave
98.965750 660.833250 translate
90.000000 rotate
0.000000 0.000000 m /degree glyphshow
6.500000 0.000000 m /C glyphshow
grestore
1.000 setlinewidth
gsave
127.872 563.94 m
127.872 772.164 l
stroke
grestore
gsave
127.872 563.94 m
795.508 563.94 l
stroke
grestore
gsave
795.508 563.94 m
795.508 772.164 l
stroke
grestore
gsave
127.872 772.164 m
795.508 772.164 l
stroke
grestore
/b'AnonymousPro' findfont
18.000 scalefont
setfont
gsave
324.541744 777.164000 translate
0.000000 rotate
0.000000 0.000000 m /A glyphshow
9.826172 0.000000 m /l glyphshow
19.652344 0.000000 m /g glyphshow
29.478516 0.000000 m /o glyphshow
39.304688 0.000000 m /r glyphshow
49.130859 0.000000 m /i glyphshow
58.957031 0.000000 m /t glyphshow
68.783203 0.000000 m /h glyphshow
78.609375 0.000000 m /m glyphshow
88.435547 0.000000 m /e glyphshow
98.261719 0.000000 m /space glyphshow
108.087891 0.000000 m /d glyphshow
117.914062 0.000000 m /e glyphshow
127.740234 0.000000 m /space glyphshow
137.566406 0.000000 m /c glyphshow
147.392578 0.000000 m /o glyphshow
157.218750 0.000000 m /n glyphshow
167.044922 0.000000 m /t glyphshow
176.871094 0.000000 m /r glyphshow
186.697266 0.000000 m /o glyphshow
196.523438 0.000000 m /l glyphshow
206.349609 0.000000 m /e glyphshow
216.175781 0.000000 m /space glyphshow
226.001953 0.000000 m /d glyphshow
235.828125 0.000000 m /e glyphshow
245.654297 0.000000 m /space glyphshow
255.480469 0.000000 m /S glyphshow
265.306641 0.000000 m /six glyphshow
grestore
gsave
132.872 737.82 m
181.075 737.82 l
181.075 767.164 l
132.872 767.164 l
132.872 737.82 l
cl
gsave
1.000 setgray
fill
grestore
stroke
grestore
2.000 setlinewidth
2 setlinecap
0.796 0.294 0.086 setrgbcolor
gsave
139.872 759.07 m
153.872 759.07 l
stroke
grestore
0.000 setgray
/b'BitstreamVeraSerif-Roman' findfont
10.000 scalefont
setfont
gsave
164.872000 755.570250 translate
0.000000 rotate
0.000000 0.000000 m /T glyphshow
6.669922 0.000000 m /three glyphshow
grestore
0.522 0.600 0.000 setrgbcolor
gsave
139.872 747.398 m
153.872 747.398 l
stroke
grestore
0.000 setgray
gsave
164.872000 743.898375 translate
0.000000 rotate
0.000000 0.000000 m /T glyphshow
6.669922 0.000000 m /five glyphshow
grestore
gsave
127.872 314.071 m
795.508 314.071 l
795.508 522.295 l
127.872 522.295 l
cl
1.000 setgray
fill
grestore
0.498 0.788 0.498 setrgbcolor
gsave
667.6 208.2 127.9 314.1 clipbox
127.872 315.792 m
197.306 315.792 l
198.641 487.878 l
198.641 315.792 l
199.977 487.878 l
795.508 487.878 l
795.508 487.878 l
stroke
grestore
0.599 0.704 0.646 setrgbcolor
gsave
667.6 208.2 127.9 314.1 clipbox
127.872 487.878 m
648.628 487.878 l
649.296 315.792 l
795.508 315.792 l
795.508 315.792 l
stroke
grestore
0.400 setgray
gsave
667.6 208.2 127.9 314.1 clipbox
127.872 315.792 m
264.07 315.792 l
264.737 487.878 l
581.865 487.878 l
583.2 315.792 l
583.2 487.878 l
584.535 315.792 l
795.508 315.792 l
795.508 315.792 l
stroke
grestore
0.500 setlinewidth
0 setlinecap
[1 3] 0 setdash
0.000 setgray
gsave
667.6 208.2 127.9 314.1 clipbox
248.047 314.071 m
248.047 522.295 l
stroke
grestore
[] 0 setdash
gsave
/o {
gsave
newpath
translate
0.5 setlinewidth
1 setlinejoin
0 setlinecap
0 0 m
0 4 l
gsave
0.000 setgray
fill
grestore
stroke
grestore
} bind def
248.047 314.071 o
grestore
gsave
/o {
gsave
newpath
translate
0.5 setlinewidth
1 setlinejoin
0 setlinecap
0 0 m
0 -4 l
gsave
0.000 setgray
fill
grestore
stroke
grestore
} bind def
248.047 522.295 o
grestore
[1 3] 0 setdash
gsave
667.6 208.2 127.9 314.1 clipbox
448.337 314.071 m
448.337 522.295 l
stroke
grestore
[] 0 setdash
gsave
/o {
gsave
newpath
translate
0.5 setlinewidth
1 setlinejoin
0 setlinecap
0 0 m
0 4 l
gsave
0.000 setgray
fill
grestore
stroke
grestore
} bind def
448.337 314.071 o
grestore
gsave
/o {
gsave
newpath
translate
0.5 setlinewidth
1 setlinejoin
0 setlinecap
0 0 m
0 -4 l
gsave
0.000 setgray
fill
grestore
stroke
grestore
} bind def
448.337 522.295 o
grestore
[1 3] 0 setdash
gsave
667.6 208.2 127.9 314.1 clipbox
648.628 314.071 m
648.628 522.295 l
stroke
grestore
[] 0 setdash
gsave
/o {
gsave
newpath
translate
0.5 setlinewidth
1 setlinejoin
0 setlinecap
0 0 m
0 4 l
gsave
0.000 setgray
fill
grestore
stroke
grestore
} bind def
648.628 314.071 o
grestore
gsave
/o {
gsave
newpath
translate
0.5 setlinewidth
1 setlinejoin
0 setlinecap
0 0 m
0 -4 l
gsave
0.000 setgray
fill
grestore
stroke
grestore
} bind def
648.628 522.295 o
grestore
[1 3] 0 setdash
gsave
667.6 208.2 127.9 314.1 clipbox
127.872 315.792 m
795.508 315.792 l
stroke
grestore
[] 0 setdash
gsave
/o {
gsave
newpath
translate
0.5 setlinewidth
1 setlinejoin
0 setlinecap
0 0 m
4 0 l
gsave
0.000 setgray
fill
grestore
stroke
grestore
} bind def
127.872 315.792 o
grestore
gsave
/o {
gsave
newpath
translate
0.5 setlinewidth
1 setlinejoin
0 setlinecap
0 0 m
-4 0 l
gsave
0.000 setgray
fill
grestore
stroke
grestore
} bind def
795.508 315.792 o
grestore
gsave
118.825125 313.034247 translate
0.000000 rotate
0.000000 0.000000 m /zero glyphshow
grestore
[1 3] 0 setdash
gsave
667.6 208.2 127.9 314.1 clipbox
127.872 350.209 m
795.508 350.209 l
stroke
grestore
[] 0 setdash
gsave
/o {
gsave
newpath
translate
0.5 setlinewidth
1 setlinejoin
0 setlinecap
0 0 m
4 0 l
gsave
0.000 setgray
fill
grestore
stroke
grestore
} bind def
127.872 350.209 o
grestore
gsave
/o {
gsave
newpath
translate
0.5 setlinewidth
1 setlinejoin
0 setlinecap
0 0 m
-4 0 l
gsave
0.000 setgray
fill
grestore
stroke
grestore
} bind def
795.508 350.209 o
grestore
gsave
112.497000 347.451437 translate
0.000000 rotate
0.000000 0.000000 m /two glyphshow
6.362305 0.000000 m /zero glyphshow
grestore
[1 3] 0 setdash
gsave
667.6 208.2 127.9 314.1 clipbox
127.872 384.626 m
795.508 384.626 l
stroke
grestore
[] 0 setdash
gsave
/o {
gsave
newpath
translate
0.5 setlinewidth
1 setlinejoin
0 setlinecap
0 0 m
4 0 l
gsave
0.000 setgray
fill
grestore
stroke
grestore
} bind def
127.872 384.626 o
grestore
gsave
/o {
gsave
newpath
translate
0.5 setlinewidth
1 setlinejoin
0 setlinecap
0 0 m
-4 0 l
gsave
0.000 setgray
fill
grestore
stroke
grestore
} bind def
795.508 384.626 o
grestore
gsave
112.122000 381.868627 translate
0.000000 rotate
0.000000 0.000000 m /four glyphshow
6.362305 0.000000 m /zero glyphshow
grestore
[1 3] 0 setdash
gsave
667.6 208.2 127.9 314.1 clipbox
127.872 419.044 m
795.508 419.044 l
stroke
grestore
[] 0 setdash
gsave
/o {
gsave
newpath
translate
0.5 setlinewidth
1 setlinejoin
0 setlinecap
0 0 m
4 0 l
gsave
0.000 setgray
fill
grestore
stroke
grestore
} bind def
127.872 419.044 o
grestore
gsave
/o {
gsave
newpath
translate
0.5 setlinewidth
1 setlinejoin
0 setlinecap
0 0 m
-4 0 l
gsave
0.000 setgray
fill
grestore
stroke
grestore
} bind def
795.508 419.044 o
grestore
gsave
112.481375 416.285817 translate
0.000000 rotate
0.000000 0.000000 m /six glyphshow
6.362305 0.000000 m /zero glyphshow
grestore
[1 3] 0 setdash
gsave
667.6 208.2 127.9 314.1 clipbox
127.872 453.461 m
795.508 453.461 l
stroke
grestore
[] 0 setdash
gsave
/o {
gsave
newpath
translate
0.5 setlinewidth
1 setlinejoin
0 setlinecap
0 0 m
4 0 l
gsave
0.000 setgray
fill
grestore
stroke
grestore
} bind def
127.872 453.461 o
grestore
gsave
/o {
gsave
newpath
translate
0.5 setlinewidth
1 setlinejoin
0 setlinecap
0 0 m
-4 0 l
gsave
0.000 setgray
fill
grestore
stroke
grestore
} bind def
795.508 453.461 o
grestore
gsave
112.481375 450.703007 translate
0.000000 rotate
0.000000 0.000000 m /eight glyphshow
6.362305 0.000000 m /zero glyphshow
grestore
[1 3] 0 setdash
gsave
667.6 208.2 127.9 314.1 clipbox
127.872 487.878 m
795.508 487.878 l
stroke
grestore
[] 0 setdash
gsave
/o {
gsave
newpath
translate
0.5 setlinewidth
1 setlinejoin
0 setlinecap
0 0 m
4 0 l
gsave
0.000 setgray
fill
grestore
stroke
grestore
} bind def
127.872 487.878 o
grestore
gsave
/o {
gsave
newpath
translate
0.5 setlinewidth
1 setlinejoin
0 setlinecap
0 0 m
-4 0 l
gsave
0.000 setgray
fill
grestore
stroke
grestore
} bind def
795.508 487.878 o
grestore
gsave
106.668875 485.120197 translate
0.000000 rotate
0.000000 0.000000 m /one glyphshow
6.362305 0.000000 m /zero glyphshow
12.724609 0.000000 m /zero glyphshow
grestore
[1 3] 0 setdash
gsave
667.6 208.2 127.9 314.1 clipbox
127.872 522.295 m
795.508 522.295 l
stroke
grestore
[] 0 setdash
gsave
/o {
gsave
newpath
translate
0.5 setlinewidth
1 setlinejoin
0 setlinecap
0 0 m
4 0 l
gsave
0.000 setgray
fill
grestore
stroke
grestore
} bind def
127.872 522.295 o
grestore
gsave
/o {
gsave
newpath
translate
0.5 setlinewidth
1 setlinejoin
0 setlinecap
0 0 m
-4 0 l
gsave
0.000 setgray
fill
grestore
stroke
grestore
} bind def
795.508 522.295 o
grestore
gsave
106.668875 519.537388 translate
0.000000 rotate
0.000000 0.000000 m /one glyphshow
6.362305 0.000000 m /two glyphshow
12.724609 0.000000 m /zero glyphshow
grestore
1.000 setlinewidth
gsave
127.872 314.071 m
127.872 522.295 l
stroke
grestore
gsave
127.872 314.071 m
795.508 314.071 l
stroke
grestore
gsave
795.508 314.071 m
795.508 522.295 l
stroke
grestore
gsave
127.872 522.295 m
795.508 522.295 l
stroke
grestore
gsave
670.602 319.071 m
790.508 319.071 l
790.508 360.931 l
670.602 360.931 l
670.602 319.071 l
cl
gsave
1.000 setgray
fill
grestore
stroke
grestore
2.000 setlinewidth
2 setlinecap
0.498 0.788 0.498 setrgbcolor
gsave
677.602 352.837 m
691.602 352.837 l
stroke
grestore
0.000 setgray
gsave
702.602114 349.336825 translate
0.000000 rotate
0.000000 0.000000 m /T glyphshow
6.669922 0.000000 m /three glyphshow
13.032227 0.000000 m /underscore glyphshow
18.032227 0.000000 m /s glyphshow
23.164062 0.000000 m /t glyphshow
27.182617 0.000000 m /a glyphshow
33.144531 0.000000 m /t glyphshow
37.163086 0.000000 m /e glyphshow
grestore
0.599 0.704 0.646 setrgbcolor
gsave
677.602 340.884 m
691.602 340.884 l
stroke
grestore
0.000 setgray
gsave
702.602114 337.383700 translate
0.000000 rotate
0.000000 0.000000 m /T glyphshow
6.669922 0.000000 m /five glyphshow
13.032227 0.000000 m /underscore glyphshow
18.032227 0.000000 m /s glyphshow
23.164062 0.000000 m /t glyphshow
27.182617 0.000000 m /a glyphshow
33.144531 0.000000 m /t glyphshow
37.163086 0.000000 m /e glyphshow
grestore
0.400 setgray
gsave
677.602 328.931 m
691.602 328.931 l
stroke
grestore
0.000 setgray
gsave
702.602114 325.430575 translate
0.000000 rotate
0.000000 0.000000 m /D glyphshow
8.017578 0.000000 m /e glyphshow
13.935547 0.000000 m /l glyphshow
17.133789 0.000000 m /t glyphshow
21.152344 0.000000 m /a glyphshow
27.114258 0.000000 m /T glyphshow
33.784180 0.000000 m /underscore glyphshow
38.784180 0.000000 m /one glyphshow
45.146484 0.000000 m /hyphen glyphshow
48.525391 0.000000 m /five glyphshow
54.887695 0.000000 m /underscore glyphshow
59.887695 0.000000 m /s glyphshow
65.019531 0.000000 m /t glyphshow
69.038086 0.000000 m /a glyphshow
75.000000 0.000000 m /t glyphshow
79.018555 0.000000 m /e glyphshow
grestore
gsave
127.872 64.2024 m
795.508 64.2024 l
795.508 272.426 l
127.872 272.426 l
cl
1.000 setgray
fill
grestore
0.498 0.788 0.498 setrgbcolor
gsave
667.6 208.2 127.9 64.2 clipbox
127.872 65.9233 m
264.07 65.9233 l
264.737 238.009 l
581.865 238.009 l
583.2 65.9233 l
583.2 238.009 l
584.535 65.9233 l
795.508 65.9233 l
795.508 65.9233 l
stroke
grestore
0.500 setlinewidth
0 setlinecap
[1 3] 0 setdash
0.000 setgray
gsave
667.6 208.2 127.9 64.2 clipbox
248.047 64.2024 m
248.047 272.426 l
stroke
grestore
[] 0 setdash
gsave
/o {
gsave
newpath
translate
0.5 setlinewidth
1 setlinejoin
0 setlinecap
0 0 m
0 4 l
gsave
0.000 setgray
fill
grestore
stroke
grestore
} bind def
248.047 64.2024 o
grestore
gsave
/o {
gsave
newpath
translate
0.5 setlinewidth
1 setlinejoin
0 setlinecap
0 0 m
0 -4 l
gsave
0.000 setgray
fill
grestore
stroke
grestore
} bind def
248.047 272.426 o
grestore
gsave
223.191786 39.876020 translate
30.000000 rotate
0.000000 0.000000 m /zero glyphshow
6.362305 0.000000 m /three glyphshow
12.724609 0.000000 m /colon glyphshow
16.093750 0.000000 m /zero glyphshow
22.456055 0.000000 m /zero glyphshow
grestore
[1 3] 0 setdash
gsave
667.6 208.2 127.9 64.2 clipbox
448.337 64.2024 m
448.337 272.426 l
stroke
grestore
[] 0 setdash
gsave
/o {
gsave
newpath
translate
0.5 setlinewidth
1 setlinejoin
0 setlinecap
0 0 m
0 4 l
gsave
0.000 setgray
fill
grestore
stroke
grestore
} bind def
448.337 64.2024 o
grestore
gsave
/o {
gsave
newpath
translate
0.5 setlinewidth
1 setlinejoin
0 setlinecap
0 0 m
0 -4 l
gsave
0.000 setgray
fill
grestore
stroke
grestore
} bind def
448.337 272.426 o
grestore
gsave
423.482695 39.876020 translate
30.000000 rotate
0.000000 0.000000 m /zero glyphshow
6.362305 0.000000 m /eight glyphshow
12.724609 0.000000 m /colon glyphshow
16.093750 0.000000 m /zero glyphshow
22.456055 0.000000 m /zero glyphshow
grestore
[1 3] 0 setdash
gsave
667.6 208.2 127.9 64.2 clipbox
648.628 64.2024 m
648.628 272.426 l
stroke
grestore
[] 0 setdash
gsave
/o {
gsave
newpath
translate
0.5 setlinewidth
1 setlinejoin
0 setlinecap
0 0 m
0 4 l
gsave
0.000 setgray
fill
grestore
stroke
grestore
} bind def
648.628 64.2024 o
grestore
gsave
/o {
gsave
newpath
translate
0.5 setlinewidth
1 setlinejoin
0 setlinecap
0 0 m
0 -4 l
gsave
0.000 setgray
fill
grestore
stroke
grestore
} bind def
648.628 272.426 o
grestore
gsave
624.260750 40.157270 translate
30.000000 rotate
0.000000 0.000000 m /one glyphshow
6.362305 0.000000 m /three glyphshow
12.724609 0.000000 m /colon glyphshow
16.093750 0.000000 m /zero glyphshow
22.456055 0.000000 m /zero glyphshow
grestore
[1 3] 0 setdash
gsave
667.6 208.2 127.9 64.2 clipbox
127.872 65.9233 m
795.508 65.9233 l
stroke
grestore
[] 0 setdash
gsave
/o {
gsave
newpath
translate
0.5 setlinewidth
1 setlinejoin
0 setlinecap
0 0 m
4 0 l
gsave
0.000 setgray
fill
grestore
stroke
grestore
} bind def
127.872 65.9233 o
grestore
gsave
/o {
gsave
newpath
translate
0.5 setlinewidth
1 setlinejoin
0 setlinecap
0 0 m
-4 0 l
gsave
0.000 setgray
fill
grestore
stroke
grestore
} bind def
795.508 65.9233 o
grestore
gsave
118.825125 63.165447 translate
0.000000 rotate
0.000000 0.000000 m /zero glyphshow
grestore
[1 3] 0 setdash
gsave
667.6 208.2 127.9 64.2 clipbox
127.872 100.34 m
795.508 100.34 l
stroke
grestore
[] 0 setdash
gsave
/o {
gsave
newpath
translate
0.5 setlinewidth
1 setlinejoin
0 setlinecap
0 0 m
4 0 l
gsave
0.000 setgray
fill
grestore
stroke
grestore
} bind def
127.872 100.34 o
grestore
gsave
/o {
gsave
newpath
translate
0.5 setlinewidth
1 setlinejoin
0 setlinecap
0 0 m
-4 0 l
gsave
0.000 setgray
fill
grestore
stroke
grestore
} bind def
795.508 100.34 o
grestore
gsave
112.497000 97.582637 translate
0.000000 rotate
0.000000 0.000000 m /two glyphshow
6.362305 0.000000 m /zero glyphshow
grestore
[1 3] 0 setdash
gsave
667.6 208.2 127.9 64.2 clipbox
127.872 134.758 m
795.508 134.758 l
stroke
grestore
[] 0 setdash
gsave
/o {
gsave
newpath
translate
0.5 setlinewidth
1 setlinejoin
0 setlinecap
0 0 m
4 0 l
gsave
0.000 setgray
fill
grestore
stroke
grestore
} bind def
127.872 134.758 o
grestore
gsave
/o {
gsave
newpath
translate
0.5 setlinewidth
1 setlinejoin
0 setlinecap
0 0 m
-4 0 l
gsave
0.000 setgray
fill
grestore
stroke
grestore
} bind def
795.508 134.758 o
grestore
gsave
112.122000 131.999827 translate
0.000000 rotate
0.000000 0.000000 m /four glyphshow
6.362305 0.000000 m /zero glyphshow
grestore
[1 3] 0 setdash
gsave
667.6 208.2 127.9 64.2 clipbox
127.872 169.175 m
795.508 169.175 l
stroke
grestore
[] 0 setdash
gsave
/o {
gsave
newpath
translate
0.5 setlinewidth
1 setlinejoin
0 setlinecap
0 0 m
4 0 l
gsave
0.000 setgray
fill
grestore
stroke
grestore
} bind def
127.872 169.175 o
grestore
gsave
/o {
gsave
newpath
translate
0.5 setlinewidth
1 setlinejoin
0 setlinecap
0 0 m
-4 0 l
gsave
0.000 setgray
fill
grestore
stroke
grestore
} bind def
795.508 169.175 o
grestore
gsave
112.481375 166.417017 translate
0.000000 rotate
0.000000 0.000000 m /six glyphshow
6.362305 0.000000 m /zero glyphshow
grestore
[1 3] 0 setdash
gsave
667.6 208.2 127.9 64.2 clipbox
127.872 203.592 m
795.508 203.592 l
stroke
grestore
[] 0 setdash
gsave
/o {
gsave
newpath
translate
0.5 setlinewidth
1 setlinejoin
0 setlinecap
0 0 m
4 0 l
gsave
0.000 setgray
fill
grestore
stroke
grestore
} bind def
127.872 203.592 o
grestore
gsave
/o {
gsave
newpath
translate
0.5 setlinewidth
1 setlinejoin
0 setlinecap
0 0 m
-4 0 l
gsave
0.000 setgray
fill
grestore
stroke
grestore
} bind def
795.508 203.592 o
grestore
gsave
112.481375 200.834207 translate
0.000000 rotate
0.000000 0.000000 m /eight glyphshow
6.362305 0.000000 m /zero glyphshow
grestore
[1 3] 0 setdash
gsave
667.6 208.2 127.9 64.2 clipbox
127.872 238.009 m
795.508 238.009 l
stroke
grestore
[] 0 setdash
gsave
/o {
gsave
newpath
translate
0.5 setlinewidth
1 setlinejoin
0 setlinecap
0 0 m
4 0 l
gsave
0.000 setgray
fill
grestore
stroke
grestore
} bind def
127.872 238.009 o
grestore
gsave
/o {
gsave
newpath
translate
0.5 setlinewidth
1 setlinejoin
0 setlinecap
0 0 m
-4 0 l
gsave
0.000 setgray
fill
grestore
stroke
grestore
} bind def
795.508 238.009 o
grestore
gsave
106.668875 235.251397 translate
0.000000 rotate
0.000000 0.000000 m /one glyphshow
6.362305 0.000000 m /zero glyphshow
12.724609 0.000000 m /zero glyphshow
grestore
[1 3] 0 setdash
gsave
667.6 208.2 127.9 64.2 clipbox
127.872 272.426 m
795.508 272.426 l
stroke
grestore
[] 0 setdash
gsave
/o {
gsave
newpath
translate
0.5 setlinewidth
1 setlinejoin
0 setlinecap
0 0 m
4 0 l
gsave
0.000 setgray
fill
grestore
stroke
grestore
} bind def
127.872 272.426 o
grestore
gsave
/o {
gsave
newpath
translate
0.5 setlinewidth
1 setlinejoin
0 setlinecap
0 0 m
-4 0 l
gsave
0.000 setgray
fill
grestore
stroke
grestore
} bind def
795.508 272.426 o
grestore
gsave
106.668875 269.668587 translate
0.000000 rotate
0.000000 0.000000 m /one glyphshow
6.362305 0.000000 m /two glyphshow
12.724609 0.000000 m /zero glyphshow
grestore
1.000 setlinewidth
gsave
127.872 64.2024 m
127.872 272.426 l
stroke
grestore
gsave
127.872 64.2024 m
795.508 64.2024 l
stroke
grestore
gsave
795.508 64.2024 m
795.508 272.426 l
stroke
grestore
gsave
127.872 272.426 m
795.508 272.426 l
stroke
grestore
gsave
712.571 249.473 m
790.508 249.473 l
790.508 267.426 l
712.571 267.426 l
712.571 249.473 l
cl
gsave
1.000 setgray
fill
grestore
stroke
grestore
2.000 setlinewidth
2 setlinecap
0.498 0.788 0.498 setrgbcolor
gsave
719.571 259.333 m
733.571 259.333 l
stroke
grestore
0.000 setgray
gsave
744.570864 255.832650 translate
0.000000 rotate
0.000000 0.000000 m /S glyphshow
6.850586 0.000000 m /six glyphshow
13.212891 0.000000 m /underscore glyphshow
18.212891 0.000000 m /s glyphshow
23.344727 0.000000 m /t glyphshow
27.363281 0.000000 m /a glyphshow
33.325195 0.000000 m /t glyphshow
37.343750 0.000000 m /e glyphshow
grestore
gsave
929.036 563.94 m
1596.67 563.94 l
1596.67 772.164 l
929.036 772.164 l
cl
1.000 setgray
fill
grestore
0.796 0.294 0.086 setrgbcolor
gsave
667.6 208.2 929 563.9 clipbox
929.036 602.336 m
967.759 610.37 l
981.111 613.131 l
1021.17 621.445 l
1034.52 624.207 l
1074.58 632.521 l
1087.93 635.283 l
1127.99 643.597 l
1141.34 646.358 l
1181.4 654.673 l
1194.75 657.434 l
1234.81 665.748 l
1248.17 668.51 l
1288.22 676.824 l
1301.58 679.586 l
1341.63 687.9 l
1354.99 690.661 l
1395.05 698.975 l
1408.4 701.737 l
1448.46 710.051 l
1461.81 712.813 l
1463.14 713.093 l
1596.67 713.093 l
1596.67 713.093 l
stroke
grestore
0.500 setlinewidth
0 setlinecap
[1 3] 0 setdash
0.000 setgray
gsave
667.6 208.2 929 563.9 clipbox
1049.21 563.94 m
1049.21 772.164 l
stroke
grestore
[] 0 setdash
gsave
/o {
gsave
newpath
translate
0.5 setlinewidth
1 setlinejoin
0 setlinecap
0 0 m
0 4 l
gsave
0.000 setgray
fill
grestore
stroke
grestore
} bind def
1049.21 563.94 o
grestore
gsave
/o {
gsave
newpath
translate
0.5 setlinewidth
1 setlinejoin
0 setlinecap
0 0 m
0 -4 l
gsave
0.000 setgray
fill
grestore
stroke
grestore
} bind def
1049.21 772.164 o
grestore
[1 3] 0 setdash
gsave
667.6 208.2 929 563.9 clipbox
1249.5 563.94 m
1249.5 772.164 l
stroke
grestore
[] 0 setdash
gsave
/o {
gsave
newpath
translate
0.5 setlinewidth
1 setlinejoin
0 setlinecap
0 0 m
0 4 l
gsave
0.000 setgray
fill
grestore
stroke
grestore
} bind def
1249.5 563.94 o
grestore
gsave
/o {
gsave
newpath
translate
0.5 setlinewidth
1 setlinejoin
0 setlinecap
0 0 m
0 -4 l
gsave
0.000 setgray
fill
grestore
stroke
grestore
} bind def
1249.5 772.164 o
grestore
[1 3] 0 setdash
gsave
667.6 208.2 929 563.9 clipbox
1449.79 563.94 m
1449.79 772.164 l
stroke
grestore
[] 0 setdash
gsave
/o {
gsave
newpath
translate
0.5 setlinewidth
1 setlinejoin
0 setlinecap
0 0 m
0 4 l
gsave
0.000 setgray
fill
grestore
stroke
grestore
} bind def
1449.79 563.94 o
grestore
gsave
/o {
gsave
newpath
translate
0.5 setlinewidth
1 setlinejoin
0 setlinecap
0 0 m
0 -4 l
gsave
0.000 setgray
fill
grestore
stroke
grestore
} bind def
1449.79 772.164 o
grestore
[1 3] 0 setdash
gsave
667.6 208.2 929 563.9 clipbox
929.036 565.417 m
1596.67 565.417 l
stroke
grestore
[] 0 setdash
gsave
/o {
gsave
newpath
translate
0.5 setlinewidth
1 setlinejoin
0 setlinecap
0 0 m
4 0 l
gsave
0.000 setgray
fill
grestore
stroke
grestore
} bind def
929.036 565.417 o
grestore
gsave
919.988761 562.658953 translate
0.000000 rotate
0.000000 0.000000 m /zero glyphshow
grestore
[1 3] 0 setdash
gsave
667.6 208.2 929 563.9 clipbox
929.036 594.952 m
1596.67 594.952 l
stroke
grestore
[] 0 setdash
gsave
/o {
gsave
newpath
translate
0.5 setlinewidth
1 setlinejoin
0 setlinecap
0 0 m
4 0 l
gsave
0.000 setgray
fill
grestore
stroke
grestore
} bind def
929.036 594.952 o
grestore
gsave
913.660636 592.194273 translate
0.000000 rotate
0.000000 0.000000 m /two glyphshow
6.362305 0.000000 m /zero glyphshow
grestore
[1 3] 0 setdash
gsave
667.6 208.2 929 563.9 clipbox
929.036 624.487 m
1596.67 624.487 l
stroke
grestore
[] 0 setdash
gsave
/o {
gsave
newpath
translate
0.5 setlinewidth
1 setlinejoin
0 setlinecap
0 0 m
4 0 l
gsave
0.000 setgray
fill
grestore
stroke
grestore
} bind def
929.036 624.487 o
grestore
gsave
913.285636 621.729592 translate
0.000000 rotate
0.000000 0.000000 m /four glyphshow
6.362305 0.000000 m /zero glyphshow
grestore
[1 3] 0 setdash
gsave
667.6 208.2 929 563.9 clipbox
929.036 654.023 m
1596.67 654.023 l
stroke
grestore
[] 0 setdash
gsave
/o {
gsave
newpath
translate
0.5 setlinewidth
1 setlinejoin
0 setlinecap
0 0 m
4 0 l
gsave
0.000 setgray
fill
grestore
stroke
grestore
} bind def
929.036 654.023 o
grestore
gsave
913.645011 651.264911 translate
0.000000 rotate
0.000000 0.000000 m /six glyphshow
6.362305 0.000000 m /zero glyphshow
grestore
[1 3] 0 setdash
gsave
667.6 208.2 929 563.9 clipbox
929.036 683.558 m
1596.67 683.558 l
stroke
grestore
[] 0 setdash
gsave
/o {
gsave
newpath
translate
0.5 setlinewidth
1 setlinejoin
0 setlinecap
0 0 m
4 0 l
gsave
0.000 setgray
fill
grestore
stroke
grestore
} bind def
929.036 683.558 o
grestore
gsave
913.645011 680.800230 translate
0.000000 rotate
0.000000 0.000000 m /eight glyphshow
6.362305 0.000000 m /zero glyphshow
grestore
[1 3] 0 setdash
gsave
667.6 208.2 929 563.9 clipbox
929.036 713.093 m
1596.67 713.093 l
stroke
grestore
[] 0 setdash
gsave
/o {
gsave
newpath
translate
0.5 setlinewidth
1 setlinejoin
0 setlinecap
0 0 m
4 0 l
gsave
0.000 setgray
fill
grestore
stroke
grestore
} bind def
929.036 713.093 o
grestore
gsave
907.832511 710.335549 translate
0.000000 rotate
0.000000 0.000000 m /one glyphshow
6.362305 0.000000 m /zero glyphshow
12.724609 0.000000 m /zero glyphshow
grestore
[1 3] 0 setdash
gsave
667.6 208.2 929 563.9 clipbox
929.036 742.629 m
1596.67 742.629 l
stroke
grestore
[] 0 setdash
gsave
/o {
gsave
newpath
translate
0.5 setlinewidth
1 setlinejoin
0 setlinecap
0 0 m
4 0 l
gsave
0.000 setgray
fill
grestore
stroke
grestore
} bind def
929.036 742.629 o
grestore
gsave
907.832511 739.870868 translate
0.000000 rotate
0.000000 0.000000 m /one glyphshow
6.362305 0.000000 m /two glyphshow
12.724609 0.000000 m /zero glyphshow
grestore
[1 3] 0 setdash
gsave
667.6 208.2 929 563.9 clipbox
929.036 772.164 m
1596.67 772.164 l
stroke
grestore
[] 0 setdash
gsave
/o {
gsave
newpath
translate
0.5 setlinewidth
1 setlinejoin
0 setlinecap
0 0 m
4 0 l
gsave
0.000 setgray
fill
grestore
stroke
grestore
} bind def
929.036 772.164 o
grestore
gsave
907.832511 769.406187 translate
0.000000 rotate
0.000000 0.000000 m /one glyphshow
6.362305 0.000000 m /four glyphshow
12.724609 0.000000 m /zero glyphshow
grestore
1.000 setlinewidth
gsave
929.036 563.94 m
929.036 772.164 l
stroke
grestore
gsave
929.036 563.94 m
1596.67 563.94 l
stroke
grestore
gsave
1596.67 563.94 m
1596.67 772.164 l
stroke
grestore
gsave
929.036 772.164 m
1596.67 772.164 l
stroke
grestore
/b'AnonymousPro' findfont
18.000 scalefont
setfont
gsave
1125.791318 777.164000 translate
0.000000 rotate
0.000000 0.000000 m /A glyphshow
9.826172 0.000000 m /l glyphshow
19.652344 0.000000 m /g glyphshow
29.478516 0.000000 m /o glyphshow
39.304688 0.000000 m /r glyphshow
49.130859 0.000000 m /i glyphshow
58.957031 0.000000 m /t glyphshow
68.783203 0.000000 m /h glyphshow
78.609375 0.000000 m /m glyphshow
88.435547 0.000000 m /e glyphshow
98.261719 0.000000 m /space glyphshow
108.087891 0.000000 m /d glyphshow
117.914062 0.000000 m /e glyphshow
127.740234 0.000000 m /space glyphshow
137.566406 0.000000 m /c glyphshow
147.392578 0.000000 m /o glyphshow
157.218750 0.000000 m /n glyphshow
167.044922 0.000000 m /t glyphshow
176.871094 0.000000 m /r glyphshow
186.697266 0.000000 m /o glyphshow
196.523438 0.000000 m /l glyphshow
206.349609 0.000000 m /e glyphshow
216.175781 0.000000 m /space glyphshow
226.001953 0.000000 m /d glyphshow
235.828125 0.000000 m /e glyphshow
245.654297 0.000000 m /space glyphshow
255.480469 0.000000 m /S glyphshow
265.306641 0.000000 m /five glyphshow
grestore
gsave
934.036 749.492 m
982.239 749.492 l
982.239 767.164 l
934.036 767.164 l
934.036 749.492 l
cl
gsave
1.000 setgray
fill
grestore
stroke
grestore
2.000 setlinewidth
2 setlinecap
0.796 0.294 0.086 setrgbcolor
gsave
941.036 759.07 m
955.036 759.07 l
stroke
grestore
0.000 setgray
/b'BitstreamVeraSerif-Roman' findfont
10.000 scalefont
setfont
gsave
966.035636 755.570250 translate
0.000000 rotate
0.000000 0.000000 m /T glyphshow
6.669922 0.000000 m /three glyphshow
grestore
gsave
929.036 314.071 m
1596.67 314.071 l
1596.67 522.295 l
929.036 522.295 l
cl
1.000 setgray
fill
grestore
0.498 0.788 0.498 setrgbcolor
gsave
667.6 208.2 929 314.1 clipbox
929.036 487.878 m
1391.04 487.878 l
1391.71 315.792 l
1596.67 315.792 l
1596.67 315.792 l
stroke
grestore
0.599 0.704 0.646 setrgbcolor
gsave
667.6 208.2 929 314.1 clipbox
929.036 315.792 m
1046.54 315.792 l
1047.21 487.878 l
1433.77 487.878 l
1434.44 315.792 l
1596.67 315.792 l
1596.67 315.792 l
stroke
grestore
0.400 setgray
gsave
667.6 208.2 929 314.1 clipbox
929.036 315.792 m
1261.52 315.792 l
1262.85 487.878 l
1596.67 487.878 l
1596.67 487.878 l
stroke
grestore
0.500 setlinewidth
0 setlinecap
[1 3] 0 setdash
0.000 setgray
gsave
667.6 208.2 929 314.1 clipbox
1049.21 314.071 m
1049.21 522.295 l
stroke
grestore
[] 0 setdash
gsave
/o {
gsave
newpath
translate
0.5 setlinewidth
1 setlinejoin
0 setlinecap
0 0 m
0 4 l
gsave
0.000 setgray
fill
grestore
stroke
grestore
} bind def
1049.21 314.071 o
grestore
gsave
/o {
gsave
newpath
translate
0.5 setlinewidth
1 setlinejoin
0 setlinecap
0 0 m
0 -4 l
gsave
0.000 setgray
fill
grestore
stroke
grestore
} bind def
1049.21 522.295 o
grestore
[1 3] 0 setdash
gsave
667.6 208.2 929 314.1 clipbox
1249.5 314.071 m
1249.5 522.295 l
stroke
grestore
[] 0 setdash
gsave
/o {
gsave
newpath
translate
0.5 setlinewidth
1 setlinejoin
0 setlinecap
0 0 m
0 4 l
gsave
0.000 setgray
fill
grestore
stroke
grestore
} bind def
1249.5 314.071 o
grestore
gsave
/o {
gsave
newpath
translate
0.5 setlinewidth
1 setlinejoin
0 setlinecap
0 0 m
0 -4 l
gsave
0.000 setgray
fill
grestore
stroke
grestore
} bind def
1249.5 522.295 o
grestore
[1 3] 0 setdash
gsave
667.6 208.2 929 314.1 clipbox
1449.79 314.071 m
1449.79 522.295 l
stroke
grestore
[] 0 setdash
gsave
/o {
gsave
newpath
translate
0.5 setlinewidth
1 setlinejoin
0 setlinecap
0 0 m
0 4 l
gsave
0.000 setgray
fill
grestore
stroke
grestore
} bind def
1449.79 314.071 o
grestore
gsave
/o {
gsave
newpath
translate
0.5 setlinewidth
1 setlinejoin
0 setlinecap
0 0 m
0 -4 l
gsave
0.000 setgray
fill
grestore
stroke
grestore
} bind def
1449.79 522.295 o
grestore
[1 3] 0 setdash
gsave
667.6 208.2 929 314.1 clipbox
929.036 315.792 m
1596.67 315.792 l
stroke
grestore
[] 0 setdash
gsave
/o {
gsave
newpath
translate
0.5 setlinewidth
1 setlinejoin
0 setlinecap
0 0 m
4 0 l
gsave
0.000 setgray
fill
grestore
stroke
grestore
} bind def
929.036 315.792 o
grestore
gsave
/o {
gsave
newpath
translate
0.5 setlinewidth
1 setlinejoin
0 setlinecap
0 0 m
-4 0 l
gsave
0.000 setgray
fill
grestore
stroke
grestore
} bind def
1596.67 315.792 o
grestore
gsave
919.988761 313.034247 translate
0.000000 rotate
0.000000 0.000000 m /zero glyphshow
grestore
[1 3] 0 setdash
gsave
667.6 208.2 929 314.1 clipbox
929.036 350.209 m
1596.67 350.209 l
stroke
grestore
[] 0 setdash
gsave
/o {
gsave
newpath
translate
0.5 setlinewidth
1 setlinejoin
0 setlinecap
0 0 m
4 0 l
gsave
0.000 setgray
fill
grestore
stroke
grestore
} bind def
929.036 350.209 o
grestore
gsave
/o {
gsave
newpath
translate
0.5 setlinewidth
1 setlinejoin
0 setlinecap
0 0 m
-4 0 l
gsave
0.000 setgray
fill
grestore
stroke
grestore
} bind def
1596.67 350.209 o
grestore
gsave
913.660636 347.451437 translate
0.000000 rotate
0.000000 0.000000 m /two glyphshow
6.362305 0.000000 m /zero glyphshow
grestore
[1 3] 0 setdash
gsave
667.6 208.2 929 314.1 clipbox
929.036 384.626 m
1596.67 384.626 l
stroke
grestore
[] 0 setdash
gsave
/o {
gsave
newpath
translate
0.5 setlinewidth
1 setlinejoin
0 setlinecap
0 0 m
4 0 l
gsave
0.000 setgray
fill
grestore
stroke
grestore
} bind def
929.036 384.626 o
grestore
gsave
/o {
gsave
newpath
translate
0.5 setlinewidth
1 setlinejoin
0 setlinecap
0 0 m
-4 0 l
gsave
0.000 setgray
fill
grestore
stroke
grestore
} bind def
1596.67 384.626 o
grestore
gsave
913.285636 381.868627 translate
0.000000 rotate
0.000000 0.000000 m /four glyphshow
6.362305 0.000000 m /zero glyphshow
grestore
[1 3] 0 setdash
gsave
667.6 208.2 929 314.1 clipbox
929.036 419.044 m
1596.67 419.044 l
stroke
grestore
[] 0 setdash
gsave
/o {
gsave
newpath
translate
0.5 setlinewidth
1 setlinejoin
0 setlinecap
0 0 m
4 0 l
gsave
0.000 setgray
fill
grestore
stroke
grestore
} bind def
929.036 419.044 o
grestore
gsave
/o {
gsave
newpath
translate
0.5 setlinewidth
1 setlinejoin
0 setlinecap
0 0 m
-4 0 l
gsave
0.000 setgray
fill
grestore
stroke
grestore
} bind def
1596.67 419.044 o
grestore
gsave
913.645011 416.285817 translate
0.000000 rotate
0.000000 0.000000 m /six glyphshow
6.362305 0.000000 m /zero glyphshow
grestore
[1 3] 0 setdash
gsave
667.6 208.2 929 314.1 clipbox
929.036 453.461 m
1596.67 453.461 l
stroke
grestore
[] 0 setdash
gsave
/o {
gsave
newpath
translate
0.5 setlinewidth
1 setlinejoin
0 setlinecap
0 0 m
4 0 l
gsave
0.000 setgray
fill
grestore
stroke
grestore
} bind def
929.036 453.461 o
grestore
gsave
/o {
gsave
newpath
translate
0.5 setlinewidth
1 setlinejoin
0 setlinecap
0 0 m
-4 0 l
gsave
0.000 setgray
fill
grestore
stroke
grestore
} bind def
1596.67 453.461 o
grestore
gsave
913.645011 450.703007 translate
0.000000 rotate
0.000000 0.000000 m /eight glyphshow
6.362305 0.000000 m /zero glyphshow
grestore
[1 3] 0 setdash
gsave
667.6 208.2 929 314.1 clipbox
929.036 487.878 m
1596.67 487.878 l
stroke
grestore
[] 0 setdash
gsave
/o {
gsave
newpath
translate
0.5 setlinewidth
1 setlinejoin
0 setlinecap
0 0 m
4 0 l
gsave
0.000 setgray
fill
grestore
stroke
grestore
} bind def
929.036 487.878 o
grestore
gsave
/o {
gsave
newpath
translate
0.5 setlinewidth
1 setlinejoin
0 setlinecap
0 0 m
-4 0 l
gsave
0.000 setgray
fill
grestore
stroke
grestore
} bind def
1596.67 487.878 o
grestore
gsave
907.832511 485.120197 translate
0.000000 rotate
0.000000 0.000000 m /one glyphshow
6.362305 0.000000 m /zero glyphshow
12.724609 0.000000 m /zero glyphshow
grestore
[1 3] 0 setdash
gsave
667.6 208.2 929 314.1 clipbox
929.036 522.295 m
1596.67 522.295 l
stroke
grestore
[] 0 setdash
gsave
/o {
gsave
newpath
translate
0.5 setlinewidth
1 setlinejoin
0 setlinecap
0 0 m
4 0 l
gsave
0.000 setgray
fill
grestore
stroke
grestore
} bind def
929.036 522.295 o
grestore
gsave
/o {
gsave
newpath
translate
0.5 setlinewidth
1 setlinejoin
0 setlinecap
0 0 m
-4 0 l
gsave
0.000 setgray
fill
grestore
stroke
grestore
} bind def
1596.67 522.295 o
grestore
gsave
907.832511 519.537388 translate
0.000000 rotate
0.000000 0.000000 m /one glyphshow
6.362305 0.000000 m /two glyphshow
12.724609 0.000000 m /zero glyphshow
grestore
1.000 setlinewidth
gsave
929.036 314.071 m
929.036 522.295 l
stroke
grestore
gsave
929.036 314.071 m
1596.67 314.071 l
stroke
grestore
gsave
1596.67 314.071 m
1596.67 522.295 l
stroke
grestore
gsave
929.036 522.295 m
1596.67 522.295 l
stroke
grestore
gsave
1471.77 319.071 m
1591.67 319.071 l
1591.67 360.931 l
1471.77 360.931 l
1471.77 319.071 l
cl
gsave
1.000 setgray
fill
grestore
stroke
grestore
2.000 setlinewidth
2 setlinecap
0.498 0.788 0.498 setrgbcolor
gsave
1478.77 352.837 m
1492.77 352.837 l
stroke
grestore
0.000 setgray
gsave
1503.765750 349.336825 translate
0.000000 rotate
0.000000 0.000000 m /T glyphshow
6.669922 0.000000 m /three glyphshow
13.032227 0.000000 m /underscore glyphshow
18.032227 0.000000 m /s glyphshow
23.164062 0.000000 m /t glyphshow
27.182617 0.000000 m /a glyphshow
33.144531 0.000000 m /t glyphshow
37.163086 0.000000 m /e glyphshow
grestore
0.599 0.704 0.646 setrgbcolor
gsave
1478.77 340.884 m
1492.77 340.884 l
stroke
grestore
0.000 setgray
gsave
1503.765750 337.383700 translate
0.000000 rotate
0.000000 0.000000 m /D glyphshow
8.017578 0.000000 m /e glyphshow
13.935547 0.000000 m /l glyphshow
17.133789 0.000000 m /t glyphshow
21.152344 0.000000 m /a glyphshow
27.114258 0.000000 m /T glyphshow
33.784180 0.000000 m /underscore glyphshow
38.784180 0.000000 m /one glyphshow
45.146484 0.000000 m /hyphen glyphshow
48.525391 0.000000 m /three glyphshow
54.887695 0.000000 m /underscore glyphshow
59.887695 0.000000 m /s glyphshow
65.019531 0.000000 m /t glyphshow
69.038086 0.000000 m /a glyphshow
75.000000 0.000000 m /t glyphshow
79.018555 0.000000 m /e glyphshow
grestore
0.400 setgray
gsave
1478.77 328.931 m
1492.77 328.931 l
stroke
grestore
0.000 setgray
gsave
1503.765750 325.430575 translate
0.000000 rotate
0.000000 0.000000 m /V glyphshow
7.221680 0.000000 m /s glyphshow
12.353516 0.000000 m /o glyphshow
18.374023 0.000000 m /l glyphshow
21.572266 0.000000 m /a glyphshow
27.534180 0.000000 m /r glyphshow
32.314453 0.000000 m /underscore glyphshow
37.314453 0.000000 m /s glyphshow
42.446289 0.000000 m /t glyphshow
46.464844 0.000000 m /a glyphshow
52.426758 0.000000 m /t glyphshow
56.445312 0.000000 m /e glyphshow
grestore
gsave
929.036 64.2024 m
1596.67 64.2024 l
1596.67 272.426 l
929.036 272.426 l
cl
1.000 setgray
fill
grestore
0.498 0.788 0.498 setrgbcolor
gsave
667.6 208.2 929 64.2 clipbox
929.036 65.9233 m
1261.52 65.9233 l
1262.85 238.009 l
1391.04 238.009 l
1391.71 65.9233 l
1596.67 65.9233 l
1596.67 65.9233 l
stroke
grestore
0.500 setlinewidth
0 setlinecap
[1 3] 0 setdash
0.000 setgray
gsave
667.6 208.2 929 64.2 clipbox
1049.21 64.2024 m
1049.21 272.426 l
stroke
grestore
[] 0 setdash
gsave
/o {
gsave
newpath
translate
0.5 setlinewidth
1 setlinejoin
0 setlinecap
0 0 m
0 4 l
gsave
0.000 setgray
fill
grestore
stroke
grestore
} bind def
1049.21 64.2024 o
grestore
gsave
/o {
gsave
newpath
translate
0.5 setlinewidth
1 setlinejoin
0 setlinecap
0 0 m
0 -4 l
gsave
0.000 setgray
fill
grestore
stroke
grestore
} bind def
1049.21 272.426 o
grestore
gsave
1024.355421 39.876020 translate
30.000000 rotate
0.000000 0.000000 m /zero glyphshow
6.362305 0.000000 m /three glyphshow
12.724609 0.000000 m /colon glyphshow
16.093750 0.000000 m /zero glyphshow
22.456055 0.000000 m /zero glyphshow
grestore
[1 3] 0 setdash
gsave
667.6 208.2 929 64.2 clipbox
1249.5 64.2024 m
1249.5 272.426 l
stroke
grestore
[] 0 setdash
gsave
/o {
gsave
newpath
translate
0.5 setlinewidth
1 setlinejoin
0 setlinecap
0 0 m
0 4 l
gsave
0.000 setgray
fill
grestore
stroke
grestore
} bind def
1249.5 64.2024 o
grestore
gsave
/o {
gsave
newpath
translate
0.5 setlinewidth
1 setlinejoin
0 setlinecap
0 0 m
0 -4 l
gsave
0.000 setgray
fill
grestore
stroke
grestore
} bind def
1249.5 272.426 o
grestore
gsave
1224.646338 39.876020 translate
30.000000 rotate
0.000000 0.000000 m /zero glyphshow
6.362305 0.000000 m /eight glyphshow
12.724609 0.000000 m /colon glyphshow
16.093750 0.000000 m /zero glyphshow
22.456055 0.000000 m /zero glyphshow
grestore
[1 3] 0 setdash
gsave
667.6 208.2 929 64.2 clipbox
1449.79 64.2024 m
1449.79 272.426 l
stroke
grestore
[] 0 setdash
gsave
/o {
gsave
newpath
translate
0.5 setlinewidth
1 setlinejoin
0 setlinecap
0 0 m
0 4 l
gsave
0.000 setgray
fill
grestore
stroke
grestore
} bind def
1449.79 64.2024 o
grestore
gsave
/o {
gsave
newpath
translate
0.5 setlinewidth
1 setlinejoin
0 setlinecap
0 0 m
0 -4 l
gsave
0.000 setgray
fill
grestore
stroke
grestore
} bind def
1449.79 272.426 o
grestore
gsave
1425.424386 40.157270 translate
30.000000 rotate
0.000000 0.000000 m /one glyphshow
6.362305 0.000000 m /three glyphshow
12.724609 0.000000 m /colon glyphshow
16.093750 0.000000 m /zero glyphshow
22.456055 0.000000 m /zero glyphshow
grestore
[1 3] 0 setdash
gsave
667.6 208.2 929 64.2 clipbox
929.036 65.9233 m
1596.67 65.9233 l
stroke
grestore
[] 0 setdash
gsave
/o {
gsave
newpath
translate
0.5 setlinewidth
1 setlinejoin
0 setlinecap
0 0 m
4 0 l
gsave
0.000 setgray
fill
grestore
stroke
grestore
} bind def
929.036 65.9233 o
grestore
gsave
/o {
gsave
newpath
translate
0.5 setlinewidth
1 setlinejoin
0 setlinecap
0 0 m
-4 0 l
gsave
0.000 setgray
fill
grestore
stroke
grestore
} bind def
1596.67 65.9233 o
grestore
gsave
919.988761 63.165447 translate
0.000000 rotate
0.000000 0.000000 m /zero glyphshow
grestore
[1 3] 0 setdash
gsave
667.6 208.2 929 64.2 clipbox
929.036 100.34 m
1596.67 100.34 l
stroke
grestore
[] 0 setdash
gsave
/o {
gsave
newpath
translate
0.5 setlinewidth
1 setlinejoin
0 setlinecap
0 0 m
4 0 l
gsave
0.000 setgray
fill
grestore
stroke
grestore
} bind def
929.036 100.34 o
grestore
gsave
/o {
gsave
newpath
translate
0.5 setlinewidth
1 setlinejoin
0 setlinecap
0 0 m
-4 0 l
gsave
0.000 setgray
fill
grestore
stroke
grestore
} bind def
1596.67 100.34 o
grestore
gsave
913.660636 97.582637 translate
0.000000 rotate
0.000000 0.000000 m /two glyphshow
6.362305 0.000000 m /zero glyphshow
grestore
[1 3] 0 setdash
gsave
667.6 208.2 929 64.2 clipbox
929.036 134.758 m
1596.67 134.758 l
stroke
grestore
[] 0 setdash
gsave
/o {
gsave
newpath
translate
0.5 setlinewidth
1 setlinejoin
0 setlinecap
0 0 m
4 0 l
gsave
0.000 setgray
fill
grestore
stroke
grestore
} bind def
929.036 134.758 o
grestore
gsave
/o {
gsave
newpath
translate
0.5 setlinewidth
1 setlinejoin
0 setlinecap
0 0 m
-4 0 l
gsave
0.000 setgray
fill
grestore
stroke
grestore
} bind def
1596.67 134.758 o
grestore
gsave
913.285636 131.999827 translate
0.000000 rotate
0.000000 0.000000 m /four glyphshow
6.362305 0.000000 m /zero glyphshow
grestore
[1 3] 0 setdash
gsave
667.6 208.2 929 64.2 clipbox
929.036 169.175 m
1596.67 169.175 l
stroke
grestore
[] 0 setdash
gsave
/o {
gsave
newpath
translate
0.5 setlinewidth
1 setlinejoin
0 setlinecap
0 0 m
4 0 l
gsave
0.000 setgray
fill
grestore
stroke
grestore
} bind def
929.036 169.175 o
grestore
gsave
/o {
gsave
newpath
translate
0.5 setlinewidth
1 setlinejoin
0 setlinecap
0 0 m
-4 0 l
gsave
0.000 setgray
fill
grestore
stroke
grestore
} bind def
1596.67 169.175 o
grestore
gsave
913.645011 166.417017 translate
0.000000 rotate
0.000000 0.000000 m /six glyphshow
6.362305 0.000000 m /zero glyphshow
grestore
[1 3] 0 setdash
gsave
667.6 208.2 929 64.2 clipbox
929.036 203.592 m
1596.67 203.592 l
stroke
grestore
[] 0 setdash
gsave
/o {
gsave
newpath
translate
0.5 setlinewidth
1 setlinejoin
0 setlinecap
0 0 m
4 0 l
gsave
0.000 setgray
fill
grestore
stroke
grestore
} bind def
929.036 203.592 o
grestore
gsave
/o {
gsave
newpath
translate
0.5 setlinewidth
1 setlinejoin
0 setlinecap
0 0 m
-4 0 l
gsave
0.000 setgray
fill
grestore
stroke
grestore
} bind def
1596.67 203.592 o
grestore
gsave
913.645011 200.834207 translate
0.000000 rotate
0.000000 0.000000 m /eight glyphshow
6.362305 0.000000 m /zero glyphshow
grestore
[1 3] 0 setdash
gsave
667.6 208.2 929 64.2 clipbox
929.036 238.009 m
1596.67 238.009 l
stroke
grestore
[] 0 setdash
gsave
/o {
gsave
newpath
translate
0.5 setlinewidth
1 setlinejoin
0 setlinecap
0 0 m
4 0 l
gsave
0.000 setgray
fill
grestore
stroke
grestore
} bind def
929.036 238.009 o
grestore
gsave
/o {
gsave
newpath
translate
0.5 setlinewidth
1 setlinejoin
0 setlinecap
0 0 m
-4 0 l
gsave
0.000 setgray
fill
grestore
stroke
grestore
} bind def
1596.67 238.009 o
grestore
gsave
907.832511 235.251397 translate
0.000000 rotate
0.000000 0.000000 m /one glyphshow
6.362305 0.000000 m /zero glyphshow
12.724609 0.000000 m /zero glyphshow
grestore
[1 3] 0 setdash
gsave
667.6 208.2 929 64.2 clipbox
929.036 272.426 m
1596.67 272.426 l
stroke
grestore
[] 0 setdash
gsave
/o {
gsave
newpath
translate
0.5 setlinewidth
1 setlinejoin
0 setlinecap
0 0 m
4 0 l
gsave
0.000 setgray
fill
grestore
stroke
grestore
} bind def
929.036 272.426 o
grestore
gsave
/o {
gsave
newpath
translate
0.5 setlinewidth
1 setlinejoin
0 setlinecap
0 0 m
-4 0 l
gsave
0.000 setgray
fill
grestore
stroke
grestore
} bind def
1596.67 272.426 o
grestore
gsave
907.832511 269.668587 translate
0.000000 rotate
0.000000 0.000000 m /one glyphshow
6.362305 0.000000 m /two glyphshow
12.724609 0.000000 m /zero glyphshow
grestore
1.000 setlinewidth
gsave
929.036 64.2024 m
929.036 272.426 l
stroke
grestore
gsave
929.036 64.2024 m
1596.67 64.2024 l
stroke
grestore
gsave
1596.67 64.2024 m
1596.67 272.426 l
stroke
grestore
gsave
929.036 272.426 m
1596.67 272.426 l
stroke
grestore
gsave
1513.73 249.473 m
1591.67 249.473 l
1591.67 267.426 l
1513.73 267.426 l
1513.73 249.473 l
cl
gsave
1.000 setgray
fill
grestore
stroke
grestore
2.000 setlinewidth
2 setlinecap
0.498 0.788 0.498 setrgbcolor
gsave
1520.73 259.333 m
1534.73 259.333 l
stroke
grestore
0.000 setgray
gsave
1545.734500 255.832650 translate
0.000000 rotate
0.000000 0.000000 m /S glyphshow
6.850586 0.000000 m /five glyphshow
13.212891 0.000000 m /underscore glyphshow
18.212891 0.000000 m /s glyphshow
23.344727 0.000000 m /t glyphshow
27.363281 0.000000 m /a glyphshow
33.325195 0.000000 m /t glyphshow
37.343750 0.000000 m /e glyphshow
grestore
0.149 0.545 0.824 setrgbcolor
gsave
667.6 208.2 127.9 563.9 clipbox
127.872 647.23 m
141.225 650.894 l
145.231 651.977 l
157.248 655.267 l
162.589 656.683 l
178.612 661.097 l
183.953 662.513 l
198.641 666.678 l
198.641 666.553 l
202.647 667.636 l
216 671.3 l
221.341 672.716 l
236.029 676.756 l
240.035 677.839 l
252.052 681.128 l
256.058 682.211 l
269.411 685.876 l
274.752 687.292 l
290.775 691.706 l
294.781 692.789 l
305.463 695.704 l
309.469 696.787 l
322.822 700.452 l
328.163 701.868 l
344.186 706.282 l
348.192 707.365 l
358.874 710.28 l
362.88 711.363 l
374.897 714.653 l
378.903 715.735 l
390.921 719.025 l
394.927 720.108 l
408.279 723.773 l
412.285 724.856 l
424.303 728.145 l
429.644 729.561 l
444.332 733.601 l
448.337 734.684 l
461.69 738.348 l
468.367 733.892 l
487.06 721.524 l
493.737 717.068 l
515.101 702.95 l
521.777 698.494 l
540.471 686.126 l
545.812 682.586 l
561.836 671.967 l
567.177 668.427 l
581.865 658.682 l
583.2 657.641 l
583.2 657.807 l
599.223 647.188 l
604.564 643.648 l
621.923 632.154 l
628.599 627.698 l
647.293 615.33 l
652.634 611.79 l
661.981 605.585 l
795.508 605.585 l
795.508 605.585 l
stroke
grestore
0.500 setlinewidth
0 setlinecap
[1 3] 0 setdash
0.000 setgray
gsave
667.6 208.2 127.9 563.9 clipbox
127.872 563.94 m
795.508 563.94 l
stroke
grestore
[] 0 setdash
gsave
/o {
gsave
newpath
translate
0.5 setlinewidth
1 setlinejoin
0 setlinecap
0 0 m
-4 0 l
gsave
0.000 setgray
fill
grestore
stroke
grestore
} bind def
795.508 563.94 o
grestore
0.149 0.545 0.824 setrgbcolor
gsave
799.508364 561.182188 translate
0.000000 rotate
0.000000 0.000000 m /minus glyphshow
8.378906 0.000000 m /two glyphshow
14.741211 0.000000 m /zero glyphshow
grestore
[1 3] 0 setdash
0.000 setgray
gsave
667.6 208.2 127.9 563.9 clipbox
127.872 605.585 m
795.508 605.585 l
stroke
grestore
[] 0 setdash
gsave
/o {
gsave
newpath
translate
0.5 setlinewidth
1 setlinejoin
0 setlinecap
0 0 m
-4 0 l
gsave
0.000 setgray
fill
grestore
stroke
grestore
} bind def
795.508 605.585 o
grestore
0.149 0.545 0.824 setrgbcolor
gsave
799.508364 602.826987 translate
0.000000 rotate
0.000000 0.000000 m /minus glyphshow
8.378906 0.000000 m /one glyphshow
14.741211 0.000000 m /zero glyphshow
grestore
[1 3] 0 setdash
0.000 setgray
gsave
667.6 208.2 127.9 563.9 clipbox
127.872 647.23 m
795.508 647.23 l
stroke
grestore
[] 0 setdash
gsave
/o {
gsave
newpath
translate
0.5 setlinewidth
1 setlinejoin
0 setlinecap
0 0 m
-4 0 l
gsave
0.000 setgray
fill
grestore
stroke
grestore
} bind def
795.508 647.23 o
grestore
0.149 0.545 0.824 setrgbcolor
gsave
799.508364 644.471788 translate
0.000000 rotate
0.000000 0.000000 m /zero glyphshow
grestore
[1 3] 0 setdash
0.000 setgray
gsave
667.6 208.2 127.9 563.9 clipbox
127.872 688.874 m
795.508 688.874 l
stroke
grestore
[] 0 setdash
gsave
/o {
gsave
newpath
translate
0.5 setlinewidth
1 setlinejoin
0 setlinecap
0 0 m
-4 0 l
gsave
0.000 setgray
fill
grestore
stroke
grestore
} bind def
795.508 688.874 o
grestore
0.149 0.545 0.824 setrgbcolor
gsave
799.508364 686.116588 translate
0.000000 rotate
0.000000 0.000000 m /one glyphshow
6.362305 0.000000 m /zero glyphshow
grestore
[1 3] 0 setdash
0.000 setgray
gsave
667.6 208.2 127.9 563.9 clipbox
127.872 730.519 m
795.508 730.519 l
stroke
grestore
[] 0 setdash
gsave
/o {
gsave
newpath
translate
0.5 setlinewidth
1 setlinejoin
0 setlinecap
0 0 m
-4 0 l
gsave
0.000 setgray
fill
grestore
stroke
grestore
} bind def
795.508 730.519 o
grestore
0.149 0.545 0.824 setrgbcolor
gsave
799.508364 727.761387 translate
0.000000 rotate
0.000000 0.000000 m /two glyphshow
6.362305 0.000000 m /zero glyphshow
grestore
[1 3] 0 setdash
0.000 setgray
gsave
667.6 208.2 127.9 563.9 clipbox
127.872 772.164 m
795.508 772.164 l
stroke
grestore
[] 0 setdash
gsave
/o {
gsave
newpath
translate
0.5 setlinewidth
1 setlinejoin
0 setlinecap
0 0 m
-4 0 l
gsave
0.000 setgray
fill
grestore
stroke
grestore
} bind def
795.508 772.164 o
grestore
0.149 0.545 0.824 setrgbcolor
gsave
799.508364 769.406187 translate
0.000000 rotate
0.000000 0.000000 m /three glyphshow
6.362305 0.000000 m /zero glyphshow
grestore
1.000 setlinewidth
0.000 setgray
gsave
700.93 749.211 m
790.508 749.211 l
790.508 767.164 l
700.93 767.164 l
700.93 749.211 l
cl
gsave
1.000 setgray
fill
grestore
stroke
grestore
2.000 setlinewidth
2 setlinecap
0.149 0.545 0.824 setrgbcolor
gsave
707.93 759.07 m
721.93 759.07 l
stroke
grestore
0.000 setgray
gsave
732.930239 755.570250 translate
0.000000 rotate
0.000000 0.000000 m /D glyphshow
8.017578 0.000000 m /e glyphshow
13.935547 0.000000 m /l glyphshow
17.133789 0.000000 m /t glyphshow
21.152344 0.000000 m /a glyphshow
27.114258 0.000000 m /T glyphshow
33.784180 0.000000 m /underscore glyphshow
38.784180 0.000000 m /one glyphshow
45.146484 0.000000 m /hyphen glyphshow
48.525391 0.000000 m /five glyphshow
grestore
0.149 0.545 0.824 setrgbcolor
gsave
667.6 208.2 929 563.9 clipbox
929.036 647.23 m
942.388 651.894 l
946.394 653.31 l
957.076 657.058 l
961.082 658.474 l
973.1 662.68 l
977.105 664.096 l
990.458 668.76 l
994.464 670.176 l
1005.15 673.924 l
1009.15 675.34 l
1021.17 679.546 l
1025.18 680.962 l
1038.53 685.626 l
1043.87 687.542 l
1046.54 688.458 l
1047.21 688.874 l
1047.87 688.916 l
1058.56 692.664 l
1062.56 694.08 l
1074.58 698.286 l
1078.59 699.702 l
1091.94 704.366 l
1097.28 706.282 l
1111.97 711.404 l
1115.97 712.82 l
1127.99 717.026 l
1132 718.442 l
1144.01 722.648 l
1148.02 724.064 l
1161.37 728.728 l
1165.38 730.144 l
1176.06 733.892 l
1180.07 735.308 l
1193.42 739.973 l
1198.76 741.888 l
1214.78 747.469 l
1218.79 748.885 l
1229.47 752.633 l
1233.48 754.049 l
1246.83 758.713 l
1252.17 760.628 l
1262.85 764.335 l
1269.53 760.462 l
1288.22 749.509 l
1293.57 746.386 l
1309.59 737.016 l
1314.93 733.892 l
1330.95 724.522 l
1336.29 721.399 l
1352.32 712.029 l
1357.66 708.906 l
1373.68 699.535 l
1379.02 696.412 l
1395.05 687.042 l
1400.39 683.919 l
1416.41 674.549 l
1421.75 671.425 l
1437.77 662.055 l
1443.12 658.932 l
1459.14 649.562 l
1463.14 647.23 l
1596.67 647.23 l
1596.67 647.23 l
stroke
grestore
0.500 setlinewidth
0 setlinecap
[1 3] 0 setdash
0.000 setgray
gsave
667.6 208.2 929 563.9 clipbox
929.036 563.94 m
1596.67 563.94 l
stroke
grestore
[] 0 setdash
gsave
/o {
gsave
newpath
translate
0.5 setlinewidth
1 setlinejoin
0 setlinecap
0 0 m
-4 0 l
gsave
0.000 setgray
fill
grestore
stroke
grestore
} bind def
1596.67 563.94 o
grestore
0.149 0.545 0.824 setrgbcolor
gsave
1600.672000 561.182188 translate
0.000000 rotate
0.000000 0.000000 m /minus glyphshow
8.378906 0.000000 m /two glyphshow
14.741211 0.000000 m /zero glyphshow
grestore
[1 3] 0 setdash
0.000 setgray
gsave
667.6 208.2 929 563.9 clipbox
929.036 605.585 m
1596.67 605.585 l
stroke
grestore
[] 0 setdash
gsave
/o {
gsave
newpath
translate
0.5 setlinewidth
1 setlinejoin
0 setlinecap
0 0 m
-4 0 l
gsave
0.000 setgray
fill
grestore
stroke
grestore
} bind def
1596.67 605.585 o
grestore
0.149 0.545 0.824 setrgbcolor
gsave
1600.672000 602.826987 translate
0.000000 rotate
0.000000 0.000000 m /minus glyphshow
8.378906 0.000000 m /one glyphshow
14.741211 0.000000 m /zero glyphshow
grestore
[1 3] 0 setdash
0.000 setgray
gsave
667.6 208.2 929 563.9 clipbox
929.036 647.23 m
1596.67 647.23 l
stroke
grestore
[] 0 setdash
gsave
/o {
gsave
newpath
translate
0.5 setlinewidth
1 setlinejoin
0 setlinecap
0 0 m
-4 0 l
gsave
0.000 setgray
fill
grestore
stroke
grestore
} bind def
1596.67 647.23 o
grestore
0.149 0.545 0.824 setrgbcolor
gsave
1600.672000 644.471788 translate
0.000000 rotate
0.000000 0.000000 m /zero glyphshow
grestore
[1 3] 0 setdash
0.000 setgray
gsave
667.6 208.2 929 563.9 clipbox
929.036 688.874 m
1596.67 688.874 l
stroke
grestore
[] 0 setdash
gsave
/o {
gsave
newpath
translate
0.5 setlinewidth
1 setlinejoin
0 setlinecap
0 0 m
-4 0 l
gsave
0.000 setgray
fill
grestore
stroke
grestore
} bind def
1596.67 688.874 o
grestore
0.149 0.545 0.824 setrgbcolor
gsave
1600.672000 686.116588 translate
0.000000 rotate
0.000000 0.000000 m /one glyphshow
6.362305 0.000000 m /zero glyphshow
grestore
[1 3] 0 setdash
0.000 setgray
gsave
667.6 208.2 929 563.9 clipbox
929.036 730.519 m
1596.67 730.519 l
stroke
grestore
[] 0 setdash
gsave
/o {
gsave
newpath
translate
0.5 setlinewidth
1 setlinejoin
0 setlinecap
0 0 m
-4 0 l
gsave
0.000 setgray
fill
grestore
stroke
grestore
} bind def
1596.67 730.519 o
grestore
0.149 0.545 0.824 setrgbcolor
gsave
1600.672000 727.761387 translate
0.000000 rotate
0.000000 0.000000 m /two glyphshow
6.362305 0.000000 m /zero glyphshow
grestore
[1 3] 0 setdash
0.000 setgray
gsave
667.6 208.2 929 563.9 clipbox
929.036 772.164 m
1596.67 772.164 l
stroke
grestore
[] 0 setdash
gsave
/o {
gsave
newpath
translate
0.5 setlinewidth
1 setlinejoin
0 setlinecap
0 0 m
-4 0 l
gsave
0.000 setgray
fill
grestore
stroke
grestore
} bind def
1596.67 772.164 o
grestore
0.149 0.545 0.824 setrgbcolor
gsave
1600.672000 769.406187 translate
0.000000 rotate
0.000000 0.000000 m /three glyphshow
6.362305 0.000000 m /zero glyphshow
grestore
/b'BitstreamVeraSerif-Roman' findfont
13.000 scalefont
setfont
gsave
1634.922000 660.833250 translate
90.000000 rotate
0.000000 0.000000 m /degree glyphshow
6.500000 0.000000 m /C glyphshow
grestore
1.000 setlinewidth
0.000 setgray
gsave
1502.06 749.211 m
1591.67 749.211 l
1591.67 767.164 l
1502.06 767.164 l
1502.06 749.211 l
cl
gsave
1.000 setgray
fill
grestore
stroke
grestore
2.000 setlinewidth
2 setlinecap
0.149 0.545 0.824 setrgbcolor
gsave
1509.06 759.07 m
1523.06 759.07 l
stroke
grestore
0.000 setgray
/b'BitstreamVeraSerif-Roman' findfont
10.000 scalefont
setfont
gsave
1534.062625 755.570250 translate
0.000000 rotate
0.000000 0.000000 m /D glyphshow
8.017578 0.000000 m /e glyphshow
13.935547 0.000000 m /l glyphshow
17.133789 0.000000 m /t glyphshow
21.152344 0.000000 m /a glyphshow
27.114258 0.000000 m /T glyphshow
33.784180 0.000000 m /underscore glyphshow
38.784180 0.000000 m /one glyphshow
45.146484 0.000000 m /hyphen glyphshow
48.525391 0.000000 m /three glyphshow
grestore
0.000 0.169 0.212 setrgbcolor
/b'AnonymousPro-Bold' findfont
25.000 scalefont
setfont
gsave
577.937500 824.220000 translate
0.000000 rotate
0.000000 0.000000 m /A glyphshow
13.647461 0.000000 m /l glyphshow
27.294922 0.000000 m /g glyphshow
40.942383 0.000000 m /o glyphshow
54.589844 0.000000 m /r glyphshow
68.237305 0.000000 m /i glyphshow
81.884766 0.000000 m /t glyphshow
95.532227 0.000000 m /h glyphshow
109.179688 0.000000 m /m glyphshow
122.827148 0.000000 m /e glyphshow
136.474609 0.000000 m /space glyphshow
150.122070 0.000000 m /d glyphshow
163.769531 0.000000 m /e glyphshow
177.416992 0.000000 m /space glyphshow
191.064453 0.000000 m /c glyphshow
204.711914 0.000000 m /o glyphshow
218.359375 0.000000 m /n glyphshow
232.006836 0.000000 m /t glyphshow
245.654297 0.000000 m /r glyphshow
259.301758 0.000000 m /o glyphshow
272.949219 0.000000 m /l glyphshow
286.596680 0.000000 m /e glyphshow
300.244141 0.000000 m /space glyphshow
313.891602 0.000000 m /d glyphshow
327.539062 0.000000 m /e glyphshow
341.186523 0.000000 m /s glyphshow
354.833984 0.000000 m /space glyphshow
368.481445 0.000000 m /p glyphshow
382.128906 0.000000 m /o glyphshow
395.776367 0.000000 m /m glyphshow
409.423828 0.000000 m /p glyphshow
423.071289 0.000000 m /e glyphshow
436.718750 0.000000 m /s glyphshow
450.366211 0.000000 m /space glyphshow
464.013672 0.000000 m /S glyphshow
477.661133 0.000000 m /six glyphshow
491.308594 0.000000 m /space glyphshow
504.956055 0.000000 m /e glyphshow
518.603516 0.000000 m /t glyphshow
532.250977 0.000000 m /space glyphshow
545.898438 0.000000 m /S glyphshow
559.545898 0.000000 m /five glyphshow
grestore

end
showpage
