%!PS-Adobe-3.0 EPSF-3.0
%%Title: D:/Github/solarsystem/Outputs/Issues/Algo/solarValve.eps
%%Creator: matplotlib version 1.3.1, http://matplotlib.org/
%%CreationDate: Thu Jun 26 11:26:58 2014
%%Orientation: portrait
%%BoundingBox: -558 -55 1170 847
%%EndComments
%%BeginProlog
/mpldict 9 dict def
mpldict begin
/m { moveto } bind def
/l { lineto } bind def
/r { rlineto } bind def
/c { curveto } bind def
/cl { closepath } bind def
/box {
m
1 index 0 r
0 exch r
neg 0 r
cl
} bind def
/clipbox {
box
clip
newpath
} bind def
%!PS-Adobe-3.0 Resource-Font
%%Title: Bitstream Vera Serif
%%Copyright: Copyright (c) 2003 by Bitstream, Inc. All Rights Reserved.
%%Creator: Converted from TrueType to type 3 by PPR
25 dict begin
/_d{bind def}bind def
/_m{moveto}_d
/_l{lineto}_d
/_cl{closepath eofill}_d
/_c{curveto}_d
/_sc{7 -1 roll{setcachedevice}{pop pop pop pop pop pop}ifelse}_d
/_e{exec}_d
/FontName /BitstreamVeraSerif-Roman def
/PaintType 0 def
/FontMatrix[.001 0 0 .001 0 0]def
/FontBBox[-183 -236 1287 928]def
/FontType 3 def
/Encoding [ /space /parenleft /parenright /asterisk /comma /hyphen /zero /one /two /three /four /five /six /eight /colon /equal /greater /C /O /T /V /underscore /a /c /d /e /i /l /m /n /o /p /r /s /t /degree ] def
/FontInfo 10 dict dup begin
/FamilyName (Bitstream Vera Serif) def
/FullName (Bitstream Vera Serif) def
/Notice (Copyright (c) 2003 by Bitstream, Inc. All Rights Reserved. Bitstream Vera is a trademark of Bitstream, Inc.) def
/Weight (Roman) def
/Version (Release 1.10) def
/ItalicAngle 0.0 def
/isFixedPitch false def
/UnderlinePosition -213 def
/UnderlineThickness 133 def
end readonly def
/CharStrings 36 dict dup begin
/space{318 0 0 0 0 0 _sc
}_d
/parenleft{390 0 79 -155 319 760 _sc
319 -155 _m
239 -119 179 -63 139 13 _c
99 89 79 186 79 302 _c
79 418 99 514 139 591 _c
179 668 239 724 319 760 _c
319 712 _l
269 677 233 628 211 566 _c
189 503 178 415 178 302 _c
178 188 189 100 211 38 _c
233 -24 269 -72 319 -107 _c
319 -155 _l
_cl}_d
/parenright{390 0 71 -155 311 760 _sc
71 -155 _m
71 -107 _l
121 -72 157 -24 179 38 _c
201 100 212 188 212 302 _c
212 415 201 503 179 566 _c
157 628 121 677 71 712 _c
71 760 _l
150 724 210 668 250 591 _c
290 514 311 418 311 302 _c
311 186 290 89 250 13 _c
210 -63 150 -119 71 -155 _c
_cl}_d
/asterisk{500 0 16 287 484 742 _sc
484 604 _m
293 515 _l
484 425 _l
447 367 _l
277 473 _l
283 287 _l
217 287 _l
223 473 _l
53 367 _l
16 425 _l
207 514 _l
16 604 _l
53 662 _l
223 556 _l
217 742 _l
283 742 _l
277 556 _l
447 662 _l
484 604 _l
_cl}_d
/comma{318 0 36 -135 221 111 _sc
36 -96 _m
66 -73 89 -47 103 -17 _c
117 13 125 49 125 93 _c
125 111 _l
221 111 _l
218 55 205 7 181 -32 _c
157 -71 122 -105 75 -135 _c
36 -96 _l
_cl}_d
/hyphen{338 0 44 230 294 306 _sc
44 306 _m
294 306 _l
294 230 _l
44 230 _l
44 306 _l
_cl}_d
/zero{636 0 66 -13 570 742 _sc
318 34 _m
368 34 405 61 430 116 _c
454 170 467 253 467 364 _c
467 474 454 557 430 612 _c
405 666 368 694 318 694 _c
268 694 230 666 206 612 _c
181 557 169 474 169 364 _c
169 253 181 170 206 116 _c
230 61 268 34 318 34 _c
318 -13 _m
238 -13 176 20 132 86 _c
88 152 66 244 66 364 _c
66 483 88 576 132 642 _c
176 708 238 742 318 742 _c
397 742 459 708 503 642 _c
547 576 570 483 570 364 _c
570 244 547 152 503 86 _c
459 20 397 -13 318 -13 _c
_cl}_d
/one{636 0 122 0 494 742 _sc
142 0 _m
142 52 _l
269 52 _l
269 658 _l
122 563 _l
122 627 _l
300 742 _l
367 742 _l
367 52 _l
494 52 _l
494 0 _l
142 0 _l
_cl}_d
/two{{636 0 68 0 538 742 _sc
128 555 _m
73 555 _l
73 685 _l
107 703 142 717 178 727 _c
213 737 248 742 282 742 _c
358 742 418 723 462 687 _c
506 650 528 600 528 537 _c
528 465 478 380 378 281 _c
370 273 365 268 361 264 _c
177 80 _l
481 80 _l
481 170 _l
538 170 _l
538 0 _l
68 0 _l
68 53 _l
289 274 _l
337 322 372 367 393 408 _c
414 449 425 492 425 537 _c
}_e{425 586 412 624 386 652 _c
360 680 325 694 281 694 _c
234 694 198 682 173 659 _c
147 636 132 601 128 555 _c
_cl}_e}_d
/three{{636 0 76 -13 562 742 _sc
97 698 _m
135 712 171 723 206 731 _c
241 738 274 742 305 742 _c
376 742 432 726 472 696 _c
512 665 532 622 532 568 _c
532 524 518 487 490 458 _c
462 428 423 408 373 398 _c
433 389 479 367 512 332 _c
545 297 562 252 562 197 _c
562 129 539 77 493 41 _c
447 5 382 -13 296 -13 _c
258 -13 220 -9 184 -1 _c
148 6 112 18 76 35 _c
76 177 _l
}_e{131 177 _l
134 129 150 94 178 70 _c
206 46 246 34 298 34 _c
348 34 387 48 416 77 _c
444 106 459 146 459 196 _c
459 253 444 296 414 326 _c
384 355 341 370 284 370 _c
238 370 _l
238 420 _l
262 420 _l
319 420 362 431 390 455 _c
418 479 433 514 433 562 _c
433 604 421 637 398 660 _c
374 682 341 694 297 694 _c
253 694 218 683 194 662 _c
170 641 156 610 152 570 _c
}_e{97 570 _l
97 698 _l
_cl}_e}_d
/four{636 0 31 0 586 742 _sc
349 247 _m
349 635 _l
100 247 _l
349 247 _l
564 0 _m
232 0 _l
232 52 _l
349 52 _l
349 195 _l
31 195 _l
31 248 _l
350 742 _l
447 742 _l
447 247 _l
586 247 _l
586 195 _l
447 195 _l
447 52 _l
564 52 _l
564 0 _l
_cl}_d
/five{{636 0 85 -13 559 729 _sc
503 729 _m
503 649 _l
169 649 _l
169 440 _l
185 452 205 460 228 466 _c
250 472 276 475 304 475 _c
382 475 444 453 490 409 _c
536 365 559 306 559 231 _c
559 153 536 93 490 51 _c
444 8 379 -13 296 -13 _c
262 -13 228 -9 193 -1 _c
157 6 121 18 85 35 _c
85 177 _l
140 177 _l
143 130 158 94 184 70 _c
210 46 248 34 296 34 _c
}_e{347 34 386 51 414 85 _c
442 119 456 167 456 231 _c
456 294 442 342 415 376 _c
387 410 348 427 296 427 _c
266 427 240 421 218 411 _c
196 401 176 385 159 363 _c
117 363 _l
117 729 _l
503 729 _l
_cl}_e}_d
/six{{636 0 67 -13 573 742 _sc
327 34 _m
373 34 408 50 433 84 _c
457 118 470 166 470 230 _c
470 293 457 341 433 375 _c
408 409 373 426 327 426 _c
280 426 244 409 220 377 _c
196 344 184 297 184 236 _c
184 171 196 121 221 86 _c
245 51 281 34 327 34 _c
168 401 _m
190 425 215 444 243 456 _c
271 468 302 474 338 474 _c
410 474 468 452 510 408 _c
552 364 573 305 573 230 _c
}_e{573 156 550 97 505 53 _c
459 9 399 -13 323 -13 _c
241 -13 177 17 133 78 _c
89 139 67 227 67 341 _c
67 468 93 567 145 637 _c
197 707 271 742 367 742 _c
393 742 420 739 448 735 _c
476 730 505 723 535 713 _c
535 593 _l
480 593 _l
476 625 463 650 442 668 _c
421 685 393 694 357 694 _c
293 694 246 670 215 622 _c
184 574 168 500 168 401 _c
_cl}_e}_d
/eight{{636 0 67 -13 569 742 _sc
466 199 _m
466 251 453 291 427 320 _c
401 349 364 364 318 364 _c
271 364 235 349 209 320 _c
183 291 170 251 170 199 _c
170 147 183 106 209 77 _c
235 48 271 34 318 34 _c
364 34 401 48 427 77 _c
453 106 466 147 466 199 _c
446 553 _m
446 597 434 632 412 657 _c
389 681 358 694 318 694 _c
278 694 246 681 224 657 _c
201 632 190 597 190 553 _c
}_e{190 508 201 473 224 449 _c
246 424 278 412 318 412 _c
358 412 389 424 412 449 _c
434 473 446 508 446 553 _c
393 388 _m
448 380 491 360 522 327 _c
553 293 569 251 569 199 _c
569 131 547 78 504 42 _c
460 5 398 -13 318 -13 _c
237 -13 175 5 132 42 _c
88 78 67 131 67 199 _c
67 251 82 293 113 327 _c
144 360 187 380 243 388 _c
193 396 156 415 130 444 _c
}_e{104 472 91 509 91 553 _c
91 611 111 657 151 691 _c
191 725 247 742 318 742 _c
388 742 444 725 484 691 _c
524 657 545 611 545 553 _c
545 509 531 472 505 444 _c
479 415 441 396 393 388 _c
_cl}_e}_d
/colon{337 0 104 -13 234 434 _sc
104 51 _m
104 69 110 84 123 97 _c
135 109 151 116 169 116 _c
187 116 202 109 215 97 _c
227 84 234 69 234 51 _c
234 32 227 17 215 5 _c
203 -7 187 -13 169 -13 _c
150 -13 134 -7 122 5 _c
110 17 104 32 104 51 _c
104 369 _m
104 387 110 402 123 415 _c
135 427 151 434 169 434 _c
187 434 203 427 215 415 _c
227 403 234 387 234 369 _c
234 350 227 334 215 322 _c
203 310 187 304 169 304 _c
151 304 135 310 123 323 _c
110 335 104 351 104 369 _c
_cl}_d
/equal{838 0 106 175 732 452 _sc
106 452 _m
732 452 _l
732 374 _l
106 374 _l
106 452 _l
106 253 _m
732 253 _l
732 175 _l
106 175 _l
106 253 _l
_cl}_d
/greater{838 0 106 46 732 581 _sc
106 498 _m
106 581 _l
732 354 _l
732 273 _l
106 46 _l
106 129 _l
613 313 _l
106 498 _l
_cl}_d
/C{{765 0 56 -13 705 742 _sc
705 193 _m
683 125 647 73 597 39 _c
546 4 482 -13 405 -13 _c
357 -13 312 -5 272 11 _c
231 27 195 50 164 82 _c
127 118 100 160 82 206 _c
64 252 56 305 56 364 _c
56 477 88 568 154 638 _c
219 707 305 742 413 742 _c
453 742 495 736 540 726 _c
584 716 633 700 685 679 _c
685 511 _l
630 511 _l
618 572 593 617 557 646 _c
}_e{521 675 470 690 405 690 _c
327 690 268 662 228 607 _c
188 551 168 470 168 364 _c
168 257 188 176 228 121 _c
268 65 327 38 405 38 _c
459 38 503 51 539 77 _c
574 103 599 141 615 193 _c
705 193 _l
_cl}_e}_d
/O{{820 0 56 -13 764 742 _sc
410 38 _m
490 38 550 65 591 120 _c
631 175 652 256 652 364 _c
652 471 631 552 591 607 _c
550 662 490 690 410 690 _c
330 690 269 662 229 607 _c
188 552 168 471 168 364 _c
168 256 188 175 229 120 _c
269 65 330 38 410 38 _c
410 -13 _m
360 -13 315 -5 273 11 _c
231 27 195 50 164 82 _c
127 118 100 160 82 206 _c
64 252 56 304 56 364 _c
}_e{56 422 64 475 82 521 _c
100 567 127 609 164 646 _c
196 678 232 702 273 718 _c
314 734 360 742 410 742 _c
516 742 601 707 666 638 _c
731 568 764 477 764 364 _c
764 305 755 252 737 206 _c
719 159 692 118 656 82 _c
624 50 587 26 546 10 _c
505 -5 460 -13 410 -13 _c
_cl}_e}_d
/T{667 0 10 0 657 729 _sc
191 0 _m
191 52 _l
284 52 _l
284 671 _l
70 671 _l
70 557 _l
10 557 _l
10 729 _l
657 729 _l
657 557 _l
597 557 _l
597 671 _l
383 671 _l
383 52 _l
476 52 _l
476 0 _l
191 0 _l
_cl}_d
/V{722 0 -9 0 737 729 _sc
175 677 _m
390 117 _l
605 677 _l
523 677 _l
523 729 _l
737 729 _l
737 677 _l
666 677 _l
406 0 _l
322 0 _l
63 677 _l
-9 677 _l
-9 729 _l
256 729 _l
256 677 _l
175 677 _l
_cl}_d
/underscore{500 0 0 -235 500 -196 _sc
500 -196 _m
500 -235 _l
0 -235 _l
0 -196 _l
500 -196 _l
_cl}_d
/a{{596 0 50 -13 568 533 _sc
398 163 _m
398 273 _l
282 273 _l
237 273 204 263 182 244 _c
160 224 150 195 150 156 _c
150 120 161 91 183 70 _c
205 48 235 38 273 38 _c
310 38 340 49 363 72 _c
386 95 398 125 398 163 _c
488 324 _m
488 52 _l
568 52 _l
568 0 _l
398 0 _l
398 56 _l
378 32 355 14 329 3 _c
303 -7 272 -13 238 -13 _c
180 -13 134 2 100 32 _c
}_e{66 62 50 104 50 156 _c
50 209 69 250 108 280 _c
146 310 201 325 272 325 _c
398 325 _l
398 361 _l
398 400 386 430 362 452 _c
338 474 304 485 261 485 _c
225 485 197 476 176 460 _c
154 444 141 420 136 388 _c
90 388 _l
90 493 _l
121 506 151 516 181 523 _c
210 529 239 533 267 533 _c
339 533 393 515 431 479 _c
469 443 488 392 488 324 _c
_cl}_e}_d
/c{{560 0 50 -13 514 533 _sc
514 156 _m
501 100 477 58 441 30 _c
405 1 358 -13 301 -13 _c
225 -13 165 11 119 61 _c
73 111 50 177 50 260 _c
50 342 73 408 119 458 _c
165 508 225 533 301 533 _c
333 533 366 529 399 521 _c
431 513 464 502 497 487 _c
497 354 _l
445 354 _l
438 399 423 432 400 453 _c
377 474 344 485 302 485 _c
253 485 216 466 192 428 _c
}_e{167 390 155 334 155 260 _c
155 184 167 128 192 90 _c
216 52 253 34 302 34 _c
340 34 371 44 394 64 _c
417 84 433 115 442 156 _c
514 156 _l
_cl}_e}_d
/d{{640 0 50 -13 611 760 _sc
525 52 _m
611 52 _l
611 0 _l
435 0 _l
435 81 _l
417 48 395 24 368 9 _c
340 -5 307 -13 267 -13 _c
203 -13 150 12 110 62 _c
70 112 50 178 50 260 _c
50 341 70 407 110 457 _c
150 507 203 533 267 533 _c
307 533 340 525 368 510 _c
395 494 417 470 435 438 _c
435 708 _l
350 708 _l
350 760 _l
525 760 _l
525 52 _l
435 234 _m
435 285 _l
}_e{435 347 423 394 399 427 _c
375 460 340 477 295 477 _c
249 477 214 458 190 422 _c
166 386 155 332 155 260 _c
155 188 166 133 190 97 _c
214 60 249 42 295 42 _c
340 42 375 58 399 91 _c
423 123 435 171 435 234 _c
_cl}_e}_d
/e{{592 0 50 -13 542 533 _sc
542 250 _m
155 250 _l
155 246 _l
155 176 168 123 194 87 _c
220 51 259 34 311 34 _c
350 34 382 44 408 65 _c
433 85 451 116 461 157 _c
533 157 _l
519 100 492 57 454 29 _c
415 1 364 -13 302 -13 _c
226 -13 165 11 119 61 _c
73 111 50 177 50 260 _c
50 342 72 408 118 458 _c
163 508 222 533 296 533 _c
374 533 435 508 477 460 _c
}_e{519 412 540 342 542 250 _c
436 302 _m
434 362 421 408 397 439 _c
373 469 340 485 296 485 _c
254 485 222 469 198 438 _c
174 407 160 362 155 302 _c
436 302 _l
_cl}_e}_d
/i{320 0 36 0 297 736 _sc
97 680 _m
97 695 102 708 113 719 _c
124 730 137 736 153 736 _c
167 736 180 730 191 719 _c
202 708 208 695 208 680 _c
208 664 202 651 192 641 _c
181 630 168 625 153 625 _c
137 625 124 630 113 641 _c
102 651 97 664 97 680 _c
212 52 _m
297 52 _l
297 0 _l
36 0 _l
36 52 _l
122 52 _l
122 467 _l
36 467 _l
36 519 _l
212 519 _l
212 52 _l
_cl}_d
/l{320 0 29 0 290 760 _sc
205 52 _m
290 52 _l
290 0 _l
29 0 _l
29 52 _l
115 52 _l
115 708 _l
29 708 _l
29 760 _l
205 760 _l
205 52 _l
_cl}_d
/m{{948 0 36 0 921 533 _sc
518 418 _m
535 456 557 484 584 504 _c
611 523 642 533 678 533 _c
732 533 773 516 800 482 _c
826 448 840 398 840 330 _c
840 52 _l
921 52 _l
921 0 _l
672 0 _l
672 52 _l
750 52 _l
750 320 _l
750 372 742 410 726 433 _c
710 455 685 467 649 467 _c
609 467 578 451 557 421 _c
536 391 526 347 526 289 _c
526 52 _l
604 52 _l
604 0 _l
358 0 _l
}_e{358 52 _l
436 52 _l
436 323 _l
436 375 428 412 412 434 _c
396 456 371 467 335 467 _c
295 467 264 451 243 421 _c
222 391 212 347 212 289 _c
212 52 _l
290 52 _l
290 0 _l
41 0 _l
41 52 _l
122 52 _l
122 468 _l
36 468 _l
36 519 _l
212 519 _l
212 427 _l
228 461 249 488 275 506 _c
301 524 330 533 363 533 _c
403 533 436 523 463 503 _c
}_e{490 483 508 454 518 418 _c
_cl}_e}_d
/n{{644 0 36 0 616 533 _sc
41 0 _m
41 52 _l
122 52 _l
122 467 _l
36 467 _l
36 519 _l
212 519 _l
212 427 _l
228 461 250 488 276 506 _c
302 524 333 533 369 533 _c
426 533 468 516 495 484 _c
522 451 536 400 536 330 _c
536 52 _l
616 52 _l
616 0 _l
368 0 _l
368 52 _l
446 52 _l
446 302 _l
446 365 438 408 422 432 _c
406 456 379 468 340 468 _c
}_e{298 468 266 452 244 422 _c
222 391 212 347 212 289 _c
212 52 _l
290 52 _l
290 0 _l
41 0 _l
_cl}_e}_d
/o{602 0 50 -13 552 533 _sc
301 34 _m
349 34 385 53 410 91 _c
434 129 447 185 447 260 _c
447 334 434 390 410 428 _c
385 466 349 485 301 485 _c
253 485 216 466 192 428 _c
167 390 155 334 155 260 _c
155 185 167 129 192 91 _c
216 53 253 34 301 34 _c
301 -13 _m
225 -13 165 11 119 61 _c
73 111 50 177 50 260 _c
50 342 72 408 118 458 _c
164 508 225 533 301 533 _c
377 533 437 508 483 458 _c
529 408 552 342 552 260 _c
552 177 529 111 483 61 _c
437 11 377 -13 301 -13 _c
_cl}_d
/p{{640 0 29 -207 590 533 _sc
205 285 _m
205 234 _l
205 171 217 123 241 91 _c
265 58 299 42 345 42 _c
391 42 425 60 449 97 _c
473 133 485 188 485 260 _c
485 332 473 386 449 422 _c
425 458 391 477 345 477 _c
299 477 265 460 241 427 _c
217 394 205 347 205 285 _c
115 467 _m
29 467 _l
29 519 _l
205 519 _l
205 438 _l
222 470 244 494 272 510 _c
299 525 333 533 373 533 _c
}_e{437 533 489 507 529 457 _c
569 407 590 341 590 260 _c
590 178 569 112 529 62 _c
489 12 437 -13 373 -13 _c
333 -13 299 -5 272 9 _c
244 24 222 48 205 81 _c
205 -155 _l
290 -155 _l
290 -207 _l
29 -207 _l
29 -155 _l
115 -155 _l
115 467 _l
_cl}_e}_d
/r{478 0 36 0 478 533 _sc
478 520 _m
478 390 _l
426 390 _l
424 416 417 435 405 448 _c
392 460 373 467 349 467 _c
305 467 271 451 247 421 _c
223 390 212 346 212 289 _c
212 52 _l
316 52 _l
316 0 _l
41 0 _l
41 52 _l
122 52 _l
122 468 _l
36 468 _l
36 519 _l
212 519 _l
212 427 _l
229 463 251 489 279 507 _c
307 524 341 533 381 533 _c
395 533 411 531 427 529 _c
443 527 460 524 478 520 _c
_cl}_d
/s{{513 0 56 -13 462 533 _sc
56 29 _m
56 150 _l
108 150 _l
109 111 121 82 144 63 _c
167 43 201 34 246 34 _c
286 34 317 41 338 57 _c
359 72 370 94 370 123 _c
370 145 362 164 347 178 _c
331 192 299 207 249 223 _c
184 245 _l
139 259 107 277 87 299 _c
67 320 57 347 57 381 _c
57 428 74 465 109 492 _c
144 519 192 533 254 533 _c
281 533 310 529 340 522 _c
}_e{370 515 402 505 434 491 _c
434 378 _l
382 378 _l
380 411 369 437 347 456 _c
325 475 295 485 257 485 _c
219 485 190 478 171 465 _c
151 451 142 431 142 405 _c
142 383 149 365 164 352 _c
178 339 208 326 252 312 _c
323 290 _l
372 274 407 255 429 232 _c
451 209 462 180 462 144 _c
462 94 443 56 405 28 _c
367 0 316 -13 250 -13 _c
216 -13 184 -9 152 -3 _c
}_e{120 3 88 14 56 29 _c
_cl}_e}_d
/t{402 0 29 -13 394 680 _sc
108 467 _m
29 467 _l
29 519 _l
108 519 _l
108 680 _l
198 680 _l
198 519 _l
367 519 _l
367 467 _l
198 467 _l
198 137 _l
198 93 202 64 211 52 _c
219 40 235 34 258 34 _c
281 34 298 41 309 55 _c
319 69 325 91 326 122 _c
394 122 _l
391 74 378 40 355 19 _c
332 -2 297 -13 250 -13 _c
198 -13 161 -1 140 21 _c
118 43 108 82 108 137 _c
108 467 _l
_cl}_d
/degree{{500 0 95 432 405 742 _sc
250 675 _m
225 675 204 666 187 649 _c
170 632 162 611 162 586 _c
162 561 170 540 187 524 _c
203 507 224 499 250 499 _c
274 499 295 507 312 524 _c
329 540 338 561 338 586 _c
338 610 329 631 312 649 _c
294 666 274 675 250 675 _c
250 742 _m
270 742 290 738 310 730 _c
329 722 346 710 360 696 _c
374 681 385 664 393 646 _c
401 627 405 607 405 586 _c
}_e{405 542 389 506 359 476 _c
329 446 292 432 249 432 _c
205 432 168 446 139 476 _c
109 505 95 542 95 586 _c
95 629 110 666 140 696 _c
170 726 206 742 250 742 _c
_cl}_e}_d
end readonly def

/BuildGlyph
 {exch begin
 CharStrings exch
 2 copy known not{pop /.notdef}if
 true 3 1 roll get exec
 end}_d

/BuildChar {
 1 index /Encoding get exch get
 1 index /BuildGlyph get exec
}_d

FontName currentdict end definefont pop
%!PS-Adobe-3.0 Resource-Font
%%Title: Anonymous Pro Bold
%%Copyright: Copyright (c) Mark Simonson 2009-2010. All rights reserved.
%%Creator: Converted from TrueType to type 3 by PPR
25 dict begin
/_d{bind def}bind def
/_m{moveto}_d
/_l{lineto}_d
/_cl{closepath eofill}_d
/_c{curveto}_d
/_sc{7 -1 roll{setcachedevice}{pop pop pop pop pop pop}ifelse}_d
/_e{exec}_d
/FontName /AnonymousPro-Bold def
/PaintType 0 def
/FontMatrix[.001 0 0 .001 0 0]def
/FontBBox[-91 -193 562 905]def
/FontType 3 def
/Encoding [ /space /C /a /d /e /i /l /n /o /r /s /t /v /ocircumflex /circumflex ] def
/FontInfo 10 dict dup begin
/FamilyName (Anonymous Pro) def
/FullName (Anonymous Pro Bold) def
/Notice (Copyright (c) Mark Simonson 2009-2010. All rights reserved. Anonymous Pro is a trademark of Mark Simonson.) def
/Weight (Bold) def
/Version (Version 1.002) def
/ItalicAngle 0.0 def
/isFixedPitch true def
/UnderlinePosition -187 def
/UnderlineThickness 123 def
end readonly def
/CharStrings 15 dict dup begin
/space{546 0 0 0 0 0 _sc
}_d
/C{{546 0 -9 -10 465 648 _sc
465 195 _m
457 163 446 135 433 110 _c
420 84 404 63 386 45 _c
367 27 345 13 320 4 _c
295 -5 267 -10 235 -10 _c
190 -10 152 -1 121 17 _c
90 35 65 59 45 90 _c
25 120 11 155 3 195 _c
-5 235 -9 276 -9 319 _c
-9 361 -5 402 3 442 _c
11 482 25 517 45 547 _c
64 577 89 602 119 620 _c
149 638 185 648 229 648 _c
}_e{243 648 257 646 271 642 _c
285 638 299 633 311 626 _c
323 618 334 609 344 599 _c
353 588 360 576 364 562 _c
364 637 _l
455 637 _l
455 396 _l
364 396 _l
364 416 361 435 356 455 _c
351 474 343 491 333 506 _c
322 521 308 533 292 543 _c
276 552 257 557 235 557 _c
206 557 182 550 164 536 _c
146 522 131 503 120 481 _c
109 458 101 432 97 404 _c
93 376 91 347 91 319 _c
}_e{91 290 93 261 97 233 _c
101 204 109 178 120 156 _c
130 133 145 115 164 101 _c
182 87 206 80 235 80 _c
276 80 308 93 330 119 _c
352 145 370 181 384 226 _c
465 195 _l
_cl}_e}_d
/a{{546 0 -1 -10 430 466 _sc
-1 131 _m
-1 157 6 181 20 201 _c
34 221 52 237 76 251 _c
99 264 126 274 156 281 _c
186 287 216 291 248 291 _c
265 291 280 290 292 290 _c
304 289 317 288 330 287 _c
330 305 _l
330 329 320 346 302 358 _c
284 370 260 376 230 376 _c
202 376 174 372 146 364 _c
118 356 91 345 66 331 _c
25 410 _l
55 427 87 441 121 451 _c
}_e{155 461 192 466 230 466 _c
254 466 279 463 303 457 _c
327 451 348 442 367 430 _c
386 417 401 400 413 380 _c
424 360 430 335 430 305 _c
430 0 _l
330 0 _l
330 67 _l
314 42 290 23 259 10 _c
228 -3 195 -10 159 -10 _c
137 -10 116 -7 96 -1 _c
76 4 59 13 45 25 _c
31 37 19 51 11 69 _c
3 87 -1 107 -1 131 _c
185 79 _m
205 79 223 81 241 86 _c
}_e{258 91 273 98 287 107 _c
300 116 310 127 318 140 _c
326 152 330 166 330 182 _c
330 199 _l
314 201 299 203 285 203 _c
271 203 258 204 248 204 _c
198 204 161 197 136 184 _c
110 171 98 155 98 136 _c
98 98 127 79 185 79 _c
_cl}_e}_d
/d{{546 0 0 -10 431 637 _sc
431 0 _m
330 0 _l
330 42 _l
310 24 291 11 271 3 _c
251 -5 228 -10 203 -10 _c
173 -10 146 -4 121 7 _c
96 18 75 34 57 55 _c
39 76 25 101 15 131 _c
5 160 0 192 0 227 _c
0 261 5 293 15 323 _c
25 352 39 377 57 398 _c
75 419 96 436 121 448 _c
146 460 173 466 203 466 _c
228 466 251 461 271 453 _c
}_e{291 444 310 431 330 414 _c
330 546 _l
242 546 _l
242 637 _l
431 637 _l
431 0 _l
330 334 _m
318 347 302 357 283 364 _c
264 371 246 375 229 375 _c
191 375 160 361 136 334 _c
112 306 100 271 100 227 _c
100 183 112 147 136 120 _c
160 93 191 80 229 80 _c
246 80 264 83 283 90 _c
302 97 318 107 330 121 _c
330 334 _l
_cl}_e}_d
/e{{546 0 -9 -10 474 466 _sc
93 189 _m
97 157 112 131 137 111 _c
162 90 196 80 238 80 _c
270 80 299 85 323 95 _c
347 105 368 119 386 136 _c
438 65 _l
408 35 377 15 345 5 _c
312 -5 276 -10 238 -10 _c
202 -10 169 -4 139 7 _c
109 18 83 34 61 55 _c
39 76 21 101 9 130 _c
-3 159 -9 191 -9 227 _c
-9 261 -3 293 8 322 _c
19 351 35 376 56 398 _c
}_e{77 419 102 436 132 448 _c
161 460 193 466 229 466 _c
265 466 299 459 329 447 _c
359 434 384 416 406 392 _c
427 368 444 339 456 305 _c
468 271 474 232 474 189 _c
93 189 _l
360 278 _m
354 307 339 330 314 348 _c
289 366 261 375 229 375 _c
197 375 168 366 143 348 _c
117 330 102 307 97 278 _c
360 278 _l
_cl}_e}_d
/i{546 0 76 0 382 637 _sc
289 514 _m
166 514 _l
166 637 _l
289 637 _l
289 514 _l
382 0 _m
76 0 _l
76 91 _l
177 91 _l
177 364 _l
76 364 _l
76 455 _l
278 455 _l
278 91 _l
382 91 _l
382 0 _l
_cl}_d
/l{546 0 77 0 383 637 _sc
383 0 _m
77 0 _l
77 91 _l
177 91 _l
177 546 _l
77 546 _l
77 637 _l
278 637 _l
278 91 _l
383 91 _l
383 0 _l
_cl}_d
/n{546 0 24 0 431 466 _sc
431 0 _m
330 0 _l
330 281 _l
330 316 323 340 310 354 _c
296 368 277 375 252 375 _c
214 375 184 359 160 329 _c
136 299 125 257 125 204 _c
125 0 _l
24 0 _l
24 455 _l
125 455 _l
125 341 _l
135 380 153 411 181 433 _c
208 455 242 466 282 466 _c
328 466 365 450 391 420 _c
417 390 431 343 431 281 _c
431 0 _l
_cl}_d
/o{{546 0 -9 -10 467 466 _sc
467 227 _m
467 191 461 159 450 130 _c
438 101 422 76 401 55 _c
380 34 355 18 326 7 _c
296 -4 264 -10 228 -10 _c
192 -10 160 -4 131 7 _c
101 18 76 34 55 55 _c
34 76 18 101 7 130 _c
-3 159 -9 191 -9 227 _c
-9 261 -3 293 7 323 _c
18 352 34 377 55 399 _c
76 420 101 436 131 448 _c
160 460 192 466 228 466 _c
}_e{264 466 296 460 326 448 _c
355 436 380 420 401 399 _c
422 377 438 352 450 323 _c
461 293 467 261 467 227 _c
366 227 _m
366 247 362 267 356 285 _c
350 303 341 319 329 332 _c
317 345 302 355 285 363 _c
268 371 249 375 228 375 _c
206 375 187 371 170 363 _c
153 355 139 345 127 332 _c
115 319 106 303 100 285 _c
94 267 91 247 91 227 _c
91 205 94 186 100 168 _c
}_e{106 150 115 135 127 122 _c
139 108 153 98 170 91 _c
187 83 206 80 228 80 _c
249 80 268 83 285 91 _c
302 98 317 108 329 122 _c
341 135 350 150 356 168 _c
362 186 366 205 366 227 _c
_cl}_e}_d
/r{{546 0 0 0 482 466 _sc
444 347 _m
432 353 419 357 407 360 _c
394 363 380 365 364 365 _c
341 365 320 361 300 355 _c
280 348 263 338 249 325 _c
235 311 224 295 216 275 _c
208 255 204 231 204 204 _c
204 91 _l
306 91 _l
306 0 _l
0 0 _l
0 91 _l
103 91 _l
103 364 _l
0 364 _l
0 455 _l
204 455 _l
204 341 _l
220 386 245 418 277 437 _c
309 456 348 466 393 466 _c
}_e{407 466 421 464 437 461 _c
452 458 467 453 482 446 _c
444 347 _l
_cl}_e}_d
/s{{546 0 -4 -10 443 466 _sc
443 136 _m
443 106 436 82 423 64 _c
409 45 392 30 371 19 _c
350 7 327 0 301 -4 _c
275 -8 249 -10 225 -10 _c
183 -10 142 -4 101 7 _c
60 19 25 34 -4 54 _c
37 137 _l
73 116 105 101 135 93 _c
165 84 195 80 225 80 _c
265 80 295 84 314 93 _c
332 101 342 113 342 129 _c
342 136 339 142 334 147 _c
328 152 320 157 308 161 _c
}_e{296 165 280 169 260 173 _c
240 177 216 181 187 186 _c
163 190 141 194 120 200 _c
99 206 81 214 65 224 _c
49 234 36 248 26 264 _c
16 280 12 300 12 324 _c
12 348 18 370 31 388 _c
43 406 60 420 80 432 _c
100 444 123 452 149 458 _c
174 463 199 466 225 466 _c
261 466 295 461 329 452 _c
363 442 392 429 418 412 _c
378 334 _l
352 350 328 360 304 366 _c
}_e{280 372 253 375 225 375 _c
213 375 200 374 187 373 _c
174 371 162 369 151 365 _c
140 361 131 356 124 350 _c
116 344 113 336 113 327 _c
113 315 123 305 145 297 _c
166 289 202 282 254 275 _c
282 271 307 266 330 260 _c
353 254 373 245 390 235 _c
406 225 419 212 429 196 _c
438 180 443 160 443 136 _c
_cl}_e}_d
/t{{546 0 0 -10 460 637 _sc
460 145 _m
454 97 435 59 403 31 _c
371 3 330 -10 282 -10 _c
255 -10 231 -6 209 2 _c
187 10 168 22 152 38 _c
136 54 124 73 116 95 _c
107 117 103 141 103 167 _c
103 364 _l
0 364 _l
0 455 _l
103 455 _l
103 637 _l
204 637 _l
204 455 _l
395 455 _l
395 364 _l
204 364 _l
204 167 _l
204 137 211 115 225 101 _c
239 87 258 80 282 80 _c
}_e{310 80 332 88 346 105 _c
360 121 368 141 371 165 _c
460 145 _l
_cl}_e}_d
/v{546 0 0 0 455 455 _sc
455 455 _m
287 0 _l
168 0 _l
0 455 _l
108 455 _l
228 111 _l
347 455 _l
455 455 _l
_cl}_d
/ocircumflex{546 0 -9 -10 467 683 _sc
false CharStrings /o get exec
false CharStrings /circumflex get exec
}_d
/circumflex{546 0 70 479 386 683 _sc
386 530 _m
347 480 _l
229 580 _l
109 479 _l
70 528 _l
228 683 _l
386 530 _l
_cl}_d
end readonly def

/BuildGlyph
 {exch begin
 CharStrings exch
 2 copy known not{pop /.notdef}if
 true 3 1 roll get exec
 end}_d

/BuildChar {
 1 index /Encoding get exch get
 1 index /BuildGlyph get exec
}_d

FontName currentdict end definefont pop
end
%%EndProlog
mpldict begin
-558 -55.8 translate
1728 903.6 0 0 clipbox
gsave
0 0 m
1728 0 l
1728 903.6 l
0 903.6 l
cl
1.000 setgray
fill
grestore
gsave
107.136 624.547 m
788.911 624.547 l
788.911 813.24 l
107.136 813.24 l
cl
1.000 setgray
fill
grestore
2.000 setlinewidth
1 setlinejoin
2 setlinecap
[] 0 setdash
0.498 0.788 0.498 setrgbcolor
gsave
681.8 188.7 107.1 624.5 clipbox
107.136 798.725 m
108.5 798.609 l
109.863 798.29 l
111.227 797.738 l
112.59 796.969 l
113.954 795.996 l
115.317 794.792 l
116.681 793.384 l
118.044 791.773 l
119.408 789.958 l
120.771 787.955 l
123.499 783.354 l
126.226 778.042 l
128.953 772.047 l
131.68 765.443 l
134.407 758.301 l
138.498 746.718 l
142.588 734.352 l
149.406 712.725 l
157.587 686.816 l
161.678 674.551 l
163.042 669.195 l
163.042 670.646 l
164.405 666.001 l
164.405 666.829 l
167.132 659.571 l
169.859 652.822 l
172.586 646.668 l
175.313 641.181 l
178.041 636.406 l
180.768 632.371 l
182.131 630.658 l
183.495 629.148 l
184.858 627.856 l
186.222 626.768 l
187.585 625.897 l
188.949 625.229 l
190.312 624.794 l
191.676 624.576 l
193.04 624.576 l
194.403 624.794 l
195.767 625.229 l
197.13 625.897 l
198.494 626.768 l
199.857 627.856 l
201.221 629.148 l
202.584 630.658 l
203.948 632.371 l
205.312 634.287 l
208.039 638.699 l
210.766 643.837 l
213.493 649.672 l
216.22 656.117 l
218.947 663.142 l
221.674 670.646 l
225.765 682.65 l
225.765 684.639 l
227.128 686.816 l
232.583 703.987 l
242.127 734.352 l
246.218 746.718 l
250.309 758.301 l
253.036 765.443 l
255.763 772.047 l
258.49 778.042 l
261.217 783.354 l
263.944 787.955 l
266.671 791.773 l
268.035 793.384 l
269.398 794.792 l
270.762 795.996 l
272.125 796.969 l
273.489 797.738 l
274.853 798.29 l
276.216 798.609 l
277.58 798.725 l
278.943 798.609 l
280.307 798.29 l
281.67 797.738 l
283.034 796.969 l
284.397 795.996 l
285.761 794.792 l
287.124 793.384 l
288.488 791.773 l
289.852 789.958 l
291.215 787.955 l
293.942 783.354 l
296.669 778.042 l
299.396 772.047 l
302.124 765.443 l
304.851 758.301 l
308.941 746.718 l
313.032 734.352 l
319.85 712.725 l
321.213 707.703 l
321.213 708.356 l
322.577 703.987 l
323.259 701.113 l
323.94 699.632 l
329.395 682.65 l
333.485 670.646 l
336.212 663.142 l
338.939 656.117 l
341.666 649.672 l
344.394 643.837 l
347.121 638.699 l
349.848 634.287 l
351.211 632.371 l
352.575 630.658 l
353.938 629.148 l
355.302 627.856 l
356.665 626.768 l
358.029 625.897 l
359.393 625.229 l
360.756 624.794 l
362.12 624.576 l
363.483 624.576 l
364.847 624.794 l
366.21 625.229 l
367.574 625.897 l
368.937 626.768 l
370.301 627.856 l
371.665 629.148 l
373.028 630.658 l
374.392 632.371 l
375.755 634.287 l
378.482 638.699 l
381.209 643.837 l
383.936 649.672 l
386.664 656.117 l
389.391 663.142 l
392.118 670.646 l
396.208 682.65 l
401.663 699.632 l
407.117 717.108 l
407.799 720.955 l
408.48 721.463 l
409.844 725.803 l
411.207 731.739 l
411.207 730.099 l
415.298 742.683 l
419.389 754.542 l
422.116 761.93 l
424.843 768.825 l
427.57 775.124 l
430.297 780.785 l
433.024 785.749 l
435.751 789.958 l
437.115 791.773 l
438.478 793.384 l
439.842 794.792 l
441.206 795.996 l
442.569 796.969 l
443.933 797.738 l
445.296 798.29 l
446.66 798.609 l
448.023 798.725 l
449.387 798.609 l
450.75 798.29 l
452.114 797.738 l
453.477 796.969 l
454.841 795.996 l
456.205 794.792 l
457.568 793.384 l
458.932 791.773 l
460.295 789.958 l
461.659 787.955 l
464.386 783.354 l
467.113 778.042 l
469.84 772.047 l
472.567 765.443 l
475.294 758.301 l
476.658 754.542 l
478.021 749.491 l
478.021 750.681 l
482.112 738.547 l
483.476 733.118 l
483.476 734.352 l
490.293 712.725 l
498.475 686.816 l
502.565 674.551 l
506.656 663.142 l
509.383 656.117 l
512.11 649.672 l
514.837 643.837 l
517.564 638.699 l
520.291 634.287 l
521.655 632.371 l
523.018 630.658 l
524.382 629.148 l
525.746 627.856 l
527.109 626.768 l
528.473 625.897 l
529.836 625.229 l
531.2 624.794 l
532.563 624.576 l
533.927 624.576 l
535.29 624.794 l
536.654 625.229 l
538.018 625.897 l
539.381 626.768 l
540.745 627.856 l
542.108 629.148 l
543.472 630.658 l
544.835 632.371 l
546.199 634.287 l
548.926 638.699 l
551.653 643.837 l
554.38 649.672 l
557.107 656.117 l
559.834 663.142 l
562.561 670.646 l
566.652 682.65 l
572.106 699.632 l
584.378 738.547 l
588.469 750.681 l
589.832 754.542 l
590.514 757.387 l
591.196 758.301 l
593.923 765.443 l
596.65 772.047 l
599.377 778.042 l
602.104 783.354 l
604.831 787.955 l
607.559 791.773 l
608.922 793.384 l
610.286 794.792 l
611.649 795.996 l
613.013 796.969 l
614.376 797.738 l
615.74 798.29 l
617.103 798.609 l
618.467 798.725 l
619.83 798.609 l
621.194 798.29 l
622.558 797.738 l
623.921 796.969 l
625.285 795.996 l
626.648 794.792 l
628.012 793.384 l
629.375 791.773 l
630.057 790.002 l
630.739 789.958 l
632.102 787.955 l
634.83 783.354 l
637.557 778.042 l
640.284 772.047 l
641.647 768.825 l
643.011 764.935 l
643.011 765.443 l
645.738 758.301 l
649.829 746.718 l
653.919 734.352 l
660.737 712.725 l
668.918 686.816 l
673.009 674.551 l
677.1 663.142 l
679.827 656.117 l
682.554 649.672 l
685.281 643.837 l
688.008 638.699 l
690.735 634.287 l
692.099 632.371 l
693.462 630.658 l
694.826 629.148 l
696.189 627.856 l
697.553 626.768 l
698.916 625.897 l
700.28 625.229 l
701.643 624.794 l
703.007 624.576 l
704.371 624.576 l
705.734 624.794 l
707.098 625.229 l
708.461 625.897 l
709.825 626.768 l
711.188 627.856 l
712.552 629.148 l
713.915 630.658 l
715.279 632.371 l
716.642 634.287 l
719.37 638.699 l
722.097 643.837 l
724.824 649.672 l
727.551 656.117 l
730.278 663.142 l
733.005 670.646 l
737.096 682.65 l
742.55 699.632 l
754.822 738.547 l
758.912 750.681 l
761.64 758.301 l
764.367 765.443 l
765.73 769.695 l
765.73 768.825 l
768.457 775.124 l
771.184 780.785 l
773.912 785.749 l
776.639 789.958 l
778.002 791.773 l
779.366 793.384 l
780.729 794.792 l
781.411 795.822 l
782.093 795.996 l
783.456 796.969 l
784.82 797.738 l
786.183 798.29 l
787.547 798.609 l
788.911 798.725 l
788.911 798.725 l
stroke
grestore
0.400 setgray
gsave
681.8 188.7 107.1 624.5 clipbox
107.136 653.577 m
161.678 668.092 l
163.042 668.585 l
163.042 668.454 l
164.405 668.904 l
164.405 668.817 l
225.765 685.147 l
225.765 685.321 l
227.128 685.509 l
407.117 733.408 l
407.799 733.728 l
408.48 733.771 l
409.844 734.134 l
411.207 734.642 l
411.207 734.497 l
476.658 751.915 l
478.021 752.394 l
478.021 752.278 l
629.375 792.556 l
630.057 792.905 l
630.739 792.919 l
652.556 798.725 l
788.911 798.725 l
788.911 798.725 l
stroke
grestore
0.500 setlinewidth
0 setlinecap
[1 3] 0 setdash
0.000 setgray
gsave
681.8 188.7 107.1 624.5 clipbox
229.855 624.547 m
229.855 813.24 l
stroke
grestore
[] 0 setdash
gsave
/o {
gsave
newpath
translate
0.5 setlinewidth
1 setlinejoin
0 setlinecap
0 0 m
0 4 l
gsave
0.000 setgray
fill
grestore
stroke
grestore
} bind def
229.855 624.547 o
grestore
gsave
/o {
gsave
newpath
translate
0.5 setlinewidth
1 setlinejoin
0 setlinecap
0 0 m
0 -4 l
gsave
0.000 setgray
fill
grestore
stroke
grestore
} bind def
229.855 813.24 o
grestore
[1 3] 0 setdash
gsave
681.8 188.7 107.1 624.5 clipbox
434.388 624.547 m
434.388 813.24 l
stroke
grestore
[] 0 setdash
gsave
/o {
gsave
newpath
translate
0.5 setlinewidth
1 setlinejoin
0 setlinecap
0 0 m
0 4 l
gsave
0.000 setgray
fill
grestore
stroke
grestore
} bind def
434.388 624.547 o
grestore
gsave
/o {
gsave
newpath
translate
0.5 setlinewidth
1 setlinejoin
0 setlinecap
0 0 m
0 -4 l
gsave
0.000 setgray
fill
grestore
stroke
grestore
} bind def
434.388 813.24 o
grestore
[1 3] 0 setdash
gsave
681.8 188.7 107.1 624.5 clipbox
638.92 624.547 m
638.92 813.24 l
stroke
grestore
[] 0 setdash
gsave
/o {
gsave
newpath
translate
0.5 setlinewidth
1 setlinejoin
0 setlinecap
0 0 m
0 4 l
gsave
0.000 setgray
fill
grestore
stroke
grestore
} bind def
638.92 624.547 o
grestore
gsave
/o {
gsave
newpath
translate
0.5 setlinewidth
1 setlinejoin
0 setlinecap
0 0 m
0 -4 l
gsave
0.000 setgray
fill
grestore
stroke
grestore
} bind def
638.92 813.24 o
grestore
[1 3] 0 setdash
gsave
681.8 188.7 107.1 624.5 clipbox
107.136 624.547 m
788.911 624.547 l
stroke
grestore
[] 0 setdash
gsave
/o {
gsave
newpath
translate
0.5 setlinewidth
1 setlinejoin
0 setlinecap
0 0 m
4 0 l
gsave
0.000 setgray
fill
grestore
stroke
grestore
} bind def
107.136 624.547 o
grestore
gsave
/o {
gsave
newpath
translate
0.5 setlinewidth
1 setlinejoin
0 setlinecap
0 0 m
-4 0 l
gsave
0.000 setgray
fill
grestore
stroke
grestore
} bind def
788.911 624.547 o
grestore
/b'BitstreamVeraSerif-Roman' findfont
10.000 scalefont
setfont
gsave
98.089125 621.789246 translate
0.000000 rotate
0.000000 0.000000 m /zero glyphshow
grestore
[1 3] 0 setdash
gsave
681.8 188.7 107.1 624.5 clipbox
107.136 653.577 m
788.911 653.577 l
stroke
grestore
[] 0 setdash
gsave
/o {
gsave
newpath
translate
0.5 setlinewidth
1 setlinejoin
0 setlinecap
0 0 m
4 0 l
gsave
0.000 setgray
fill
grestore
stroke
grestore
} bind def
107.136 653.577 o
grestore
gsave
/o {
gsave
newpath
translate
0.5 setlinewidth
1 setlinejoin
0 setlinecap
0 0 m
-4 0 l
gsave
0.000 setgray
fill
grestore
stroke
grestore
} bind def
788.911 653.577 o
grestore
gsave
91.761000 650.818930 translate
0.000000 rotate
0.000000 0.000000 m /two glyphshow
6.362305 0.000000 m /zero glyphshow
grestore
[1 3] 0 setdash
gsave
681.8 188.7 107.1 624.5 clipbox
107.136 682.606 m
788.911 682.606 l
stroke
grestore
[] 0 setdash
gsave
/o {
gsave
newpath
translate
0.5 setlinewidth
1 setlinejoin
0 setlinecap
0 0 m
4 0 l
gsave
0.000 setgray
fill
grestore
stroke
grestore
} bind def
107.136 682.606 o
grestore
gsave
/o {
gsave
newpath
translate
0.5 setlinewidth
1 setlinejoin
0 setlinecap
0 0 m
-4 0 l
gsave
0.000 setgray
fill
grestore
stroke
grestore
} bind def
788.911 682.606 o
grestore
gsave
91.386000 679.848613 translate
0.000000 rotate
0.000000 0.000000 m /four glyphshow
6.362305 0.000000 m /zero glyphshow
grestore
[1 3] 0 setdash
gsave
681.8 188.7 107.1 624.5 clipbox
107.136 711.636 m
788.911 711.636 l
stroke
grestore
[] 0 setdash
gsave
/o {
gsave
newpath
translate
0.5 setlinewidth
1 setlinejoin
0 setlinecap
0 0 m
4 0 l
gsave
0.000 setgray
fill
grestore
stroke
grestore
} bind def
107.136 711.636 o
grestore
gsave
/o {
gsave
newpath
translate
0.5 setlinewidth
1 setlinejoin
0 setlinecap
0 0 m
-4 0 l
gsave
0.000 setgray
fill
grestore
stroke
grestore
} bind def
788.911 711.636 o
grestore
gsave
91.745375 708.878296 translate
0.000000 rotate
0.000000 0.000000 m /six glyphshow
6.362305 0.000000 m /zero glyphshow
grestore
[1 3] 0 setdash
gsave
681.8 188.7 107.1 624.5 clipbox
107.136 740.666 m
788.911 740.666 l
stroke
grestore
[] 0 setdash
gsave
/o {
gsave
newpath
translate
0.5 setlinewidth
1 setlinejoin
0 setlinecap
0 0 m
4 0 l
gsave
0.000 setgray
fill
grestore
stroke
grestore
} bind def
107.136 740.666 o
grestore
gsave
/o {
gsave
newpath
translate
0.5 setlinewidth
1 setlinejoin
0 setlinecap
0 0 m
-4 0 l
gsave
0.000 setgray
fill
grestore
stroke
grestore
} bind def
788.911 740.666 o
grestore
gsave
91.745375 737.907979 translate
0.000000 rotate
0.000000 0.000000 m /eight glyphshow
6.362305 0.000000 m /zero glyphshow
grestore
[1 3] 0 setdash
gsave
681.8 188.7 107.1 624.5 clipbox
107.136 769.695 m
788.911 769.695 l
stroke
grestore
[] 0 setdash
gsave
/o {
gsave
newpath
translate
0.5 setlinewidth
1 setlinejoin
0 setlinecap
0 0 m
4 0 l
gsave
0.000 setgray
fill
grestore
stroke
grestore
} bind def
107.136 769.695 o
grestore
gsave
/o {
gsave
newpath
translate
0.5 setlinewidth
1 setlinejoin
0 setlinecap
0 0 m
-4 0 l
gsave
0.000 setgray
fill
grestore
stroke
grestore
} bind def
788.911 769.695 o
grestore
gsave
85.932875 766.937663 translate
0.000000 rotate
0.000000 0.000000 m /one glyphshow
6.362305 0.000000 m /zero glyphshow
12.724609 0.000000 m /zero glyphshow
grestore
[1 3] 0 setdash
gsave
681.8 188.7 107.1 624.5 clipbox
107.136 798.725 m
788.911 798.725 l
stroke
grestore
[] 0 setdash
gsave
/o {
gsave
newpath
translate
0.5 setlinewidth
1 setlinejoin
0 setlinecap
0 0 m
4 0 l
gsave
0.000 setgray
fill
grestore
stroke
grestore
} bind def
107.136 798.725 o
grestore
gsave
/o {
gsave
newpath
translate
0.5 setlinewidth
1 setlinejoin
0 setlinecap
0 0 m
-4 0 l
gsave
0.000 setgray
fill
grestore
stroke
grestore
} bind def
788.911 798.725 o
grestore
gsave
85.932875 795.967346 translate
0.000000 rotate
0.000000 0.000000 m /one glyphshow
6.362305 0.000000 m /two glyphshow
12.724609 0.000000 m /zero glyphshow
grestore
/b'BitstreamVeraSerif-Roman' findfont
13.000 scalefont
setfont
gsave
78.229750 711.674779 translate
90.000000 rotate
0.000000 0.000000 m /degree glyphshow
6.500000 0.000000 m /C glyphshow
grestore
1.000 setlinewidth
gsave
788.911 624.547 m
788.911 813.24 l
stroke
grestore
gsave
107.136 624.547 m
107.136 813.24 l
stroke
grestore
gsave
107.136 624.547 m
788.911 624.547 l
stroke
grestore
gsave
107.136 813.24 m
788.911 813.24 l
stroke
grestore
gsave
735.707 629.547 m
783.911 629.547 l
783.911 658.891 l
735.707 658.891 l
735.707 629.547 l
cl
gsave
1.000 setgray
fill
grestore
stroke
grestore
2.000 setlinewidth
2 setlinecap
0.498 0.788 0.498 setrgbcolor
gsave
742.707 650.797 m
756.707 650.797 l
stroke
grestore
0.000 setgray
/b'BitstreamVeraSerif-Roman' findfont
10.000 scalefont
setfont
gsave
767.707420 647.297059 translate
0.000000 rotate
0.000000 0.000000 m /T glyphshow
6.669922 0.000000 m /one glyphshow
grestore
0.400 setgray
gsave
742.707 639.125 m
756.707 639.125 l
stroke
grestore
0.000 setgray
gsave
767.707420 635.625184 translate
0.000000 rotate
0.000000 0.000000 m /T glyphshow
6.669922 0.000000 m /three glyphshow
grestore
gsave
107.136 398.116 m
788.911 398.116 l
788.911 586.808 l
107.136 586.808 l
cl
1.000 setgray
fill
grestore
0.498 0.788 0.498 setrgbcolor
gsave
681.8 188.7 107.1 398.1 clipbox
107.136 425.483 m
161.678 439.887 l
163.042 440.377 l
163.042 440.247 l
164.405 443.575 l
164.405 440.607 l
165.769 443.848 l
225.765 459.693 l
225.765 456.985 l
227.128 457.172 l
322.577 482.379 l
323.259 485.505 l
323.94 485.62 l
407.117 507.586 l
407.799 505.022 l
408.48 505.066 l
409.844 505.426 l
411.207 505.93 l
411.207 505.786 l
476.658 523.071 l
478.021 523.546 l
478.021 523.431 l
482.112 524.511 l
483.476 527.853 l
483.476 524.871 l
484.839 528.112 l
589.832 555.84 l
590.514 553.233 l
591.196 553.319 l
629.375 563.402 l
630.057 563.748 l
630.739 563.762 l
641.647 566.643 l
643.011 569.941 l
643.011 567.003 l
644.374 570.244 l
652.556 572.404 l
764.367 572.404 l
765.73 569.524 l
765.73 572.404 l
767.094 569.524 l
788.911 569.524 l
788.911 569.524 l
stroke
grestore
0.599 0.704 0.646 setrgbcolor
gsave
681.8 188.7 107.1 398.1 clipbox
107.136 432.685 m
146.679 440.521 l
160.314 443.215 l
163.042 443.863 l
163.042 443.762 l
164.405 446.974 l
164.405 444.036 l
165.769 447.176 l
208.039 455.559 l
221.674 458.252 l
225.765 459.059 l
225.765 456.308 l
227.128 456.452 l
266.671 464.288 l
280.307 466.981 l
321.213 475.134 l
321.213 475.091 l
322.577 475.35 l
323.259 478.418 l
325.304 478.778 l
364.847 486.614 l
378.482 489.308 l
407.117 494.983 l
407.799 492.347 l
408.48 492.376 l
409.844 492.635 l
411.207 493.009 l
411.207 492.909 l
452.114 501.018 l
465.749 503.712 l
482.112 506.952 l
483.476 510.179 l
483.476 507.226 l
484.839 510.381 l
498.475 513.074 l
539.381 521.184 l
553.017 523.877 l
589.832 531.18 l
590.514 528.501 l
591.196 528.559 l
633.466 536.942 l
641.647 538.555 l
643.011 541.753 l
643.011 538.829 l
644.374 541.983 l
652.556 543.596 l
764.367 543.596 l
765.73 540.716 l
765.73 543.596 l
767.094 540.716 l
788.911 540.716 l
788.911 540.716 l
stroke
grestore
0.400 setgray
gsave
681.8 188.7 107.1 398.1 clipbox
107.136 439.887 m
163.042 439.887 l
163.042 439.887 l
164.405 442.768 l
164.405 439.887 l
165.769 442.768 l
225.765 442.768 l
225.765 439.887 l
322.577 439.887 l
323.259 442.768 l
407.117 442.768 l
407.799 439.887 l
482.112 439.887 l
483.476 442.768 l
483.476 439.887 l
484.839 442.768 l
589.832 442.768 l
590.514 439.887 l
641.647 439.887 l
643.011 442.768 l
643.011 439.887 l
644.374 442.768 l
764.367 442.768 l
765.73 439.887 l
765.73 442.768 l
767.094 439.887 l
788.911 439.887 l
788.911 439.887 l
stroke
grestore
0.500 setlinewidth
0 setlinecap
[1 3] 0 setdash
0.000 setgray
gsave
681.8 188.7 107.1 398.1 clipbox
229.855 398.116 m
229.855 586.808 l
stroke
grestore
[] 0 setdash
gsave
/o {
gsave
newpath
translate
0.5 setlinewidth
1 setlinejoin
0 setlinecap
0 0 m
0 4 l
gsave
0.000 setgray
fill
grestore
stroke
grestore
} bind def
229.855 398.116 o
grestore
gsave
/o {
gsave
newpath
translate
0.5 setlinewidth
1 setlinejoin
0 setlinecap
0 0 m
0 -4 l
gsave
0.000 setgray
fill
grestore
stroke
grestore
} bind def
229.855 586.808 o
grestore
[1 3] 0 setdash
gsave
681.8 188.7 107.1 398.1 clipbox
434.388 398.116 m
434.388 586.808 l
stroke
grestore
[] 0 setdash
gsave
/o {
gsave
newpath
translate
0.5 setlinewidth
1 setlinejoin
0 setlinecap
0 0 m
0 4 l
gsave
0.000 setgray
fill
grestore
stroke
grestore
} bind def
434.388 398.116 o
grestore
gsave
/o {
gsave
newpath
translate
0.5 setlinewidth
1 setlinejoin
0 setlinecap
0 0 m
0 -4 l
gsave
0.000 setgray
fill
grestore
stroke
grestore
} bind def
434.388 586.808 o
grestore
[1 3] 0 setdash
gsave
681.8 188.7 107.1 398.1 clipbox
638.92 398.116 m
638.92 586.808 l
stroke
grestore
[] 0 setdash
gsave
/o {
gsave
newpath
translate
0.5 setlinewidth
1 setlinejoin
0 setlinecap
0 0 m
0 4 l
gsave
0.000 setgray
fill
grestore
stroke
grestore
} bind def
638.92 398.116 o
grestore
gsave
/o {
gsave
newpath
translate
0.5 setlinewidth
1 setlinejoin
0 setlinecap
0 0 m
0 -4 l
gsave
0.000 setgray
fill
grestore
stroke
grestore
} bind def
638.92 586.808 o
grestore
[1 3] 0 setdash
gsave
681.8 188.7 107.1 398.1 clipbox
107.136 399.556 m
788.911 399.556 l
stroke
grestore
[] 0 setdash
gsave
/o {
gsave
newpath
translate
0.5 setlinewidth
1 setlinejoin
0 setlinecap
0 0 m
4 0 l
gsave
0.000 setgray
fill
grestore
stroke
grestore
} bind def
107.136 399.556 o
grestore
gsave
/o {
gsave
newpath
translate
0.5 setlinewidth
1 setlinejoin
0 setlinecap
0 0 m
-4 0 l
gsave
0.000 setgray
fill
grestore
stroke
grestore
} bind def
788.911 399.556 o
grestore
gsave
98.089125 396.798121 translate
0.000000 rotate
0.000000 0.000000 m /zero glyphshow
grestore
[1 3] 0 setdash
gsave
681.8 188.7 107.1 398.1 clipbox
107.136 428.364 m
788.911 428.364 l
stroke
grestore
[] 0 setdash
gsave
/o {
gsave
newpath
translate
0.5 setlinewidth
1 setlinejoin
0 setlinecap
0 0 m
4 0 l
gsave
0.000 setgray
fill
grestore
stroke
grestore
} bind def
107.136 428.364 o
grestore
gsave
/o {
gsave
newpath
translate
0.5 setlinewidth
1 setlinejoin
0 setlinecap
0 0 m
-4 0 l
gsave
0.000 setgray
fill
grestore
stroke
grestore
} bind def
788.911 428.364 o
grestore
gsave
91.761000 425.606204 translate
0.000000 rotate
0.000000 0.000000 m /two glyphshow
6.362305 0.000000 m /zero glyphshow
grestore
[1 3] 0 setdash
gsave
681.8 188.7 107.1 398.1 clipbox
107.136 457.172 m
788.911 457.172 l
stroke
grestore
[] 0 setdash
gsave
/o {
gsave
newpath
translate
0.5 setlinewidth
1 setlinejoin
0 setlinecap
0 0 m
4 0 l
gsave
0.000 setgray
fill
grestore
stroke
grestore
} bind def
107.136 457.172 o
grestore
gsave
/o {
gsave
newpath
translate
0.5 setlinewidth
1 setlinejoin
0 setlinecap
0 0 m
-4 0 l
gsave
0.000 setgray
fill
grestore
stroke
grestore
} bind def
788.911 457.172 o
grestore
gsave
91.386000 454.414286 translate
0.000000 rotate
0.000000 0.000000 m /four glyphshow
6.362305 0.000000 m /zero glyphshow
grestore
[1 3] 0 setdash
gsave
681.8 188.7 107.1 398.1 clipbox
107.136 485.98 m
788.911 485.98 l
stroke
grestore
[] 0 setdash
gsave
/o {
gsave
newpath
translate
0.5 setlinewidth
1 setlinejoin
0 setlinecap
0 0 m
4 0 l
gsave
0.000 setgray
fill
grestore
stroke
grestore
} bind def
107.136 485.98 o
grestore
gsave
/o {
gsave
newpath
translate
0.5 setlinewidth
1 setlinejoin
0 setlinecap
0 0 m
-4 0 l
gsave
0.000 setgray
fill
grestore
stroke
grestore
} bind def
788.911 485.98 o
grestore
gsave
91.745375 483.222369 translate
0.000000 rotate
0.000000 0.000000 m /six glyphshow
6.362305 0.000000 m /zero glyphshow
grestore
[1 3] 0 setdash
gsave
681.8 188.7 107.1 398.1 clipbox
107.136 514.788 m
788.911 514.788 l
stroke
grestore
[] 0 setdash
gsave
/o {
gsave
newpath
translate
0.5 setlinewidth
1 setlinejoin
0 setlinecap
0 0 m
4 0 l
gsave
0.000 setgray
fill
grestore
stroke
grestore
} bind def
107.136 514.788 o
grestore
gsave
/o {
gsave
newpath
translate
0.5 setlinewidth
1 setlinejoin
0 setlinecap
0 0 m
-4 0 l
gsave
0.000 setgray
fill
grestore
stroke
grestore
} bind def
788.911 514.788 o
grestore
gsave
91.745375 512.030452 translate
0.000000 rotate
0.000000 0.000000 m /eight glyphshow
6.362305 0.000000 m /zero glyphshow
grestore
[1 3] 0 setdash
gsave
681.8 188.7 107.1 398.1 clipbox
107.136 543.596 m
788.911 543.596 l
stroke
grestore
[] 0 setdash
gsave
/o {
gsave
newpath
translate
0.5 setlinewidth
1 setlinejoin
0 setlinecap
0 0 m
4 0 l
gsave
0.000 setgray
fill
grestore
stroke
grestore
} bind def
107.136 543.596 o
grestore
gsave
/o {
gsave
newpath
translate
0.5 setlinewidth
1 setlinejoin
0 setlinecap
0 0 m
-4 0 l
gsave
0.000 setgray
fill
grestore
stroke
grestore
} bind def
788.911 543.596 o
grestore
gsave
85.932875 540.838534 translate
0.000000 rotate
0.000000 0.000000 m /one glyphshow
6.362305 0.000000 m /zero glyphshow
12.724609 0.000000 m /zero glyphshow
grestore
[1 3] 0 setdash
gsave
681.8 188.7 107.1 398.1 clipbox
107.136 572.404 m
788.911 572.404 l
stroke
grestore
[] 0 setdash
gsave
/o {
gsave
newpath
translate
0.5 setlinewidth
1 setlinejoin
0 setlinecap
0 0 m
4 0 l
gsave
0.000 setgray
fill
grestore
stroke
grestore
} bind def
107.136 572.404 o
grestore
gsave
/o {
gsave
newpath
translate
0.5 setlinewidth
1 setlinejoin
0 setlinecap
0 0 m
-4 0 l
gsave
0.000 setgray
fill
grestore
stroke
grestore
} bind def
788.911 572.404 o
grestore
gsave
85.932875 569.646617 translate
0.000000 rotate
0.000000 0.000000 m /one glyphshow
6.362305 0.000000 m /two glyphshow
12.724609 0.000000 m /zero glyphshow
grestore
/b'BitstreamVeraSerif-Roman' findfont
13.000 scalefont
setfont
gsave
78.229750 485.243250 translate
90.000000 rotate
0.000000 0.000000 m /degree glyphshow
6.500000 0.000000 m /C glyphshow
grestore
1.000 setlinewidth
gsave
788.911 398.116 m
788.911 586.808 l
stroke
grestore
gsave
107.136 398.116 m
107.136 586.808 l
stroke
grestore
gsave
107.136 398.116 m
788.911 398.116 l
stroke
grestore
gsave
107.136 586.808 m
788.911 586.808 l
stroke
grestore
gsave
112.136 540.793 m
197.448 540.793 l
197.448 581.808 l
112.136 581.808 l
112.136 540.793 l
cl
gsave
1.000 setgray
fill
grestore
stroke
grestore
2.000 setlinewidth
2 setlinecap
0.498 0.788 0.498 setrgbcolor
gsave
119.136 573.715 m
133.136 573.715 l
stroke
grestore
0.000 setgray
/b'BitstreamVeraSerif-Roman' findfont
10.000 scalefont
setfont
gsave
144.136000 570.214721 translate
0.000000 rotate
0.000000 0.000000 m /c glyphshow
5.600586 0.000000 m /o glyphshow
11.621094 0.000000 m /m glyphshow
21.103516 0.000000 m /p glyphshow
27.504883 0.000000 m /a glyphshow
33.466797 0.000000 m /r glyphshow
38.247070 0.000000 m /e glyphshow
44.165039 0.000000 m /one glyphshow
grestore
0.599 0.704 0.646 setrgbcolor
gsave
119.136 562.043 m
133.136 562.043 l
stroke
grestore
0.000 setgray
gsave
144.136000 558.542846 translate
0.000000 rotate
0.000000 0.000000 m /c glyphshow
5.600586 0.000000 m /o glyphshow
11.621094 0.000000 m /m glyphshow
21.103516 0.000000 m /p glyphshow
27.504883 0.000000 m /a glyphshow
33.466797 0.000000 m /r glyphshow
38.247070 0.000000 m /e glyphshow
44.165039 0.000000 m /two glyphshow
grestore
0.400 setgray
gsave
119.136 550.371 m
133.136 550.371 l
stroke
grestore
0.000 setgray
gsave
144.136000 546.870971 translate
0.000000 rotate
0.000000 0.000000 m /c glyphshow
5.600586 0.000000 m /o glyphshow
11.621094 0.000000 m /m glyphshow
21.103516 0.000000 m /p glyphshow
27.504883 0.000000 m /a glyphshow
33.466797 0.000000 m /r glyphshow
38.247070 0.000000 m /e glyphshow
44.165039 0.000000 m /three glyphshow
grestore
gsave
107.136 171.684 m
788.911 171.684 l
788.911 360.377 l
107.136 360.377 l
cl
1.000 setgray
fill
grestore
0.498 0.788 0.498 setrgbcolor
gsave
681.8 188.7 107.1 171.7 clipbox
107.136 317.165 m
163.042 317.165 l
163.042 317.165 l
164.405 173.124 l
164.405 317.165 l
165.769 173.124 l
225.765 173.124 l
225.765 317.165 l
319.85 317.165 l
321.213 173.124 l
321.213 317.165 l
322.577 173.124 l
409.844 173.124 l
411.207 317.165 l
411.207 173.124 l
412.571 317.165 l
476.658 317.165 l
478.021 173.124 l
478.021 317.165 l
479.385 173.124 l
600.741 173.124 l
601.423 317.165 l
629.375 317.165 l
630.057 173.124 l
780.729 173.124 l
781.411 317.165 l
788.911 317.165 l
788.911 317.165 l
stroke
grestore
0.400 setgray
gsave
681.8 188.7 107.1 171.7 clipbox
107.136 173.124 m
149.406 173.124 l
150.77 317.165 l
161.678 317.165 l
163.042 173.124 l
163.042 317.165 l
164.405 173.124 l
164.405 173.124 l
225.765 173.124 l
225.765 317.165 l
322.577 317.165 l
323.259 173.124 l
407.117 173.124 l
407.799 317.165 l
482.112 317.165 l
483.476 173.124 l
483.476 317.165 l
484.839 173.124 l
589.832 173.124 l
590.514 317.165 l
641.647 317.165 l
643.011 173.124 l
643.011 317.165 l
644.374 173.124 l
764.367 173.124 l
765.73 317.165 l
765.73 173.124 l
767.094 317.165 l
788.911 317.165 l
788.911 317.165 l
stroke
grestore
0.500 setlinewidth
0 setlinecap
[1 3] 0 setdash
0.000 setgray
gsave
681.8 188.7 107.1 171.7 clipbox
229.855 171.684 m
229.855 360.377 l
stroke
grestore
[] 0 setdash
gsave
/o {
gsave
newpath
translate
0.5 setlinewidth
1 setlinejoin
0 setlinecap
0 0 m
0 4 l
gsave
0.000 setgray
fill
grestore
stroke
grestore
} bind def
229.855 171.684 o
grestore
gsave
/o {
gsave
newpath
translate
0.5 setlinewidth
1 setlinejoin
0 setlinecap
0 0 m
0 -4 l
gsave
0.000 setgray
fill
grestore
stroke
grestore
} bind def
229.855 360.377 o
grestore
gsave
205.000662 147.357620 translate
30.000000 rotate
0.000000 0.000000 m /zero glyphshow
6.362305 0.000000 m /three glyphshow
12.724609 0.000000 m /colon glyphshow
16.093750 0.000000 m /zero glyphshow
22.456055 0.000000 m /zero glyphshow
grestore
[1 3] 0 setdash
gsave
681.8 188.7 107.1 171.7 clipbox
434.388 171.684 m
434.388 360.377 l
stroke
grestore
[] 0 setdash
gsave
/o {
gsave
newpath
translate
0.5 setlinewidth
1 setlinejoin
0 setlinecap
0 0 m
0 4 l
gsave
0.000 setgray
fill
grestore
stroke
grestore
} bind def
434.388 171.684 o
grestore
gsave
/o {
gsave
newpath
translate
0.5 setlinewidth
1 setlinejoin
0 setlinecap
0 0 m
0 -4 l
gsave
0.000 setgray
fill
grestore
stroke
grestore
} bind def
434.388 360.377 o
grestore
gsave
409.533026 147.357620 translate
30.000000 rotate
0.000000 0.000000 m /zero glyphshow
6.362305 0.000000 m /eight glyphshow
12.724609 0.000000 m /colon glyphshow
16.093750 0.000000 m /zero glyphshow
22.456055 0.000000 m /zero glyphshow
grestore
[1 3] 0 setdash
gsave
681.8 188.7 107.1 171.7 clipbox
638.92 171.684 m
638.92 360.377 l
stroke
grestore
[] 0 setdash
gsave
/o {
gsave
newpath
translate
0.5 setlinewidth
1 setlinejoin
0 setlinecap
0 0 m
0 4 l
gsave
0.000 setgray
fill
grestore
stroke
grestore
} bind def
638.92 171.684 o
grestore
gsave
/o {
gsave
newpath
translate
0.5 setlinewidth
1 setlinejoin
0 setlinecap
0 0 m
0 -4 l
gsave
0.000 setgray
fill
grestore
stroke
grestore
} bind def
638.92 360.377 o
grestore
gsave
614.552537 147.638870 translate
30.000000 rotate
0.000000 0.000000 m /one glyphshow
6.362305 0.000000 m /three glyphshow
12.724609 0.000000 m /colon glyphshow
16.093750 0.000000 m /zero glyphshow
22.456055 0.000000 m /zero glyphshow
grestore
[1 3] 0 setdash
gsave
681.8 188.7 107.1 171.7 clipbox
107.136 173.124 m
788.911 173.124 l
stroke
grestore
[] 0 setdash
gsave
/o {
gsave
newpath
translate
0.5 setlinewidth
1 setlinejoin
0 setlinecap
0 0 m
4 0 l
gsave
0.000 setgray
fill
grestore
stroke
grestore
} bind def
107.136 173.124 o
grestore
gsave
/o {
gsave
newpath
translate
0.5 setlinewidth
1 setlinejoin
0 setlinecap
0 0 m
-4 0 l
gsave
0.000 setgray
fill
grestore
stroke
grestore
} bind def
788.911 173.124 o
grestore
gsave
98.089125 170.366592 translate
0.000000 rotate
0.000000 0.000000 m /zero glyphshow
grestore
[1 3] 0 setdash
gsave
681.8 188.7 107.1 171.7 clipbox
107.136 201.932 m
788.911 201.932 l
stroke
grestore
[] 0 setdash
gsave
/o {
gsave
newpath
translate
0.5 setlinewidth
1 setlinejoin
0 setlinecap
0 0 m
4 0 l
gsave
0.000 setgray
fill
grestore
stroke
grestore
} bind def
107.136 201.932 o
grestore
gsave
/o {
gsave
newpath
translate
0.5 setlinewidth
1 setlinejoin
0 setlinecap
0 0 m
-4 0 l
gsave
0.000 setgray
fill
grestore
stroke
grestore
} bind def
788.911 201.932 o
grestore
gsave
91.761000 199.174674 translate
0.000000 rotate
0.000000 0.000000 m /two glyphshow
6.362305 0.000000 m /zero glyphshow
grestore
[1 3] 0 setdash
gsave
681.8 188.7 107.1 171.7 clipbox
107.136 230.741 m
788.911 230.741 l
stroke
grestore
[] 0 setdash
gsave
/o {
gsave
newpath
translate
0.5 setlinewidth
1 setlinejoin
0 setlinecap
0 0 m
4 0 l
gsave
0.000 setgray
fill
grestore
stroke
grestore
} bind def
107.136 230.741 o
grestore
gsave
/o {
gsave
newpath
translate
0.5 setlinewidth
1 setlinejoin
0 setlinecap
0 0 m
-4 0 l
gsave
0.000 setgray
fill
grestore
stroke
grestore
} bind def
788.911 230.741 o
grestore
gsave
91.386000 227.982757 translate
0.000000 rotate
0.000000 0.000000 m /four glyphshow
6.362305 0.000000 m /zero glyphshow
grestore
[1 3] 0 setdash
gsave
681.8 188.7 107.1 171.7 clipbox
107.136 259.549 m
788.911 259.549 l
stroke
grestore
[] 0 setdash
gsave
/o {
gsave
newpath
translate
0.5 setlinewidth
1 setlinejoin
0 setlinecap
0 0 m
4 0 l
gsave
0.000 setgray
fill
grestore
stroke
grestore
} bind def
107.136 259.549 o
grestore
gsave
/o {
gsave
newpath
translate
0.5 setlinewidth
1 setlinejoin
0 setlinecap
0 0 m
-4 0 l
gsave
0.000 setgray
fill
grestore
stroke
grestore
} bind def
788.911 259.549 o
grestore
gsave
91.745375 256.790839 translate
0.000000 rotate
0.000000 0.000000 m /six glyphshow
6.362305 0.000000 m /zero glyphshow
grestore
[1 3] 0 setdash
gsave
681.8 188.7 107.1 171.7 clipbox
107.136 288.357 m
788.911 288.357 l
stroke
grestore
[] 0 setdash
gsave
/o {
gsave
newpath
translate
0.5 setlinewidth
1 setlinejoin
0 setlinecap
0 0 m
4 0 l
gsave
0.000 setgray
fill
grestore
stroke
grestore
} bind def
107.136 288.357 o
grestore
gsave
/o {
gsave
newpath
translate
0.5 setlinewidth
1 setlinejoin
0 setlinecap
0 0 m
-4 0 l
gsave
0.000 setgray
fill
grestore
stroke
grestore
} bind def
788.911 288.357 o
grestore
gsave
91.745375 285.598922 translate
0.000000 rotate
0.000000 0.000000 m /eight glyphshow
6.362305 0.000000 m /zero glyphshow
grestore
[1 3] 0 setdash
gsave
681.8 188.7 107.1 171.7 clipbox
107.136 317.165 m
788.911 317.165 l
stroke
grestore
[] 0 setdash
gsave
/o {
gsave
newpath
translate
0.5 setlinewidth
1 setlinejoin
0 setlinecap
0 0 m
4 0 l
gsave
0.000 setgray
fill
grestore
stroke
grestore
} bind def
107.136 317.165 o
grestore
gsave
/o {
gsave
newpath
translate
0.5 setlinewidth
1 setlinejoin
0 setlinecap
0 0 m
-4 0 l
gsave
0.000 setgray
fill
grestore
stroke
grestore
} bind def
788.911 317.165 o
grestore
gsave
85.932875 314.407005 translate
0.000000 rotate
0.000000 0.000000 m /one glyphshow
6.362305 0.000000 m /zero glyphshow
12.724609 0.000000 m /zero glyphshow
grestore
[1 3] 0 setdash
gsave
681.8 188.7 107.1 171.7 clipbox
107.136 345.973 m
788.911 345.973 l
stroke
grestore
[] 0 setdash
gsave
/o {
gsave
newpath
translate
0.5 setlinewidth
1 setlinejoin
0 setlinecap
0 0 m
4 0 l
gsave
0.000 setgray
fill
grestore
stroke
grestore
} bind def
107.136 345.973 o
grestore
gsave
/o {
gsave
newpath
translate
0.5 setlinewidth
1 setlinejoin
0 setlinecap
0 0 m
-4 0 l
gsave
0.000 setgray
fill
grestore
stroke
grestore
} bind def
788.911 345.973 o
grestore
gsave
85.932875 343.215087 translate
0.000000 rotate
0.000000 0.000000 m /one glyphshow
6.362305 0.000000 m /two glyphshow
12.724609 0.000000 m /zero glyphshow
grestore
1.000 setlinewidth
gsave
788.911 171.684 m
788.911 360.377 l
stroke
grestore
gsave
107.136 171.684 m
107.136 360.377 l
stroke
grestore
gsave
107.136 171.684 m
788.911 171.684 l
stroke
grestore
gsave
107.136 360.377 m
788.911 360.377 l
stroke
grestore
gsave
697.911 325.471 m
783.911 325.471 l
783.911 355.377 l
697.911 355.377 l
697.911 325.471 l
cl
gsave
1.000 setgray
fill
grestore
stroke
grestore
2.000 setlinewidth
2 setlinecap
0.498 0.788 0.498 setrgbcolor
gsave
704.911 347.283 m
718.911 347.283 l
stroke
grestore
0.000 setgray
gsave
729.910545 343.783191 translate
0.000000 rotate
0.000000 0.000000 m /O glyphshow
8.198242 0.000000 m /n glyphshow
14.638672 0.000000 m /one glyphshow
21.000977 0.000000 m /underscore glyphshow
26.000977 0.000000 m /s glyphshow
31.132812 0.000000 m /t glyphshow
35.151367 0.000000 m /a glyphshow
41.113281 0.000000 m /t glyphshow
45.131836 0.000000 m /e glyphshow
grestore
0.400 setgray
gsave
704.911 335.33 m
718.911 335.33 l
stroke
grestore
0.000 setgray
gsave
729.910545 331.830066 translate
0.000000 rotate
0.000000 0.000000 m /O glyphshow
8.198242 0.000000 m /n glyphshow
14.638672 0.000000 m /two glyphshow
21.000977 0.000000 m /underscore glyphshow
26.000977 0.000000 m /s glyphshow
31.132812 0.000000 m /t glyphshow
35.151367 0.000000 m /a glyphshow
41.113281 0.000000 m /t glyphshow
45.131836 0.000000 m /e glyphshow
grestore
gsave
925.265 624.547 m
1607.04 624.547 l
1607.04 813.24 l
925.265 813.24 l
cl
1.000 setgray
fill
grestore
0.498 0.788 0.498 setrgbcolor
gsave
681.8 188.7 925.3 624.5 clipbox
925.265 660.834 m
979.807 682.897 l
981.171 683.651 l
981.171 683.448 l
982.535 684.13 l
982.535 684 l
1043.89 708.82 l
1043.89 709.081 l
1045.26 709.372 l
1225.25 782.178 l
1225.93 782.672 l
1226.61 782.73 l
1227.97 783.281 l
1229.34 784.051 l
1229.34 783.833 l
1266.15 798.725 l
1607.04 798.725 l
1607.04 798.725 l
stroke
grestore
0.400 setgray
gsave
681.8 188.7 925.3 624.5 clipbox
925.265 660.834 m
964.808 668.73 l
978.444 671.445 l
1019.35 679.616 l
1032.99 682.331 l
1073.89 690.502 l
1087.53 693.217 l
1128.43 701.389 l
1137.98 703.29 l
1141.39 704.016 l
1143.43 704.379 l
1182.98 712.275 l
1196.61 714.989 l
1237.52 723.161 l
1251.15 725.875 l
1292.06 734.047 l
1294.79 734.584 l
1296.15 734.947 l
1296.15 734.86 l
1335.69 742.756 l
1349.33 745.47 l
1390.24 753.642 l
1403.87 756.356 l
1444.78 764.528 l
1447.5 765.065 l
1448.19 765.341 l
1448.87 765.341 l
1470.69 769.695 l
1607.04 769.695 l
1607.04 769.695 l
stroke
grestore
0.500 setlinewidth
0 setlinecap
[1 3] 0 setdash
0.000 setgray
gsave
681.8 188.7 925.3 624.5 clipbox
1047.98 624.547 m
1047.98 813.24 l
stroke
grestore
[] 0 setdash
gsave
/o {
gsave
newpath
translate
0.5 setlinewidth
1 setlinejoin
0 setlinecap
0 0 m
0 4 l
gsave
0.000 setgray
fill
grestore
stroke
grestore
} bind def
1047.98 624.547 o
grestore
gsave
/o {
gsave
newpath
translate
0.5 setlinewidth
1 setlinejoin
0 setlinecap
0 0 m
0 -4 l
gsave
0.000 setgray
fill
grestore
stroke
grestore
} bind def
1047.98 813.24 o
grestore
[1 3] 0 setdash
gsave
681.8 188.7 925.3 624.5 clipbox
1252.52 624.547 m
1252.52 813.24 l
stroke
grestore
[] 0 setdash
gsave
/o {
gsave
newpath
translate
0.5 setlinewidth
1 setlinejoin
0 setlinecap
0 0 m
0 4 l
gsave
0.000 setgray
fill
grestore
stroke
grestore
} bind def
1252.52 624.547 o
grestore
gsave
/o {
gsave
newpath
translate
0.5 setlinewidth
1 setlinejoin
0 setlinecap
0 0 m
0 -4 l
gsave
0.000 setgray
fill
grestore
stroke
grestore
} bind def
1252.52 813.24 o
grestore
[1 3] 0 setdash
gsave
681.8 188.7 925.3 624.5 clipbox
1457.05 624.547 m
1457.05 813.24 l
stroke
grestore
[] 0 setdash
gsave
/o {
gsave
newpath
translate
0.5 setlinewidth
1 setlinejoin
0 setlinecap
0 0 m
0 4 l
gsave
0.000 setgray
fill
grestore
stroke
grestore
} bind def
1457.05 624.547 o
grestore
gsave
/o {
gsave
newpath
translate
0.5 setlinewidth
1 setlinejoin
0 setlinecap
0 0 m
0 -4 l
gsave
0.000 setgray
fill
grestore
stroke
grestore
} bind def
1457.05 813.24 o
grestore
[1 3] 0 setdash
gsave
681.8 188.7 925.3 624.5 clipbox
925.265 624.547 m
1607.04 624.547 l
stroke
grestore
[] 0 setdash
gsave
/o {
gsave
newpath
translate
0.5 setlinewidth
1 setlinejoin
0 setlinecap
0 0 m
4 0 l
gsave
0.000 setgray
fill
grestore
stroke
grestore
} bind def
925.265 624.547 o
grestore
gsave
/o {
gsave
newpath
translate
0.5 setlinewidth
1 setlinejoin
0 setlinecap
0 0 m
-4 0 l
gsave
0.000 setgray
fill
grestore
stroke
grestore
} bind def
1607.04 624.547 o
grestore
gsave
916.218580 621.789246 translate
0.000000 rotate
0.000000 0.000000 m /zero glyphshow
grestore
[1 3] 0 setdash
gsave
681.8 188.7 925.3 624.5 clipbox
925.265 653.577 m
1607.04 653.577 l
stroke
grestore
[] 0 setdash
gsave
/o {
gsave
newpath
translate
0.5 setlinewidth
1 setlinejoin
0 setlinecap
0 0 m
4 0 l
gsave
0.000 setgray
fill
grestore
stroke
grestore
} bind def
925.265 653.577 o
grestore
gsave
/o {
gsave
newpath
translate
0.5 setlinewidth
1 setlinejoin
0 setlinecap
0 0 m
-4 0 l
gsave
0.000 setgray
fill
grestore
stroke
grestore
} bind def
1607.04 653.577 o
grestore
gsave
909.890455 650.818930 translate
0.000000 rotate
0.000000 0.000000 m /two glyphshow
6.362305 0.000000 m /zero glyphshow
grestore
[1 3] 0 setdash
gsave
681.8 188.7 925.3 624.5 clipbox
925.265 682.606 m
1607.04 682.606 l
stroke
grestore
[] 0 setdash
gsave
/o {
gsave
newpath
translate
0.5 setlinewidth
1 setlinejoin
0 setlinecap
0 0 m
4 0 l
gsave
0.000 setgray
fill
grestore
stroke
grestore
} bind def
925.265 682.606 o
grestore
gsave
/o {
gsave
newpath
translate
0.5 setlinewidth
1 setlinejoin
0 setlinecap
0 0 m
-4 0 l
gsave
0.000 setgray
fill
grestore
stroke
grestore
} bind def
1607.04 682.606 o
grestore
gsave
909.515455 679.848613 translate
0.000000 rotate
0.000000 0.000000 m /four glyphshow
6.362305 0.000000 m /zero glyphshow
grestore
[1 3] 0 setdash
gsave
681.8 188.7 925.3 624.5 clipbox
925.265 711.636 m
1607.04 711.636 l
stroke
grestore
[] 0 setdash
gsave
/o {
gsave
newpath
translate
0.5 setlinewidth
1 setlinejoin
0 setlinecap
0 0 m
4 0 l
gsave
0.000 setgray
fill
grestore
stroke
grestore
} bind def
925.265 711.636 o
grestore
gsave
/o {
gsave
newpath
translate
0.5 setlinewidth
1 setlinejoin
0 setlinecap
0 0 m
-4 0 l
gsave
0.000 setgray
fill
grestore
stroke
grestore
} bind def
1607.04 711.636 o
grestore
gsave
909.874830 708.878296 translate
0.000000 rotate
0.000000 0.000000 m /six glyphshow
6.362305 0.000000 m /zero glyphshow
grestore
[1 3] 0 setdash
gsave
681.8 188.7 925.3 624.5 clipbox
925.265 740.666 m
1607.04 740.666 l
stroke
grestore
[] 0 setdash
gsave
/o {
gsave
newpath
translate
0.5 setlinewidth
1 setlinejoin
0 setlinecap
0 0 m
4 0 l
gsave
0.000 setgray
fill
grestore
stroke
grestore
} bind def
925.265 740.666 o
grestore
gsave
/o {
gsave
newpath
translate
0.5 setlinewidth
1 setlinejoin
0 setlinecap
0 0 m
-4 0 l
gsave
0.000 setgray
fill
grestore
stroke
grestore
} bind def
1607.04 740.666 o
grestore
gsave
909.874830 737.907979 translate
0.000000 rotate
0.000000 0.000000 m /eight glyphshow
6.362305 0.000000 m /zero glyphshow
grestore
[1 3] 0 setdash
gsave
681.8 188.7 925.3 624.5 clipbox
925.265 769.695 m
1607.04 769.695 l
stroke
grestore
[] 0 setdash
gsave
/o {
gsave
newpath
translate
0.5 setlinewidth
1 setlinejoin
0 setlinecap
0 0 m
4 0 l
gsave
0.000 setgray
fill
grestore
stroke
grestore
} bind def
925.265 769.695 o
grestore
gsave
/o {
gsave
newpath
translate
0.5 setlinewidth
1 setlinejoin
0 setlinecap
0 0 m
-4 0 l
gsave
0.000 setgray
fill
grestore
stroke
grestore
} bind def
1607.04 769.695 o
grestore
gsave
904.062330 766.937663 translate
0.000000 rotate
0.000000 0.000000 m /one glyphshow
6.362305 0.000000 m /zero glyphshow
12.724609 0.000000 m /zero glyphshow
grestore
[1 3] 0 setdash
gsave
681.8 188.7 925.3 624.5 clipbox
925.265 798.725 m
1607.04 798.725 l
stroke
grestore
[] 0 setdash
gsave
/o {
gsave
newpath
translate
0.5 setlinewidth
1 setlinejoin
0 setlinecap
0 0 m
4 0 l
gsave
0.000 setgray
fill
grestore
stroke
grestore
} bind def
925.265 798.725 o
grestore
gsave
/o {
gsave
newpath
translate
0.5 setlinewidth
1 setlinejoin
0 setlinecap
0 0 m
-4 0 l
gsave
0.000 setgray
fill
grestore
stroke
grestore
} bind def
1607.04 798.725 o
grestore
gsave
904.062330 795.967346 translate
0.000000 rotate
0.000000 0.000000 m /one glyphshow
6.362305 0.000000 m /two glyphshow
12.724609 0.000000 m /zero glyphshow
grestore
/b'BitstreamVeraSerif-Roman' findfont
13.000 scalefont
setfont
gsave
896.359205 711.674779 translate
90.000000 rotate
0.000000 0.000000 m /degree glyphshow
6.500000 0.000000 m /C glyphshow
grestore
1.000 setlinewidth
gsave
1607.04 624.547 m
1607.04 813.24 l
stroke
grestore
gsave
925.265 624.547 m
925.265 813.24 l
stroke
grestore
gsave
925.265 624.547 m
1607.04 624.547 l
stroke
grestore
gsave
925.265 813.24 m
1607.04 813.24 l
stroke
grestore
gsave
930.265 778.896 m
978.703 778.896 l
978.703 808.24 l
930.265 808.24 l
930.265 778.896 l
cl
gsave
1.000 setgray
fill
grestore
stroke
grestore
2.000 setlinewidth
2 setlinecap
0.498 0.788 0.498 setrgbcolor
gsave
937.265 800.146 m
951.265 800.146 l
stroke
grestore
0.000 setgray
/b'BitstreamVeraSerif-Roman' findfont
10.000 scalefont
setfont
gsave
962.265455 796.646250 translate
0.000000 rotate
0.000000 0.000000 m /T glyphshow
6.669922 0.000000 m /four glyphshow
grestore
0.400 setgray
gsave
937.265 788.474 m
951.265 788.474 l
stroke
grestore
0.000 setgray
gsave
962.265455 784.974375 translate
0.000000 rotate
0.000000 0.000000 m /T glyphshow
6.669922 0.000000 m /five glyphshow
grestore
gsave
925.265 398.116 m
1607.04 398.116 l
1607.04 586.808 l
925.265 586.808 l
cl
1.000 setgray
fill
grestore
0.498 0.788 0.498 setrgbcolor
gsave
681.8 188.7 925.3 398.1 clipbox
925.265 543.264 m
979.807 543.264 l
981.171 398.116 l
981.171 543.264 l
982.535 398.116 l
982.535 398.116 l
1043.89 398.116 l
1043.89 543.264 l
1140.71 543.264 l
1141.39 398.116 l
1225.25 398.116 l
1225.93 543.264 l
1300.24 543.264 l
1301.61 398.116 l
1301.61 543.264 l
1302.97 398.116 l
1407.96 398.116 l
1408.64 543.264 l
1459.78 543.264 l
1461.14 398.116 l
1461.14 543.264 l
1462.5 398.116 l
1582.5 398.116 l
1583.86 543.264 l
1583.86 398.116 l
1585.22 543.264 l
1607.04 543.264 l
1607.04 543.264 l
stroke
grestore
0.400 setgray
gsave
681.8 188.7 925.3 398.1 clipbox
925.265 398.116 m
967.535 398.116 l
968.899 543.264 l
1607.04 543.264 l
1607.04 543.264 l
stroke
grestore
0.500 setlinewidth
0 setlinecap
[1 3] 0 setdash
0.000 setgray
gsave
681.8 188.7 925.3 398.1 clipbox
1047.98 398.116 m
1047.98 586.808 l
stroke
grestore
[] 0 setdash
gsave
/o {
gsave
newpath
translate
0.5 setlinewidth
1 setlinejoin
0 setlinecap
0 0 m
0 4 l
gsave
0.000 setgray
fill
grestore
stroke
grestore
} bind def
1047.98 398.116 o
grestore
gsave
/o {
gsave
newpath
translate
0.5 setlinewidth
1 setlinejoin
0 setlinecap
0 0 m
0 -4 l
gsave
0.000 setgray
fill
grestore
stroke
grestore
} bind def
1047.98 586.808 o
grestore
[1 3] 0 setdash
gsave
681.8 188.7 925.3 398.1 clipbox
1252.52 398.116 m
1252.52 586.808 l
stroke
grestore
[] 0 setdash
gsave
/o {
gsave
newpath
translate
0.5 setlinewidth
1 setlinejoin
0 setlinecap
0 0 m
0 4 l
gsave
0.000 setgray
fill
grestore
stroke
grestore
} bind def
1252.52 398.116 o
grestore
gsave
/o {
gsave
newpath
translate
0.5 setlinewidth
1 setlinejoin
0 setlinecap
0 0 m
0 -4 l
gsave
0.000 setgray
fill
grestore
stroke
grestore
} bind def
1252.52 586.808 o
grestore
[1 3] 0 setdash
gsave
681.8 188.7 925.3 398.1 clipbox
1457.05 398.116 m
1457.05 586.808 l
stroke
grestore
[] 0 setdash
gsave
/o {
gsave
newpath
translate
0.5 setlinewidth
1 setlinejoin
0 setlinecap
0 0 m
0 4 l
gsave
0.000 setgray
fill
grestore
stroke
grestore
} bind def
1457.05 398.116 o
grestore
gsave
/o {
gsave
newpath
translate
0.5 setlinewidth
1 setlinejoin
0 setlinecap
0 0 m
0 -4 l
gsave
0.000 setgray
fill
grestore
stroke
grestore
} bind def
1457.05 586.808 o
grestore
[1 3] 0 setdash
gsave
681.8 188.7 925.3 398.1 clipbox
925.265 398.116 m
1607.04 398.116 l
stroke
grestore
[] 0 setdash
gsave
/o {
gsave
newpath
translate
0.5 setlinewidth
1 setlinejoin
0 setlinecap
0 0 m
4 0 l
gsave
0.000 setgray
fill
grestore
stroke
grestore
} bind def
925.265 398.116 o
grestore
gsave
/o {
gsave
newpath
translate
0.5 setlinewidth
1 setlinejoin
0 setlinecap
0 0 m
-4 0 l
gsave
0.000 setgray
fill
grestore
stroke
grestore
} bind def
1607.04 398.116 o
grestore
gsave
916.218580 395.357717 translate
0.000000 rotate
0.000000 0.000000 m /zero glyphshow
grestore
[1 3] 0 setdash
gsave
681.8 188.7 925.3 398.1 clipbox
925.265 427.145 m
1607.04 427.145 l
stroke
grestore
[] 0 setdash
gsave
/o {
gsave
newpath
translate
0.5 setlinewidth
1 setlinejoin
0 setlinecap
0 0 m
4 0 l
gsave
0.000 setgray
fill
grestore
stroke
grestore
} bind def
925.265 427.145 o
grestore
gsave
/o {
gsave
newpath
translate
0.5 setlinewidth
1 setlinejoin
0 setlinecap
0 0 m
-4 0 l
gsave
0.000 setgray
fill
grestore
stroke
grestore
} bind def
1607.04 427.145 o
grestore
gsave
909.890455 424.387400 translate
0.000000 rotate
0.000000 0.000000 m /two glyphshow
6.362305 0.000000 m /zero glyphshow
grestore
[1 3] 0 setdash
gsave
681.8 188.7 925.3 398.1 clipbox
925.265 456.175 m
1607.04 456.175 l
stroke
grestore
[] 0 setdash
gsave
/o {
gsave
newpath
translate
0.5 setlinewidth
1 setlinejoin
0 setlinecap
0 0 m
4 0 l
gsave
0.000 setgray
fill
grestore
stroke
grestore
} bind def
925.265 456.175 o
grestore
gsave
/o {
gsave
newpath
translate
0.5 setlinewidth
1 setlinejoin
0 setlinecap
0 0 m
-4 0 l
gsave
0.000 setgray
fill
grestore
stroke
grestore
} bind def
1607.04 456.175 o
grestore
gsave
909.515455 453.417083 translate
0.000000 rotate
0.000000 0.000000 m /four glyphshow
6.362305 0.000000 m /zero glyphshow
grestore
[1 3] 0 setdash
gsave
681.8 188.7 925.3 398.1 clipbox
925.265 485.205 m
1607.04 485.205 l
stroke
grestore
[] 0 setdash
gsave
/o {
gsave
newpath
translate
0.5 setlinewidth
1 setlinejoin
0 setlinecap
0 0 m
4 0 l
gsave
0.000 setgray
fill
grestore
stroke
grestore
} bind def
925.265 485.205 o
grestore
gsave
/o {
gsave
newpath
translate
0.5 setlinewidth
1 setlinejoin
0 setlinecap
0 0 m
-4 0 l
gsave
0.000 setgray
fill
grestore
stroke
grestore
} bind def
1607.04 485.205 o
grestore
gsave
909.874830 482.446767 translate
0.000000 rotate
0.000000 0.000000 m /six glyphshow
6.362305 0.000000 m /zero glyphshow
grestore
[1 3] 0 setdash
gsave
681.8 188.7 925.3 398.1 clipbox
925.265 514.234 m
1607.04 514.234 l
stroke
grestore
[] 0 setdash
gsave
/o {
gsave
newpath
translate
0.5 setlinewidth
1 setlinejoin
0 setlinecap
0 0 m
4 0 l
gsave
0.000 setgray
fill
grestore
stroke
grestore
} bind def
925.265 514.234 o
grestore
gsave
/o {
gsave
newpath
translate
0.5 setlinewidth
1 setlinejoin
0 setlinecap
0 0 m
-4 0 l
gsave
0.000 setgray
fill
grestore
stroke
grestore
} bind def
1607.04 514.234 o
grestore
gsave
909.874830 511.476450 translate
0.000000 rotate
0.000000 0.000000 m /eight glyphshow
6.362305 0.000000 m /zero glyphshow
grestore
[1 3] 0 setdash
gsave
681.8 188.7 925.3 398.1 clipbox
925.265 543.264 m
1607.04 543.264 l
stroke
grestore
[] 0 setdash
gsave
/o {
gsave
newpath
translate
0.5 setlinewidth
1 setlinejoin
0 setlinecap
0 0 m
4 0 l
gsave
0.000 setgray
fill
grestore
stroke
grestore
} bind def
925.265 543.264 o
grestore
gsave
/o {
gsave
newpath
translate
0.5 setlinewidth
1 setlinejoin
0 setlinecap
0 0 m
-4 0 l
gsave
0.000 setgray
fill
grestore
stroke
grestore
} bind def
1607.04 543.264 o
grestore
gsave
904.062330 540.506133 translate
0.000000 rotate
0.000000 0.000000 m /one glyphshow
6.362305 0.000000 m /zero glyphshow
12.724609 0.000000 m /zero glyphshow
grestore
[1 3] 0 setdash
gsave
681.8 188.7 925.3 398.1 clipbox
925.265 572.294 m
1607.04 572.294 l
stroke
grestore
[] 0 setdash
gsave
/o {
gsave
newpath
translate
0.5 setlinewidth
1 setlinejoin
0 setlinecap
0 0 m
4 0 l
gsave
0.000 setgray
fill
grestore
stroke
grestore
} bind def
925.265 572.294 o
grestore
gsave
/o {
gsave
newpath
translate
0.5 setlinewidth
1 setlinejoin
0 setlinecap
0 0 m
-4 0 l
gsave
0.000 setgray
fill
grestore
stroke
grestore
} bind def
1607.04 572.294 o
grestore
gsave
904.062330 569.535816 translate
0.000000 rotate
0.000000 0.000000 m /one glyphshow
6.362305 0.000000 m /two glyphshow
12.724609 0.000000 m /zero glyphshow
grestore
1.000 setlinewidth
gsave
1607.04 398.116 m
1607.04 586.808 l
stroke
grestore
gsave
925.265 398.116 m
925.265 586.808 l
stroke
grestore
gsave
925.265 398.116 m
1607.04 398.116 l
stroke
grestore
gsave
925.265 586.808 m
1607.04 586.808 l
stroke
grestore
gsave
1486.43 551.902 m
1602.04 551.902 l
1602.04 581.808 l
1486.43 581.808 l
1486.43 551.902 l
cl
gsave
1.000 setgray
fill
grestore
stroke
grestore
2.000 setlinewidth
2 setlinecap
0.498 0.788 0.498 setrgbcolor
gsave
1493.43 573.715 m
1507.43 573.715 l
stroke
grestore
0.000 setgray
gsave
1518.430625 570.214721 translate
0.000000 rotate
0.000000 0.000000 m /c glyphshow
5.600586 0.000000 m /o glyphshow
11.621094 0.000000 m /m glyphshow
21.103516 0.000000 m /p glyphshow
27.504883 0.000000 m /a glyphshow
33.466797 0.000000 m /r glyphshow
38.247070 0.000000 m /e glyphshow
44.165039 0.000000 m /two glyphshow
50.527344 0.000000 m /underscore glyphshow
55.527344 0.000000 m /s glyphshow
60.659180 0.000000 m /t glyphshow
64.677734 0.000000 m /a glyphshow
70.639648 0.000000 m /t glyphshow
74.658203 0.000000 m /e glyphshow
grestore
0.400 setgray
gsave
1493.43 561.762 m
1507.43 561.762 l
stroke
grestore
0.000 setgray
gsave
1518.430625 558.261596 translate
0.000000 rotate
0.000000 0.000000 m /c glyphshow
5.600586 0.000000 m /o glyphshow
11.621094 0.000000 m /m glyphshow
21.103516 0.000000 m /p glyphshow
27.504883 0.000000 m /a glyphshow
33.466797 0.000000 m /r glyphshow
38.247070 0.000000 m /e glyphshow
44.165039 0.000000 m /three glyphshow
50.527344 0.000000 m /underscore glyphshow
55.527344 0.000000 m /s glyphshow
60.659180 0.000000 m /t glyphshow
64.677734 0.000000 m /a glyphshow
70.639648 0.000000 m /t glyphshow
74.658203 0.000000 m /e glyphshow
grestore
gsave
925.265 171.684 m
1607.04 171.684 l
1607.04 360.377 l
925.265 360.377 l
cl
1.000 setgray
fill
grestore
0.498 0.788 0.498 setrgbcolor
gsave
681.8 188.7 925.3 171.7 clipbox
925.265 317.165 m
981.171 317.165 l
981.171 317.165 l
982.535 173.124 l
982.535 317.165 l
983.898 173.124 l
1043.89 173.124 l
1043.89 317.165 l
1140.71 317.165 l
1141.39 173.124 l
1225.25 173.124 l
1225.93 317.165 l
1300.24 317.165 l
1301.61 173.124 l
1301.61 317.165 l
1302.97 173.124 l
1407.96 173.124 l
1408.64 317.165 l
1459.78 317.165 l
1461.14 173.124 l
1461.14 317.165 l
1462.5 173.124 l
1582.5 173.124 l
1583.86 317.165 l
1583.86 173.124 l
1585.22 317.165 l
1607.04 317.165 l
1607.04 317.165 l
stroke
grestore
0.500 setlinewidth
0 setlinecap
[1 3] 0 setdash
0.000 setgray
gsave
681.8 188.7 925.3 171.7 clipbox
1047.98 171.684 m
1047.98 360.377 l
stroke
grestore
[] 0 setdash
gsave
/o {
gsave
newpath
translate
0.5 setlinewidth
1 setlinejoin
0 setlinecap
0 0 m
0 4 l
gsave
0.000 setgray
fill
grestore
stroke
grestore
} bind def
1047.98 171.684 o
grestore
gsave
/o {
gsave
newpath
translate
0.5 setlinewidth
1 setlinejoin
0 setlinecap
0 0 m
0 -4 l
gsave
0.000 setgray
fill
grestore
stroke
grestore
} bind def
1047.98 360.377 o
grestore
gsave
1023.130117 147.357620 translate
30.000000 rotate
0.000000 0.000000 m /zero glyphshow
6.362305 0.000000 m /three glyphshow
12.724609 0.000000 m /colon glyphshow
16.093750 0.000000 m /zero glyphshow
22.456055 0.000000 m /zero glyphshow
grestore
[1 3] 0 setdash
gsave
681.8 188.7 925.3 171.7 clipbox
1252.52 171.684 m
1252.52 360.377 l
stroke
grestore
[] 0 setdash
gsave
/o {
gsave
newpath
translate
0.5 setlinewidth
1 setlinejoin
0 setlinecap
0 0 m
0 4 l
gsave
0.000 setgray
fill
grestore
stroke
grestore
} bind def
1252.52 171.684 o
grestore
gsave
/o {
gsave
newpath
translate
0.5 setlinewidth
1 setlinejoin
0 setlinecap
0 0 m
0 -4 l
gsave
0.000 setgray
fill
grestore
stroke
grestore
} bind def
1252.52 360.377 o
grestore
gsave
1227.662481 147.357620 translate
30.000000 rotate
0.000000 0.000000 m /zero glyphshow
6.362305 0.000000 m /eight glyphshow
12.724609 0.000000 m /colon glyphshow
16.093750 0.000000 m /zero glyphshow
22.456055 0.000000 m /zero glyphshow
grestore
[1 3] 0 setdash
gsave
681.8 188.7 925.3 171.7 clipbox
1457.05 171.684 m
1457.05 360.377 l
stroke
grestore
[] 0 setdash
gsave
/o {
gsave
newpath
translate
0.5 setlinewidth
1 setlinejoin
0 setlinecap
0 0 m
0 4 l
gsave
0.000 setgray
fill
grestore
stroke
grestore
} bind def
1457.05 171.684 o
grestore
gsave
/o {
gsave
newpath
translate
0.5 setlinewidth
1 setlinejoin
0 setlinecap
0 0 m
0 -4 l
gsave
0.000 setgray
fill
grestore
stroke
grestore
} bind def
1457.05 360.377 o
grestore
gsave
1432.681992 147.638870 translate
30.000000 rotate
0.000000 0.000000 m /one glyphshow
6.362305 0.000000 m /three glyphshow
12.724609 0.000000 m /colon glyphshow
16.093750 0.000000 m /zero glyphshow
22.456055 0.000000 m /zero glyphshow
grestore
[1 3] 0 setdash
gsave
681.8 188.7 925.3 171.7 clipbox
925.265 173.124 m
1607.04 173.124 l
stroke
grestore
[] 0 setdash
gsave
/o {
gsave
newpath
translate
0.5 setlinewidth
1 setlinejoin
0 setlinecap
0 0 m
4 0 l
gsave
0.000 setgray
fill
grestore
stroke
grestore
} bind def
925.265 173.124 o
grestore
gsave
/o {
gsave
newpath
translate
0.5 setlinewidth
1 setlinejoin
0 setlinecap
0 0 m
-4 0 l
gsave
0.000 setgray
fill
grestore
stroke
grestore
} bind def
1607.04 173.124 o
grestore
gsave
916.218580 170.366592 translate
0.000000 rotate
0.000000 0.000000 m /zero glyphshow
grestore
[1 3] 0 setdash
gsave
681.8 188.7 925.3 171.7 clipbox
925.265 201.932 m
1607.04 201.932 l
stroke
grestore
[] 0 setdash
gsave
/o {
gsave
newpath
translate
0.5 setlinewidth
1 setlinejoin
0 setlinecap
0 0 m
4 0 l
gsave
0.000 setgray
fill
grestore
stroke
grestore
} bind def
925.265 201.932 o
grestore
gsave
/o {
gsave
newpath
translate
0.5 setlinewidth
1 setlinejoin
0 setlinecap
0 0 m
-4 0 l
gsave
0.000 setgray
fill
grestore
stroke
grestore
} bind def
1607.04 201.932 o
grestore
gsave
909.890455 199.174674 translate
0.000000 rotate
0.000000 0.000000 m /two glyphshow
6.362305 0.000000 m /zero glyphshow
grestore
[1 3] 0 setdash
gsave
681.8 188.7 925.3 171.7 clipbox
925.265 230.741 m
1607.04 230.741 l
stroke
grestore
[] 0 setdash
gsave
/o {
gsave
newpath
translate
0.5 setlinewidth
1 setlinejoin
0 setlinecap
0 0 m
4 0 l
gsave
0.000 setgray
fill
grestore
stroke
grestore
} bind def
925.265 230.741 o
grestore
gsave
/o {
gsave
newpath
translate
0.5 setlinewidth
1 setlinejoin
0 setlinecap
0 0 m
-4 0 l
gsave
0.000 setgray
fill
grestore
stroke
grestore
} bind def
1607.04 230.741 o
grestore
gsave
909.515455 227.982757 translate
0.000000 rotate
0.000000 0.000000 m /four glyphshow
6.362305 0.000000 m /zero glyphshow
grestore
[1 3] 0 setdash
gsave
681.8 188.7 925.3 171.7 clipbox
925.265 259.549 m
1607.04 259.549 l
stroke
grestore
[] 0 setdash
gsave
/o {
gsave
newpath
translate
0.5 setlinewidth
1 setlinejoin
0 setlinecap
0 0 m
4 0 l
gsave
0.000 setgray
fill
grestore
stroke
grestore
} bind def
925.265 259.549 o
grestore
gsave
/o {
gsave
newpath
translate
0.5 setlinewidth
1 setlinejoin
0 setlinecap
0 0 m
-4 0 l
gsave
0.000 setgray
fill
grestore
stroke
grestore
} bind def
1607.04 259.549 o
grestore
gsave
909.874830 256.790839 translate
0.000000 rotate
0.000000 0.000000 m /six glyphshow
6.362305 0.000000 m /zero glyphshow
grestore
[1 3] 0 setdash
gsave
681.8 188.7 925.3 171.7 clipbox
925.265 288.357 m
1607.04 288.357 l
stroke
grestore
[] 0 setdash
gsave
/o {
gsave
newpath
translate
0.5 setlinewidth
1 setlinejoin
0 setlinecap
0 0 m
4 0 l
gsave
0.000 setgray
fill
grestore
stroke
grestore
} bind def
925.265 288.357 o
grestore
gsave
/o {
gsave
newpath
translate
0.5 setlinewidth
1 setlinejoin
0 setlinecap
0 0 m
-4 0 l
gsave
0.000 setgray
fill
grestore
stroke
grestore
} bind def
1607.04 288.357 o
grestore
gsave
909.874830 285.598922 translate
0.000000 rotate
0.000000 0.000000 m /eight glyphshow
6.362305 0.000000 m /zero glyphshow
grestore
[1 3] 0 setdash
gsave
681.8 188.7 925.3 171.7 clipbox
925.265 317.165 m
1607.04 317.165 l
stroke
grestore
[] 0 setdash
gsave
/o {
gsave
newpath
translate
0.5 setlinewidth
1 setlinejoin
0 setlinecap
0 0 m
4 0 l
gsave
0.000 setgray
fill
grestore
stroke
grestore
} bind def
925.265 317.165 o
grestore
gsave
/o {
gsave
newpath
translate
0.5 setlinewidth
1 setlinejoin
0 setlinecap
0 0 m
-4 0 l
gsave
0.000 setgray
fill
grestore
stroke
grestore
} bind def
1607.04 317.165 o
grestore
gsave
904.062330 314.407005 translate
0.000000 rotate
0.000000 0.000000 m /one glyphshow
6.362305 0.000000 m /zero glyphshow
12.724609 0.000000 m /zero glyphshow
grestore
[1 3] 0 setdash
gsave
681.8 188.7 925.3 171.7 clipbox
925.265 345.973 m
1607.04 345.973 l
stroke
grestore
[] 0 setdash
gsave
/o {
gsave
newpath
translate
0.5 setlinewidth
1 setlinejoin
0 setlinecap
0 0 m
4 0 l
gsave
0.000 setgray
fill
grestore
stroke
grestore
} bind def
925.265 345.973 o
grestore
gsave
/o {
gsave
newpath
translate
0.5 setlinewidth
1 setlinejoin
0 setlinecap
0 0 m
-4 0 l
gsave
0.000 setgray
fill
grestore
stroke
grestore
} bind def
1607.04 345.973 o
grestore
gsave
904.062330 343.215087 translate
0.000000 rotate
0.000000 0.000000 m /one glyphshow
6.362305 0.000000 m /two glyphshow
12.724609 0.000000 m /zero glyphshow
grestore
1.000 setlinewidth
gsave
1607.04 171.684 m
1607.04 360.377 l
stroke
grestore
gsave
925.265 171.684 m
925.265 360.377 l
stroke
grestore
gsave
925.265 171.684 m
1607.04 171.684 l
stroke
grestore
gsave
925.265 360.377 m
1607.04 360.377 l
stroke
grestore
/b'BitstreamVeraSerif-Roman' findfont
13.000 scalefont
setfont
gsave
175.313455 88.843779 translate
0.000000 rotate
0.000000 0.000000 m /c glyphshow
7.280762 0.000000 m /o glyphshow
15.107422 0.000000 m /m glyphshow
27.434570 0.000000 m /p glyphshow
35.756348 0.000000 m /a glyphshow
43.506836 0.000000 m /r glyphshow
49.721191 0.000000 m /e glyphshow
57.414551 0.000000 m /one glyphshow
65.685547 0.000000 m /space glyphshow
69.817871 0.000000 m /equal glyphshow
80.710449 0.000000 m /space glyphshow
84.842773 0.000000 m /m glyphshow
97.169922 0.000000 m /i glyphshow
101.327637 0.000000 m /n glyphshow
109.700195 0.000000 m /parenleft glyphshow
114.771973 0.000000 m /T glyphshow
123.442871 0.000000 m /three glyphshow
131.713867 0.000000 m /comma glyphshow
135.846191 0.000000 m /space glyphshow
139.978516 0.000000 m /T glyphshow
148.649414 0.000000 m /four glyphshow
156.920410 0.000000 m /parenright glyphshow
161.992188 0.000000 m /space glyphshow
166.124512 0.000000 m /hyphen glyphshow
170.517090 0.000000 m /space glyphshow
174.649414 0.000000 m /two glyphshow
182.920410 0.000000 m /asterisk glyphshow
189.420410 0.000000 m /V glyphshow
198.808594 0.000000 m /s glyphshow
205.479980 0.000000 m /o glyphshow
213.306641 0.000000 m /l glyphshow
217.464355 0.000000 m /a glyphshow
225.214844 0.000000 m /r glyphshow
231.429199 0.000000 m /underscore glyphshow
237.929199 0.000000 m /s glyphshow
244.600586 0.000000 m /t glyphshow
249.824707 0.000000 m /a glyphshow
257.575195 0.000000 m /t glyphshow
262.799316 0.000000 m /e glyphshow
grestore
gsave
175.313455 73.931279 translate
0.000000 rotate
0.000000 0.000000 m /c glyphshow
7.280762 0.000000 m /o glyphshow
15.107422 0.000000 m /m glyphshow
27.434570 0.000000 m /p glyphshow
35.756348 0.000000 m /a glyphshow
43.506836 0.000000 m /r glyphshow
49.721191 0.000000 m /e glyphshow
57.414551 0.000000 m /two glyphshow
65.685547 0.000000 m /space glyphshow
69.817871 0.000000 m /equal glyphshow
80.710449 0.000000 m /space glyphshow
84.842773 0.000000 m /T glyphshow
93.513672 0.000000 m /five glyphshow
101.784668 0.000000 m /space glyphshow
105.916992 0.000000 m /hyphen glyphshow
110.309570 0.000000 m /space glyphshow
114.441895 0.000000 m /two glyphshow
122.712891 0.000000 m /asterisk glyphshow
129.212891 0.000000 m /V glyphshow
138.601074 0.000000 m /s glyphshow
145.272461 0.000000 m /o glyphshow
153.099121 0.000000 m /l glyphshow
157.256836 0.000000 m /a glyphshow
165.007324 0.000000 m /r glyphshow
171.221680 0.000000 m /underscore glyphshow
177.721680 0.000000 m /s glyphshow
184.393066 0.000000 m /t glyphshow
189.617188 0.000000 m /a glyphshow
197.367676 0.000000 m /t glyphshow
202.591797 0.000000 m /e glyphshow
grestore
gsave
175.313455 59.018779 translate
0.000000 rotate
0.000000 0.000000 m /c glyphshow
7.280762 0.000000 m /o glyphshow
15.107422 0.000000 m /m glyphshow
27.434570 0.000000 m /p glyphshow
35.756348 0.000000 m /a glyphshow
43.506836 0.000000 m /r glyphshow
49.721191 0.000000 m /e glyphshow
57.414551 0.000000 m /three glyphshow
65.685547 0.000000 m /space glyphshow
69.817871 0.000000 m /equal glyphshow
80.710449 0.000000 m /space glyphshow
84.842773 0.000000 m /three glyphshow
93.113770 0.000000 m /zero glyphshow
101.384766 0.000000 m /space glyphshow
105.517090 0.000000 m /hyphen glyphshow
109.909668 0.000000 m /space glyphshow
114.041992 0.000000 m /two glyphshow
122.312988 0.000000 m /asterisk glyphshow
128.812988 0.000000 m /V glyphshow
138.201172 0.000000 m /s glyphshow
144.872559 0.000000 m /o glyphshow
152.699219 0.000000 m /l glyphshow
156.856934 0.000000 m /a glyphshow
164.607422 0.000000 m /r glyphshow
170.821777 0.000000 m /underscore glyphshow
177.321777 0.000000 m /s glyphshow
183.993164 0.000000 m /t glyphshow
189.217285 0.000000 m /a glyphshow
196.967773 0.000000 m /t glyphshow
202.191895 0.000000 m /e glyphshow
grestore
gsave
993.442909 96.409404 translate
0.000000 rotate
0.000000 0.000000 m /c glyphshow
7.280762 0.000000 m /o glyphshow
15.107422 0.000000 m /m glyphshow
27.434570 0.000000 m /p glyphshow
35.756348 0.000000 m /a glyphshow
43.506836 0.000000 m /r glyphshow
49.721191 0.000000 m /e glyphshow
57.414551 0.000000 m /two glyphshow
65.685547 0.000000 m /underscore glyphshow
72.185547 0.000000 m /s glyphshow
78.856934 0.000000 m /t glyphshow
84.081055 0.000000 m /a glyphshow
91.831543 0.000000 m /t glyphshow
97.055664 0.000000 m /e glyphshow
104.749023 0.000000 m /space glyphshow
108.881348 0.000000 m /equal glyphshow
119.773926 0.000000 m /space glyphshow
123.906250 0.000000 m /T glyphshow
132.577148 0.000000 m /one glyphshow
140.848145 0.000000 m /space glyphshow
144.980469 0.000000 m /greater glyphshow
155.873047 0.000000 m /space glyphshow
160.005371 0.000000 m /c glyphshow
167.286133 0.000000 m /o glyphshow
175.112793 0.000000 m /m glyphshow
187.439941 0.000000 m /p glyphshow
195.761719 0.000000 m /a glyphshow
203.512207 0.000000 m /r glyphshow
209.726562 0.000000 m /e glyphshow
217.419922 0.000000 m /two glyphshow
grestore
gsave
993.442909 81.496904 translate
0.000000 rotate
0.000000 0.000000 m /c glyphshow
7.280762 0.000000 m /o glyphshow
15.107422 0.000000 m /m glyphshow
27.434570 0.000000 m /p glyphshow
35.756348 0.000000 m /a glyphshow
43.506836 0.000000 m /r glyphshow
49.721191 0.000000 m /e glyphshow
57.414551 0.000000 m /three glyphshow
65.685547 0.000000 m /underscore glyphshow
72.185547 0.000000 m /s glyphshow
78.856934 0.000000 m /t glyphshow
84.081055 0.000000 m /a glyphshow
91.831543 0.000000 m /t glyphshow
97.055664 0.000000 m /e glyphshow
104.749023 0.000000 m /space glyphshow
108.881348 0.000000 m /equal glyphshow
119.773926 0.000000 m /space glyphshow
123.906250 0.000000 m /T glyphshow
132.577148 0.000000 m /three glyphshow
140.848145 0.000000 m /space glyphshow
144.980469 0.000000 m /greater glyphshow
155.873047 0.000000 m /equal glyphshow
166.765625 0.000000 m /space glyphshow
170.897949 0.000000 m /c glyphshow
178.178711 0.000000 m /o glyphshow
186.005371 0.000000 m /m glyphshow
198.332520 0.000000 m /p glyphshow
206.654297 0.000000 m /a glyphshow
214.404785 0.000000 m /r glyphshow
220.619141 0.000000 m /e glyphshow
228.312500 0.000000 m /three glyphshow
236.583496 0.000000 m /space glyphshow
grestore
gsave
993.442909 66.584404 translate
0.000000 rotate
0.000000 0.000000 m /O glyphshow
10.657715 0.000000 m /n glyphshow
19.030273 0.000000 m /one glyphshow
27.301270 0.000000 m /underscore glyphshow
33.801270 0.000000 m /s glyphshow
40.472656 0.000000 m /t glyphshow
45.696777 0.000000 m /a glyphshow
53.447266 0.000000 m /t glyphshow
58.671387 0.000000 m /e glyphshow
66.364746 0.000000 m /space glyphshow
70.497070 0.000000 m /equal glyphshow
81.389648 0.000000 m /space glyphshow
85.521973 0.000000 m /T glyphshow
94.192871 0.000000 m /one glyphshow
102.463867 0.000000 m /space glyphshow
106.596191 0.000000 m /greater glyphshow
117.488770 0.000000 m /equal glyphshow
128.381348 0.000000 m /space glyphshow
132.513672 0.000000 m /c glyphshow
139.794434 0.000000 m /o glyphshow
147.621094 0.000000 m /m glyphshow
159.948242 0.000000 m /p glyphshow
168.270020 0.000000 m /a glyphshow
176.020508 0.000000 m /r glyphshow
182.234863 0.000000 m /e glyphshow
189.928223 0.000000 m /one glyphshow
grestore
gsave
993.442909 51.671904 translate
0.000000 rotate
0.000000 0.000000 m /O glyphshow
10.657715 0.000000 m /n glyphshow
19.030273 0.000000 m /two glyphshow
27.301270 0.000000 m /underscore glyphshow
33.801270 0.000000 m /s glyphshow
40.472656 0.000000 m /t glyphshow
45.696777 0.000000 m /a glyphshow
53.447266 0.000000 m /t glyphshow
58.671387 0.000000 m /e glyphshow
66.364746 0.000000 m /space glyphshow
70.497070 0.000000 m /equal glyphshow
81.389648 0.000000 m /space glyphshow
85.521973 0.000000 m /c glyphshow
92.802734 0.000000 m /o glyphshow
100.629395 0.000000 m /m glyphshow
112.956543 0.000000 m /p glyphshow
121.278320 0.000000 m /a glyphshow
129.028809 0.000000 m /r glyphshow
135.243164 0.000000 m /e glyphshow
142.936523 0.000000 m /two glyphshow
151.207520 0.000000 m /underscore glyphshow
157.707520 0.000000 m /s glyphshow
164.378906 0.000000 m /t glyphshow
169.603027 0.000000 m /a glyphshow
177.353516 0.000000 m /t glyphshow
182.577637 0.000000 m /e glyphshow
190.270996 0.000000 m /space glyphshow
194.403320 0.000000 m /a glyphshow
202.153809 0.000000 m /n glyphshow
210.526367 0.000000 m /d glyphshow
218.848145 0.000000 m /space glyphshow
222.980469 0.000000 m /c glyphshow
230.261230 0.000000 m /o glyphshow
238.087891 0.000000 m /m glyphshow
250.415039 0.000000 m /p glyphshow
258.736816 0.000000 m /a glyphshow
266.487305 0.000000 m /r glyphshow
272.701660 0.000000 m /e glyphshow
280.395020 0.000000 m /three glyphshow
288.666016 0.000000 m /underscore glyphshow
295.166016 0.000000 m /s glyphshow
301.837402 0.000000 m /t glyphshow
307.061523 0.000000 m /a glyphshow
314.812012 0.000000 m /t glyphshow
320.036133 0.000000 m /e glyphshow
grestore
gsave
1504.06 337.424 m
1602.04 337.424 l
1602.04 355.377 l
1504.06 355.377 l
1504.06 337.424 l
cl
gsave
1.000 setgray
fill
grestore
stroke
grestore
2.000 setlinewidth
2 setlinecap
0.498 0.788 0.498 setrgbcolor
gsave
1511.06 347.283 m
1525.06 347.283 l
stroke
grestore
0.000 setgray
/b'BitstreamVeraSerif-Roman' findfont
10.000 scalefont
setfont
gsave
1536.055625 343.783191 translate
0.000000 rotate
0.000000 0.000000 m /V glyphshow
7.221680 0.000000 m /s glyphshow
12.353516 0.000000 m /o glyphshow
18.374023 0.000000 m /l glyphshow
21.572266 0.000000 m /a glyphshow
27.534180 0.000000 m /r glyphshow
32.314453 0.000000 m /underscore glyphshow
37.314453 0.000000 m /s glyphshow
42.446289 0.000000 m /t glyphshow
46.464844 0.000000 m /a glyphshow
52.426758 0.000000 m /t glyphshow
56.445312 0.000000 m /e glyphshow
grestore
0.000 0.169 0.212 setrgbcolor
/b'AnonymousPro-Bold' findfont
25.000 scalefont
setfont
gsave
673.585938 858.420000 translate
0.000000 rotate
0.000000 0.000000 m /C glyphshow
13.647461 0.000000 m /o glyphshow
27.294922 0.000000 m /n glyphshow
40.942383 0.000000 m /t glyphshow
54.589844 0.000000 m /r glyphshow
68.237305 0.000000 m /ocircumflex glyphshow
81.884766 0.000000 m /l glyphshow
95.532227 0.000000 m /e glyphshow
109.179688 0.000000 m /space glyphshow
122.827148 0.000000 m /d glyphshow
136.474609 0.000000 m /e glyphshow
150.122070 0.000000 m /space glyphshow
163.769531 0.000000 m /l glyphshow
177.416992 0.000000 m /a glyphshow
191.064453 0.000000 m /space glyphshow
204.711914 0.000000 m /v glyphshow
218.359375 0.000000 m /a glyphshow
232.006836 0.000000 m /n glyphshow
245.654297 0.000000 m /n glyphshow
259.301758 0.000000 m /e glyphshow
272.949219 0.000000 m /space glyphshow
286.596680 0.000000 m /s glyphshow
300.244141 0.000000 m /o glyphshow
313.891602 0.000000 m /l glyphshow
327.539062 0.000000 m /a glyphshow
341.186523 0.000000 m /i glyphshow
354.833984 0.000000 m /r glyphshow
368.481445 0.000000 m /e glyphshow
grestore

end
showpage
