Time,V3Vsolar_mod1.T1,V3Vsolar_mod1.T3,V3Vsolar_mod1.T4,V3Vsolar_mod1.T5,V3Vsolar_mod1.compare1.y,V3Vsolar_mod1.compare2.y,V3Vsolar_mod1.compare3.y,V3Vsolar_mod1.T1_greaterEqual_test.y,V3Vsolar_mod1.T1_greater_test.y,V3Vsolar_mod1.T3_greaterEqual_test.y,V3Vsolar_mod1.pre_conditions.y,V3Vsolar_mod1.V3V_solar
0,393.15,293.15,298.15,298.15,291.15,296.15,301.15,1,1,0,0,1
2,393.074,293.4,298.53,298.337,291.4,296.337,301.15,1,1,0,0,1
4,392.847,293.65,298.91,298.525,291.65,296.525,301.15,1,1,0,0,1
6,392.469,293.9,299.29,298.712,291.9,296.712,301.15,1,1,0,0,1
8,391.941,294.15,299.67,298.9,292.15,296.9,301.15,1,1,0,0,1
10,391.265,294.4,300.05,299.087,292.4,297.087,301.15,1,1,0,0,1
12,390.442,294.65,300.43,299.275,292.65,297.275,301.15,1,1,0,0,1
14,389.474,294.9,300.81,299.462,292.9,297.462,301.15,1,1,0,0,1
16,388.364,295.15,301.19,299.65,293.15,297.65,301.15,1,1,0,0,1
18,387.114,295.4,301.57,299.837,293.4,297.837,301.15,1,1,0,0,1
20,385.728,295.65,301.95,300.025,293.65,298.025,301.15,1,1,0,0,1
22,384.21,295.9,302.33,300.212,293.9,298.212,301.15,1,1,0,0,1
24,382.562,296.15,302.71,300.4,294.15,298.4,301.15,1,1,0,0,1
26,380.789,296.4,303.09,300.587,294.4,298.587,301.15,1,1,0,0,1
28,378.897,296.65,303.47,300.775,294.65,298.775,301.15,1,1,0,0,1
30,376.888,296.9,303.85,300.962,294.9,298.962,301.15,1,1,0,0,1
32,374.769,297.15,304.23,301.15,295.15,299.15,301.15,1,1,0,0,1
34,372.545,297.4,304.61,301.337,295.4,299.337,301.15,1,1,0,0,1
36,370.222,297.65,304.99,301.525,295.65,299.525,301.15,1,1,0,0,1
38,367.804,297.9,305.37,301.712,295.9,299.712,301.15,1,1,0,0,1
40,365.3,298.15,305.75,301.9,296.15,299.9,301.15,1,1,0,0,1
42,362.714,298.4,306.13,302.087,296.4,300.087,301.15,1,1,0,0,1
44,360.053,298.65,306.51,302.275,296.65,300.275,301.15,1,1,0,0,1
46,357.324,298.9,306.89,302.462,296.9,300.462,301.15,1,1,0,0,1
48,354.535,299.15,307.27,302.65,297.15,300.65,301.15,1,1,0,0,1
50,351.691,299.4,307.65,302.837,297.4,300.837,301.15,1,1,0,0,1
52,348.8,299.65,308.03,303.025,297.65,301.025,301.15,1,1,0,0,1
54,345.87,299.9,308.41,303.212,297.9,301.212,301.15,1,1,0,0,1
56,342.908,300.15,308.79,303.4,298.15,301.4,301.15,1,1,0,0,1
58,339.921,300.4,309.17,303.587,298.4,301.587,301.15,1,1,0,0,1
60,336.917,300.65,309.55,303.775,298.65,301.775,301.15,1,1,0,0,1
62,333.904,300.9,309.93,303.962,298.9,301.962,301.15,1,1,0,0,1
64,330.889,301.15,310.31,304.15,299.15,302.15,301.15,1,1,0,0,1
64,330.889,301.15,310.31,304.15,299.15,302.15,301.15,1,1,0,0,1
64,330.889,301.15,310.31,304.15,299.15,302.15,301.15,1,1,1,1,1
66,327.879,301.4,310.69,304.337,299.4,302.337,301.15,1,1,1,1,1
68,324.883,301.65,311.07,304.525,299.65,302.525,301.15,1,1,1,1,1
70,321.907,301.9,311.45,304.712,299.9,302.712,301.15,1,1,1,1,1
72,318.96,302.15,311.83,304.9,300.15,302.9,301.15,1,1,1,1,1
74,316.049,302.4,312.21,305.087,300.4,303.087,301.15,1,1,1,1,1
76,313.181,302.65,312.59,305.275,300.65,303.275,301.15,1,1,1,1,1
78,310.363,302.9,312.97,305.462,300.9,303.462,301.15,1,1,1,1,1
80,307.603,303.15,313.35,305.65,301.15,303.65,301.15,1,1,1,1,1
82,304.908,303.4,313.73,305.837,301.4,303.837,301.15,1,1,1,1,1
82.7551,303.908,303.494,313.873,305.908,301.494,303.908,301.15,1,1,1,1,1
82.7551,303.908,303.494,313.873,305.908,301.494,303.908,301.15,1,0,1,0,1
84,302.284,303.65,314.11,306.025,301.65,304.025,301.15,1,0,1,0,1
84.4482,301.706,303.706,314.195,306.067,301.706,304.067,301.15,1,0,1,0,1
84.4482,301.706,303.706,314.195,306.067,303.706,306.067,303.15,0,0,1,0,0
86,299.737,303.9,314.49,306.212,303.9,306.212,303.15,0,0,1,0,0
88,297.276,304.15,314.87,306.4,304.15,306.4,303.15,0,0,1,0,0
90,294.905,304.4,315.25,306.587,304.4,306.587,303.15,0,0,1,0,0
92,292.63,304.65,315.63,306.775,304.65,306.775,303.15,0,0,1,0,0
94,290.458,304.9,316.01,306.962,304.9,306.962,303.15,0,0,1,0,0
96,288.394,305.15,316.39,307.15,305.15,307.15,303.15,0,0,1,0,0
98,286.442,305.4,316.77,307.337,305.4,307.337,303.15,0,0,1,0,0
100,284.609,305.65,317.15,307.525,305.65,307.525,303.15,0,0,1,0,0
102,282.898,305.9,317.53,307.712,305.9,307.712,303.15,0,0,1,0,0
104,281.315,306.15,317.91,307.9,306.15,307.9,303.15,0,0,1,0,0
106,279.862,306.4,318.29,308.087,306.4,308.087,303.15,0,0,1,0,0
108,278.544,306.65,318.67,308.275,306.65,308.275,303.15,0,0,1,0,0
110,277.363,306.9,319.05,308.462,306.9,308.462,303.15,0,0,1,0,0
112,276.324,307.15,319.43,308.65,307.15,308.65,303.15,0,0,1,0,0
114,275.428,307.4,319.81,308.837,307.4,308.837,303.15,0,0,1,0,0
116,274.678,307.65,320.19,309.025,307.65,309.025,303.15,0,0,1,0,0
118,274.076,307.9,320.57,309.212,307.9,309.212,303.15,0,0,1,0,0
120,273.623,308.15,320.95,309.4,308.15,309.4,303.15,0,0,1,0,0
122,273.32,308.4,321.33,309.587,308.4,309.587,303.15,0,0,1,0,0
124,273.169,308.65,321.71,309.775,308.65,309.775,303.15,0,0,1,0,0
126,273.169,308.9,322.09,309.962,308.9,309.962,303.15,0,0,1,0,0
128,273.32,309.15,322.47,310.15,309.15,310.15,303.15,0,0,1,0,0
130,273.623,309.4,322.85,310.337,309.4,310.337,303.15,0,0,1,0,0
132,274.076,309.65,323.23,310.525,309.65,310.525,303.15,0,0,1,0,0
134,274.678,309.9,323.61,310.712,309.9,310.712,303.15,0,0,1,0,0
136,275.428,310.15,323.99,310.9,310.15,310.9,303.15,0,0,1,0,0
138,276.324,310.4,324.37,311.087,310.4,311.087,303.15,0,0,1,0,0
140,277.363,310.65,324.75,311.275,310.65,311.275,303.15,0,0,1,0,0
142,278.544,310.9,325.13,311.462,310.9,311.462,303.15,0,0,1,0,0
144,279.862,311.15,325.51,311.65,311.15,311.65,303.15,0,0,1,0,0
146,281.315,311.4,325.89,311.837,311.4,311.837,303.15,0,0,1,0,0
148,282.898,311.65,326.27,312.025,311.65,312.025,303.15,0,0,1,0,0
150,284.609,311.9,326.65,312.212,311.9,312.212,303.15,0,0,1,0,0
152,286.442,312.15,327.03,312.4,312.15,312.4,303.15,0,0,1,0,0
154,288.394,312.4,327.41,312.587,312.4,312.587,303.15,0,0,1,0,0
156,290.458,312.65,327.79,312.775,312.65,312.775,303.15,0,0,1,0,0
158,292.63,312.9,328.17,312.962,312.9,312.962,303.15,0,0,1,0,0
160,294.905,313.15,328.55,313.15,313.15,313.15,303.15,0,0,1,0,0
162,297.276,313.4,328.93,313.337,313.4,313.337,303.15,0,0,1,0,0
164,299.737,313.65,329.31,313.525,313.65,313.525,303.15,0,0,1,0,0
166,302.284,313.9,329.69,313.712,313.9,313.712,303.15,0,0,1,0,0
168,304.908,314.15,330.07,313.9,314.15,313.9,303.15,0,0,1,0,0
170,307.603,314.4,330.45,314.087,314.4,314.087,303.15,0,0,1,0,0
172,310.363,314.65,330.83,314.275,314.65,314.275,303.15,0,0,1,0,0
174,313.181,314.9,331.21,314.462,314.9,314.462,303.15,0,0,1,0,0
174.961,314.553,315.02,331.393,314.553,315.02,314.553,303.15,0,0,1,0,0
174.961,314.553,315.02,331.393,314.553,313.02,312.553,301.15,1,1,1,1,1
176,316.049,315.15,331.59,314.65,313.15,312.65,301.15,1,1,1,1,1
178,318.96,315.4,331.97,314.837,313.4,312.837,301.15,1,1,1,1,1
180,321.907,315.65,332.35,315.025,313.65,313.025,301.15,1,1,1,1,1
182,324.883,315.9,332.73,315.212,313.9,313.212,301.15,1,1,1,1,1
184,327.879,316.15,333.11,315.4,314.15,313.4,301.15,1,1,1,1,1
186,330.889,316.4,333.49,315.587,314.4,313.587,301.15,1,1,1,1,1
188,333.904,316.65,333.87,315.775,314.65,313.775,301.15,1,1,1,1,1
190,336.917,316.9,334.25,315.962,314.9,313.962,301.15,1,1,1,1,1
192,339.921,317.15,334.63,316.15,315.15,314.15,301.15,1,1,1,1,1
194,342.908,317.4,335.01,316.337,315.4,314.337,301.15,1,1,1,1,1
196,345.87,317.65,335.39,316.525,315.65,314.525,301.15,1,1,1,1,1
198,348.8,317.9,335.77,316.712,315.9,314.712,301.15,1,1,1,1,1
200,351.691,318.15,336.15,316.9,316.15,314.9,301.15,1,1,1,1,1
202,354.535,318.4,336.53,317.087,316.4,315.087,301.15,1,1,1,1,1
204,357.324,318.65,336.91,317.275,316.65,315.275,301.15,1,1,1,1,1
206,360.053,318.9,337.29,317.462,316.9,315.462,301.15,1,1,1,1,1
208,362.714,319.15,337.67,317.65,317.15,315.65,301.15,1,1,1,1,1
210,365.3,319.4,338.05,317.837,317.4,315.837,301.15,1,1,1,1,1
212,367.804,319.65,338.43,318.025,317.65,316.025,301.15,1,1,1,1,1
214,370.222,319.9,338.81,318.212,317.9,316.212,301.15,1,1,1,1,1
216,372.545,320.15,339.19,318.4,318.15,316.4,301.15,1,1,1,1,1
218,374.769,320.4,339.57,318.587,318.4,316.587,301.15,1,1,1,1,1
220,376.888,320.65,339.95,318.775,318.65,316.775,301.15,1,1,1,1,1
222,378.897,320.9,340.33,318.962,318.9,316.962,301.15,1,1,1,1,1
224,380.789,321.15,340.71,319.15,319.15,317.15,301.15,1,1,1,1,1
226,382.562,321.4,341.09,319.337,319.4,317.337,301.15,1,1,1,1,1
228,384.21,321.65,341.47,319.525,319.65,317.525,301.15,1,1,1,1,1
230,385.728,321.9,341.85,319.712,319.9,317.712,301.15,1,1,1,1,1
232,387.114,322.15,342.23,319.9,320.15,317.9,301.15,1,1,1,1,1
234,388.364,322.4,342.61,320.087,320.4,318.087,301.15,1,1,1,1,1
236,389.474,322.65,342.99,320.275,320.65,318.275,301.15,1,1,1,1,1
238,390.442,322.9,343.37,320.462,320.9,318.462,301.15,1,1,1,1,1
240,391.265,323.15,343.75,320.65,321.15,318.65,301.15,1,1,1,1,1
242,391.941,323.4,344.13,320.837,321.4,318.837,301.15,1,1,1,1,1
244,392.469,323.65,344.51,321.025,321.65,319.025,301.15,1,1,1,1,1
246,392.847,323.9,344.89,321.212,321.9,319.212,301.15,1,1,1,1,1
248,393.074,324.15,345.27,321.4,322.15,319.4,301.15,1,1,1,1,1
250,393.15,324.4,345.65,321.587,322.4,319.587,301.15,1,1,1,1,1
252,393.074,324.65,346.03,321.775,322.65,319.775,301.15,1,1,1,1,1
254,392.847,324.9,346.41,321.962,322.9,319.962,301.15,1,1,1,1,1
256,392.469,325.15,346.79,322.15,323.15,320.15,301.15,1,1,1,1,1
258,391.941,325.4,347.17,322.337,323.4,320.337,301.15,1,1,1,1,1
260,391.265,325.65,347.55,322.525,323.65,320.525,301.15,1,1,1,1,1
262,390.442,325.9,347.93,322.712,323.9,320.712,301.15,1,1,1,1,1
264,389.474,326.15,348.31,322.9,324.15,320.9,301.15,1,1,1,1,1
266,388.364,326.4,348.69,323.087,324.4,321.087,301.15,1,1,1,1,1
268,387.114,326.65,349.07,323.275,324.65,321.275,301.15,1,1,1,1,1
270,385.728,326.9,349.45,323.462,324.9,321.462,301.15,1,1,1,1,1
272,384.21,327.15,349.83,323.65,325.15,321.65,301.15,1,1,1,1,1
274,382.562,327.4,350.21,323.837,325.4,321.837,301.15,1,1,1,1,1
276,380.789,327.65,350.59,324.025,325.65,322.025,301.15,1,1,1,1,1
278,378.897,327.9,350.97,324.212,325.9,322.212,301.15,1,1,1,1,1
280,376.888,328.15,351.35,324.4,326.15,322.4,301.15,1,1,1,1,1
282,374.769,328.4,351.73,324.587,326.4,322.587,301.15,1,1,1,1,1
284,372.545,328.65,352.11,324.775,326.65,322.775,301.15,1,1,1,1,1
286,370.222,328.9,352.49,324.962,326.9,322.962,301.15,1,1,1,1,1
288,367.804,329.15,352.87,325.15,327.15,323.15,301.15,1,1,1,1,1
290,365.3,329.4,353.25,325.337,327.4,323.337,301.15,1,1,1,1,1
292,362.714,329.65,353.63,325.525,327.65,323.525,301.15,1,1,1,1,1
294,360.053,329.9,354.01,325.712,327.9,323.712,301.15,1,1,1,1,1
296,357.324,330.15,354.39,325.9,328.15,323.9,301.15,1,1,1,1,1
298,354.535,330.4,354.77,326.087,328.4,324.087,301.15,1,1,1,1,1
300,351.691,330.65,355.15,326.275,328.65,324.275,301.15,1,1,1,1,1
302,348.8,330.9,355.53,326.462,328.9,324.462,301.15,1,1,1,1,1
304,345.87,331.15,355.91,326.65,329.15,324.65,301.15,1,1,1,1,1
306,342.908,331.4,356.29,326.837,329.4,324.837,301.15,1,1,1,1,1
308,339.921,331.65,356.67,327.025,329.65,325.025,301.15,1,1,1,1,1
310,336.917,331.9,357.05,327.212,329.9,325.212,301.15,1,1,1,1,1
312,333.904,332.15,357.43,327.4,330.15,325.4,301.15,1,1,1,1,1
314,330.889,332.4,357.81,327.587,330.4,325.587,301.15,1,1,1,1,1
314.299,330.437,332.437,357.867,327.616,330.437,325.616,301.15,1,1,1,1,1
314.299,330.437,332.437,357.867,327.616,330.437,325.616,301.15,0,1,1,1,1
316,327.879,332.65,358.19,327.775,330.65,325.775,301.15,0,1,1,1,1
317.32,325.899,332.815,358.441,327.899,330.815,325.899,301.15,0,1,1,1,1
317.32,325.899,332.815,358.441,327.899,332.815,327.899,303.15,0,0,1,0,0
318,324.883,332.9,358.57,327.962,332.9,327.962,303.15,0,0,1,0,0
320,321.907,333.15,358.95,328.15,333.15,328.15,303.15,0,0,1,0,0
322,318.96,333.4,359.33,328.337,333.4,328.337,303.15,0,0,1,0,0
324,316.049,333.65,359.71,328.525,333.65,328.525,303.15,0,0,1,0,0
326,313.181,333.9,360.09,328.712,333.9,328.712,303.15,0,0,1,0,0
328,310.363,334.15,360.47,328.9,334.15,328.9,303.15,0,0,1,0,0
330,307.603,334.4,360.85,329.087,334.4,329.087,303.15,0,0,1,0,0
332,304.908,334.65,361.23,329.275,334.65,329.275,303.15,0,0,1,0,0
334,302.284,334.9,361.61,329.462,334.9,329.462,303.15,0,0,1,0,0
336,299.737,335.15,361.99,329.65,335.15,329.65,303.15,0,0,1,0,0
338,297.276,335.4,362.37,329.837,335.4,329.837,303.15,0,0,1,0,0
340,294.905,335.65,362.75,330.025,335.65,330.025,303.15,0,0,1,0,0
342,292.63,335.9,363.13,330.212,335.9,330.212,303.15,0,0,1,0,0
344,290.458,336.15,363.51,330.4,336.15,330.4,303.15,0,0,1,0,0
346,288.394,336.4,363.89,330.587,336.4,330.587,303.15,0,0,1,0,0
348,286.442,336.65,364.27,330.775,336.65,330.775,303.15,0,0,1,0,0
350,284.609,336.9,364.65,330.962,336.9,330.962,303.15,0,0,1,0,0
352,282.898,337.15,365.03,331.15,337.15,331.15,303.15,0,0,1,0,0
354,281.315,337.4,365.41,331.337,337.4,331.337,303.15,0,0,1,0,0
356,279.862,337.65,365.79,331.525,337.65,331.525,303.15,0,0,1,0,0
358,278.544,337.9,366.17,331.712,337.9,331.712,303.15,0,0,1,0,0
360,277.363,338.15,366.55,331.9,338.15,331.9,303.15,0,0,1,0,0
362,276.324,338.4,366.93,332.087,338.4,332.087,303.15,0,0,1,0,0
364,275.428,338.65,367.31,332.275,338.65,332.275,303.15,0,0,1,0,0
366,274.678,338.9,367.69,332.462,338.9,332.462,303.15,0,0,1,0,0
368,274.076,339.15,368.07,332.65,339.15,332.65,303.15,0,0,1,0,0
370,273.623,339.4,368.45,332.837,339.4,332.837,303.15,0,0,1,0,0
372,273.32,339.65,368.83,333.025,339.65,333.025,303.15,0,0,1,0,0
374,273.169,339.9,369.21,333.212,339.9,333.212,303.15,0,0,1,0,0
376,273.169,340.15,369.59,333.4,340.15,333.4,303.15,0,0,1,0,0
378,273.32,340.4,369.97,333.587,340.4,333.587,303.15,0,0,1,0,0
380,273.623,340.65,370.35,333.775,340.65,333.775,303.15,0,0,1,0,0
382,274.076,340.9,370.73,333.962,340.9,333.962,303.15,0,0,1,0,0
384,274.678,341.15,371.11,334.15,341.15,334.15,303.15,0,0,1,0,0
386,275.428,341.4,371.49,334.337,341.4,334.337,303.15,0,0,1,0,0
388,276.324,341.65,371.87,334.525,341.65,334.525,303.15,0,0,1,0,0
390,277.363,341.9,372.25,334.712,341.9,334.712,303.15,0,0,1,0,0
392,278.544,342.15,372.63,334.9,342.15,334.9,303.15,0,0,1,0,0
394,279.862,342.4,373.01,335.087,342.4,335.087,303.15,0,0,1,0,0
396,281.315,342.65,373.39,335.275,342.65,335.275,303.15,0,0,1,0,0
398,282.898,342.9,373.77,335.462,342.9,335.462,303.15,0,0,1,0,0
400,284.609,343.15,374.15,335.65,343.15,335.65,303.15,0,0,1,0,0
402,286.442,343.4,374.53,335.837,343.4,335.837,303.15,0,0,1,0,0
404,288.394,343.65,374.91,336.025,343.65,336.025,303.15,0,0,1,0,0
406,290.458,343.9,375.29,336.212,343.9,336.212,303.15,0,0,1,0,0
408,292.63,344.15,375.67,336.4,344.15,336.4,303.15,0,0,1,0,0
410,294.905,344.4,376.05,336.587,344.4,336.587,303.15,0,0,1,0,0
412,297.276,344.65,376.43,336.775,344.65,336.775,303.15,0,0,1,0,0
414,299.737,344.9,376.81,336.962,344.9,336.962,303.15,0,0,1,0,0
416,302.284,345.15,377.19,337.15,345.15,337.15,303.15,0,0,1,0,0
418,304.908,345.4,377.57,337.337,345.4,337.337,303.15,0,0,1,0,0
420,307.603,345.65,377.95,337.525,345.65,337.525,303.15,0,0,1,0,0
422,310.363,345.9,378.33,337.712,345.9,337.712,303.15,0,0,1,0,0
424,313.181,346.15,378.71,337.9,346.15,337.9,303.15,0,0,1,0,0
426,316.049,346.4,379.09,338.087,346.4,338.087,303.15,0,0,1,0,0
428,318.96,346.65,379.47,338.275,346.65,338.275,303.15,0,0,1,0,0
430,321.907,346.9,379.85,338.462,346.9,338.462,303.15,0,0,1,0,0
432,324.883,347.15,380.23,338.65,347.15,338.65,303.15,0,0,1,0,0
434,327.879,347.4,380.61,338.837,347.4,338.837,303.15,0,0,1,0,0
436,330.889,347.65,380.99,339.025,347.65,339.025,303.15,0,0,1,0,0
438,333.904,347.9,381.37,339.212,347.9,339.212,303.15,0,0,1,0,0
440,336.917,348.15,381.75,339.4,348.15,339.4,303.15,0,0,1,0,0
441.762,339.565,348.37,382.085,339.565,348.37,339.565,303.15,0,0,1,0,0
441.762,339.565,348.37,382.085,339.565,346.37,337.565,301.15,0,1,1,1,1
442,339.921,348.4,382.13,339.587,346.4,337.587,301.15,0,1,1,1,1
444,342.908,348.65,382.51,339.775,346.65,337.775,301.15,0,1,1,1,1
446,345.87,348.9,382.89,339.962,346.9,337.962,301.15,0,1,1,1,1
446.765,346.996,348.996,383.035,340.034,346.996,338.034,301.15,0,1,1,1,1
446.765,346.996,348.996,383.035,340.034,346.996,338.034,301.15,1,1,1,1,1
448,348.8,349.15,383.27,340.15,347.15,338.15,301.15,1,1,1,1,1
450,351.691,349.4,383.65,340.337,347.4,338.337,301.15,1,1,1,1,1
452,354.535,349.65,384.03,340.525,347.65,338.525,301.15,1,1,1,1,1
454,357.324,349.9,384.41,340.712,347.9,338.712,301.15,1,1,1,1,1
456,360.053,350.15,384.79,340.9,348.15,338.9,301.15,1,1,1,1,1
458,362.714,350.4,385.17,341.087,348.4,339.087,301.15,1,1,1,1,1
460,365.3,350.65,385.55,341.275,348.65,339.275,301.15,1,1,1,1,1
462,367.804,350.9,385.93,341.462,348.9,339.462,301.15,1,1,1,1,1
464,370.222,351.15,386.31,341.65,349.15,339.65,301.15,1,1,1,1,1
466,372.545,351.4,386.69,341.837,349.4,339.837,301.15,1,1,1,1,1
468,374.769,351.65,387.07,342.025,349.65,340.025,301.15,1,1,1,1,1
470,376.888,351.9,387.45,342.212,349.9,340.212,301.15,1,1,1,1,1
472,378.897,352.15,387.83,342.4,350.15,340.4,301.15,1,1,1,1,1
474,380.789,352.4,388.21,342.587,350.4,340.587,301.15,1,1,1,1,1
476,382.562,352.65,388.59,342.775,350.65,340.775,301.15,1,1,1,1,1
478,384.21,352.9,388.97,342.962,350.9,340.962,301.15,1,1,1,1,1
480,385.728,353.15,389.35,343.15,351.15,341.15,301.15,1,1,1,1,1
482,387.114,353.4,389.73,343.337,351.4,341.337,301.15,1,1,1,1,1
484,388.364,353.65,390.11,343.525,351.65,341.525,301.15,1,1,1,1,1
486,389.474,353.9,390.49,343.712,351.9,341.712,301.15,1,1,1,1,1
488,390.442,354.15,390.87,343.9,352.15,341.9,301.15,1,1,1,1,1
490,391.265,354.4,391.25,344.087,352.4,342.087,301.15,1,1,1,1,1
492,391.941,354.65,391.63,344.275,352.65,342.275,301.15,1,1,1,1,1
494,392.469,354.9,392.01,344.462,352.9,342.462,301.15,1,1,1,1,1
496,392.847,355.15,392.39,344.65,353.15,342.65,301.15,1,1,1,1,1
498,393.074,355.4,392.77,344.837,353.4,342.837,301.15,1,1,1,1,1
500,393.15,355.65,393.15,345.025,353.65,343.025,301.15,1,1,1,1,1
502,393.074,355.9,393.15,345.212,353.9,343.212,301.15,1,1,1,1,1
504,392.847,356.15,393.15,345.4,354.15,343.4,301.15,1,1,1,1,1
506,392.469,356.4,393.15,345.587,354.4,343.587,301.15,1,1,1,1,1
508,391.941,356.65,393.15,345.775,354.65,343.775,301.15,1,1,1,1,1
510,391.265,356.9,393.15,345.962,354.9,343.962,301.15,1,1,1,1,1
512,390.442,357.15,393.15,346.15,355.15,344.15,301.15,1,1,1,1,1
514,389.474,357.4,393.15,346.337,355.4,344.337,301.15,1,1,1,1,1
516,388.364,357.65,393.15,346.525,355.65,344.525,301.15,1,1,1,1,1
518,387.114,357.9,393.15,346.712,355.9,344.712,301.15,1,1,1,1,1
520,385.728,358.15,393.15,346.9,356.15,344.9,301.15,1,1,1,1,1
522,384.21,358.4,393.15,347.087,356.4,345.087,301.15,1,1,1,1,1
524,382.562,358.65,393.15,347.275,356.65,345.275,301.15,1,1,1,1,1
526,380.789,358.9,393.15,347.462,356.9,345.462,301.15,1,1,1,1,1
528,378.897,359.15,393.15,347.65,357.15,345.65,301.15,1,1,1,1,1
530,376.888,359.4,393.15,347.837,357.4,345.837,301.15,1,1,1,1,1
532,374.769,359.65,393.15,348.025,357.65,346.025,301.15,1,1,1,1,1
534,372.545,359.9,393.15,348.212,357.9,346.212,301.15,1,1,1,1,1
536,370.222,360.15,393.15,348.4,358.15,346.4,301.15,1,1,1,1,1
538,367.804,360.4,393.15,348.587,358.4,346.587,301.15,1,1,1,1,1
540,365.3,360.65,393.15,348.775,358.65,346.775,301.15,1,1,1,1,1
542,362.714,360.9,393.15,348.962,358.9,346.962,301.15,1,1,1,1,1
544,360.053,361.15,393.15,349.15,359.15,347.15,301.15,1,1,1,1,1
544.611,359.226,361.226,393.15,349.207,359.226,347.207,301.15,1,1,1,1,1
544.611,359.226,361.226,393.15,349.207,359.226,347.207,301.15,0,1,1,1,1
546,357.324,361.4,393.15,349.337,359.4,347.337,301.15,0,1,1,1,1
548,354.535,361.65,393.15,349.525,359.65,347.525,301.15,0,1,1,1,1
550,351.691,361.9,393.15,349.712,359.9,347.712,301.15,0,1,1,1,1
552,348.8,362.15,393.15,349.9,360.15,347.9,301.15,0,1,1,1,1
552.58,347.954,362.223,393.15,349.954,360.223,347.954,301.15,0,1,1,1,1
552.58,347.954,362.223,393.15,349.954,362.223,349.954,303.15,0,0,1,0,0
554,345.87,362.4,393.15,350.087,362.4,350.087,303.15,0,0,1,0,0
556,342.908,362.65,393.15,350.275,362.65,350.275,303.15,0,0,1,0,0
558,339.921,362.9,393.15,350.462,362.9,350.462,303.15,0,0,1,0,0
560,336.917,363.15,393.15,350.65,363.15,350.65,303.15,0,0,1,0,0
562,333.904,363.4,393.15,350.837,363.4,350.837,303.15,0,0,1,0,0
564,330.889,363.65,393.15,351.025,363.65,351.025,303.15,0,0,1,0,0
566,327.879,363.9,393.15,351.212,363.9,351.212,303.15,0,0,1,0,0
568,324.883,364.15,393.15,351.4,364.15,351.4,303.15,0,0,1,0,0
570,321.907,364.4,393.15,351.587,364.4,351.587,303.15,0,0,1,0,0
572,318.96,364.65,393.15,351.775,364.65,351.775,303.15,0,0,1,0,0
574,316.049,364.9,393.15,351.962,364.9,351.962,303.15,0,0,1,0,0
576,313.181,365.15,393.15,352.15,365.15,352.15,303.15,0,0,1,0,0
578,310.363,365.4,393.15,352.337,365.4,352.337,303.15,0,0,1,0,0
580,307.603,365.65,393.15,352.525,365.65,352.525,303.15,0,0,1,0,0
582,304.908,365.9,393.15,352.712,365.9,352.712,303.15,0,0,1,0,0
584,302.284,366.15,393.15,352.9,366.15,352.9,303.15,0,0,1,0,0
586,299.737,366.4,393.15,353.087,366.4,353.087,303.15,0,0,1,0,0
588,297.276,366.65,393.15,353.275,366.65,353.275,303.15,0,0,1,0,0
590,294.905,366.9,393.15,353.462,366.9,353.462,303.15,0,0,1,0,0
592,292.63,367.15,393.15,353.65,367.15,353.65,303.15,0,0,1,0,0
594,290.458,367.4,393.15,353.837,367.4,353.837,303.15,0,0,1,0,0
596,288.394,367.65,393.15,354.025,367.65,354.025,303.15,0,0,1,0,0
598,286.442,367.9,393.15,354.212,367.9,354.212,303.15,0,0,1,0,0
600,284.609,368.15,393.15,354.4,368.15,354.4,303.15,0,0,1,0,0
602,282.898,368.4,393.15,354.587,368.4,354.587,303.15,0,0,1,0,0
604,281.315,368.65,393.15,354.775,368.65,354.775,303.15,0,0,1,0,0
606,279.862,368.9,393.15,354.962,368.9,354.962,303.15,0,0,1,0,0
608,278.544,369.15,393.15,355.15,369.15,355.15,303.15,0,0,1,0,0
610,277.363,369.4,393.15,355.337,369.4,355.337,303.15,0,0,1,0,0
612,276.324,369.65,393.15,355.525,369.65,355.525,303.15,0,0,1,0,0
614,275.428,369.9,393.15,355.712,369.9,355.712,303.15,0,0,1,0,0
616,274.678,370.15,393.15,355.9,370.15,355.9,303.15,0,0,1,0,0
618,274.076,370.4,393.15,356.087,370.4,356.087,303.15,0,0,1,0,0
620,273.623,370.65,393.15,356.275,370.65,356.275,303.15,0,0,1,0,0
622,273.32,370.9,393.15,356.462,370.9,356.462,303.15,0,0,1,0,0
624,273.169,371.15,393.15,356.65,371.15,356.65,303.15,0,0,1,0,0
626,273.169,371.4,393.15,356.837,371.4,356.837,303.15,0,0,1,0,0
628,273.32,371.65,393.15,357.025,371.65,357.025,303.15,0,0,1,0,0
630,273.623,371.9,393.15,357.212,371.9,357.212,303.15,0,0,1,0,0
632,274.076,372.15,393.15,357.4,372.15,357.4,303.15,0,0,1,0,0
634,274.678,372.4,393.15,357.587,372.4,357.587,303.15,0,0,1,0,0
636,275.428,372.65,393.15,357.775,372.65,357.775,303.15,0,0,1,0,0
638,276.324,372.9,393.15,357.962,372.9,357.962,303.15,0,0,1,0,0
640,277.363,373.15,393.15,358.15,373.15,358.15,303.15,0,0,1,0,0
642,278.544,373.4,393.15,358.337,373.4,358.337,303.15,0,0,1,0,0
644,279.862,373.65,393.15,358.525,373.65,358.525,303.15,0,0,1,0,0
646,281.315,373.9,393.15,358.712,373.9,358.712,303.15,0,0,1,0,0
648,282.898,374.15,393.15,358.9,374.15,358.9,303.15,0,0,1,0,0
650,284.609,374.4,393.15,359.087,374.4,359.087,303.15,0,0,1,0,0
652,286.442,374.65,393.15,359.275,374.65,359.275,303.15,0,0,1,0,0
654,288.394,374.9,393.15,359.462,374.9,359.462,303.15,0,0,1,0,0
656,290.458,375.15,393.15,359.65,375.15,359.65,303.15,0,0,1,0,0
658,292.63,375.4,393.15,359.837,375.4,359.837,303.15,0,0,1,0,0
660,294.905,375.65,393.15,360.025,375.65,360.025,303.15,0,0,1,0,0
662,297.276,375.9,393.15,360.212,375.9,360.212,303.15,0,0,1,0,0
664,299.737,376.15,393.15,360.4,376.15,360.4,303.15,0,0,1,0,0
666,302.284,376.4,393.15,360.587,376.4,360.587,303.15,0,0,1,0,0
668,304.908,376.65,393.15,360.775,376.65,360.775,303.15,0,0,1,0,0
670,307.603,376.9,393.15,360.962,376.9,360.962,303.15,0,0,1,0,0
672,310.363,377.15,393.15,361.15,377.15,361.15,303.15,0,0,1,0,0
674,313.181,377.4,393.15,361.337,377.4,361.337,303.15,0,0,1,0,0
676,316.049,377.65,393.15,361.525,377.65,361.525,303.15,0,0,1,0,0
678,318.96,377.9,393.15,361.712,377.9,361.712,303.15,0,0,1,0,0
680,321.907,378.15,393.15,361.9,378.15,361.9,303.15,0,0,1,0,0
682,324.883,378.4,393.15,362.087,378.4,362.087,303.15,0,0,1,0,0
684,327.879,378.65,393.15,362.275,378.65,362.275,303.15,0,0,1,0,0
686,330.889,378.9,393.15,362.462,378.9,362.462,303.15,0,0,1,0,0
688,333.904,379.15,393.15,362.65,379.15,362.65,303.15,0,0,1,0,0
690,336.917,379.4,393.15,362.837,379.4,362.837,303.15,0,0,1,0,0
692,339.921,379.65,393.15,363.025,379.65,363.025,303.15,0,0,1,0,0
694,342.908,379.9,393.15,363.212,379.9,363.212,303.15,0,0,1,0,0
696,345.87,380.15,393.15,363.4,380.15,363.4,303.15,0,0,1,0,0
698,348.8,380.4,393.15,363.587,380.4,363.587,303.15,0,0,1,0,0
700,351.691,380.65,393.15,363.775,380.65,363.775,303.15,0,0,1,0,0
702,354.535,380.9,393.15,363.962,380.9,363.962,303.15,0,0,1,0,0
704,357.324,381.15,393.15,364.15,381.15,364.15,303.15,0,0,1,0,0
706,360.053,381.4,393.15,364.337,381.4,364.337,303.15,0,0,1,0,0
708,362.714,381.65,393.15,364.525,381.65,364.525,303.15,0,0,1,0,0
709.504,364.666,381.838,393.15,364.666,381.838,364.666,303.15,0,0,1,0,0
709.504,364.666,381.838,393.15,364.666,379.838,362.666,301.15,0,1,1,1,1
710,365.3,381.9,393.15,364.712,379.9,362.712,301.15,0,1,1,1,1
712,367.804,382.15,393.15,364.9,380.15,362.9,301.15,0,1,1,1,1
714,370.222,382.4,393.15,365.087,380.4,363.087,301.15,0,1,1,1,1
716,372.545,382.65,393.15,365.275,380.65,363.275,301.15,0,1,1,1,1
718,374.769,382.9,393.15,365.462,380.9,363.462,301.15,0,1,1,1,1
720,376.888,383.15,393.15,365.65,381.15,363.65,301.15,0,1,1,1,1
722,378.897,383.4,393.15,365.837,381.4,363.837,301.15,0,1,1,1,1
724,380.789,383.65,393.15,366.025,381.65,364.025,301.15,0,1,1,1,1
725.111,381.789,383.789,393.15,366.129,381.789,364.129,301.15,0,1,1,1,1
725.111,381.789,383.789,393.15,366.129,381.789,364.129,301.15,1,1,1,1,1
726,382.562,383.9,393.15,366.212,381.9,364.212,301.15,1,1,1,1,1
728,384.21,384.15,393.15,366.4,382.15,364.4,301.15,1,1,1,1,1
730,385.728,384.4,393.15,366.587,382.4,364.587,301.15,1,1,1,1,1
732,387.114,384.65,393.15,366.775,382.65,364.775,301.15,1,1,1,1,1
734,388.364,384.9,393.15,366.962,382.9,364.962,301.15,1,1,1,1,1
736,389.474,385.15,393.15,367.15,383.15,365.15,301.15,1,1,1,1,1
738,390.442,385.4,393.15,367.337,383.4,365.337,301.15,1,1,1,1,1
740,391.265,385.65,393.15,367.525,383.65,365.525,301.15,1,1,1,1,1
742,391.941,385.9,393.15,367.712,383.9,365.712,301.15,1,1,1,1,1
744,392.469,386.15,393.15,367.9,384.15,365.9,301.15,1,1,1,1,1
746,392.847,386.4,393.15,368.087,384.4,366.087,301.15,1,1,1,1,1
748,393.074,386.65,393.15,368.275,384.65,366.275,301.15,1,1,1,1,1
750,393.15,386.9,393.15,368.462,384.9,366.462,301.15,1,1,1,1,1
752,393.074,387.15,393.15,368.65,385.15,366.65,301.15,1,1,1,1,1
754,392.847,387.4,393.15,368.837,385.4,366.837,301.15,1,1,1,1,1
756,392.469,387.65,393.15,369.025,385.65,367.025,301.15,1,1,1,1,1
758,391.941,387.9,393.15,369.212,385.9,367.212,301.15,1,1,1,1,1
760,391.265,388.15,393.15,369.4,386.15,367.4,301.15,1,1,1,1,1
762,390.442,388.4,393.15,369.587,386.4,367.587,301.15,1,1,1,1,1
764,389.474,388.65,393.15,369.775,386.65,367.775,301.15,1,1,1,1,1
766,388.364,388.9,393.15,369.962,386.9,367.962,301.15,1,1,1,1,1
767.954,387.144,389.144,393.15,370.146,387.144,368.146,301.15,1,1,1,1,1
767.954,387.144,389.144,393.15,370.146,387.144,368.146,301.15,0,1,1,1,1
768,387.114,389.15,393.15,370.15,387.15,368.15,301.15,0,1,1,1,1
770,385.728,389.4,393.15,370.337,387.4,368.337,301.15,0,1,1,1,1
772,384.21,389.65,393.15,370.525,387.65,368.525,301.15,0,1,1,1,1
774,382.562,389.9,393.15,370.712,387.9,368.712,301.15,0,1,1,1,1
776,380.789,390.15,393.15,370.9,388.15,368.9,301.15,0,1,1,1,1
778,378.897,390.4,393.15,371.087,388.4,369.087,301.15,0,1,1,1,1
780,376.888,390.65,393.15,371.275,388.65,369.275,301.15,0,1,1,1,1
782,374.769,390.9,393.15,371.462,388.9,369.462,301.15,0,1,1,1,1
784,372.545,391.15,393.15,371.65,389.15,369.65,301.15,0,1,1,1,1
786,370.222,391.4,393.15,371.837,389.4,369.837,301.15,0,1,1,1,1
786.299,369.866,391.437,393.15,371.866,389.437,369.866,301.15,0,1,1,1,1
786.299,369.866,391.437,393.15,371.866,391.437,371.866,303.15,0,0,1,0,0
788,367.804,391.65,393.15,372.025,391.65,372.025,303.15,0,0,1,0,0
790,365.3,391.9,393.15,372.212,391.9,372.212,303.15,0,0,1,0,0
792,362.714,392.15,393.15,372.4,392.15,372.4,303.15,0,0,1,0,0
794,360.053,392.4,393.15,372.587,392.4,372.587,303.15,0,0,1,0,0
796,357.324,392.65,393.15,372.775,392.65,372.775,303.15,0,0,1,0,0
798,354.535,392.9,393.15,372.962,392.9,372.962,303.15,0,0,1,0,0
800,351.691,393.15,393.15,373.15,393.15,373.15,303.15,0,0,1,0,0
802,348.8,393.15,393.15,373.15,393.15,373.15,303.15,0,0,1,0,0
804,345.87,393.15,393.15,373.15,393.15,373.15,303.15,0,0,1,0,0
806,342.908,393.15,393.15,373.15,393.15,373.15,303.15,0,0,1,0,0
808,339.921,393.15,393.15,373.15,393.15,373.15,303.15,0,0,1,0,0
810,336.917,393.15,393.15,373.15,393.15,373.15,303.15,0,0,1,0,0
812,333.904,393.15,393.15,373.15,393.15,373.15,303.15,0,0,1,0,0
814,330.889,393.15,393.15,373.15,393.15,373.15,303.15,0,0,1,0,0
816,327.879,393.15,393.15,373.15,393.15,373.15,303.15,0,0,1,0,0
818,324.883,393.15,393.15,373.15,393.15,373.15,303.15,0,0,1,0,0
820,321.907,393.15,393.15,373.15,393.15,373.15,303.15,0,0,1,0,0
822,318.96,393.15,393.15,373.15,393.15,373.15,303.15,0,0,1,0,0
824,316.049,393.15,393.15,373.15,393.15,373.15,303.15,0,0,1,0,0
826,313.181,393.15,393.15,373.15,393.15,373.15,303.15,0,0,1,0,0
828,310.363,393.15,393.15,373.15,393.15,373.15,303.15,0,0,1,0,0
830,307.603,393.15,393.15,373.15,393.15,373.15,303.15,0,0,1,0,0
832,304.908,393.15,393.15,373.15,393.15,373.15,303.15,0,0,1,0,0
834,302.284,393.15,393.15,373.15,393.15,373.15,303.15,0,0,1,0,0
836,299.737,393.15,393.15,373.15,393.15,373.15,303.15,0,0,1,0,0
838,297.276,393.15,393.15,373.15,393.15,373.15,303.15,0,0,1,0,0
840,294.905,393.15,393.15,373.15,393.15,373.15,303.15,0,0,1,0,0
842,292.63,393.15,393.15,373.15,393.15,373.15,303.15,0,0,1,0,0
844,290.458,393.15,393.15,373.15,393.15,373.15,303.15,0,0,1,0,0
846,288.394,393.15,393.15,373.15,393.15,373.15,303.15,0,0,1,0,0
848,286.442,393.15,393.15,373.15,393.15,373.15,303.15,0,0,1,0,0
850,284.609,393.15,393.15,373.15,393.15,373.15,303.15,0,0,1,0,0
852,282.898,393.15,393.15,373.15,393.15,373.15,303.15,0,0,1,0,0
854,281.315,393.15,393.15,373.15,393.15,373.15,303.15,0,0,1,0,0
856,279.862,393.15,393.15,373.15,393.15,373.15,303.15,0,0,1,0,0
858,278.544,393.15,393.15,373.15,393.15,373.15,303.15,0,0,1,0,0
860,277.363,393.15,393.15,373.15,393.15,373.15,303.15,0,0,1,0,0
862,276.324,393.15,393.15,373.15,393.15,373.15,303.15,0,0,1,0,0
864,275.428,393.15,393.15,373.15,393.15,373.15,303.15,0,0,1,0,0
866,274.678,393.15,393.15,373.15,393.15,373.15,303.15,0,0,1,0,0
868,274.076,393.15,393.15,373.15,393.15,373.15,303.15,0,0,1,0,0
870,273.623,393.15,393.15,373.15,393.15,373.15,303.15,0,0,1,0,0
872,273.32,393.15,393.15,373.15,393.15,373.15,303.15,0,0,1,0,0
874,273.169,393.15,393.15,373.15,393.15,373.15,303.15,0,0,1,0,0
876,273.169,393.15,393.15,373.15,393.15,373.15,303.15,0,0,1,0,0
878,273.32,393.15,393.15,373.15,393.15,373.15,303.15,0,0,1,0,0
880,273.623,393.15,393.15,373.15,393.15,373.15,303.15,0,0,1,0,0
882,274.076,393.15,393.15,373.15,393.15,373.15,303.15,0,0,1,0,0
884,274.678,393.15,393.15,373.15,393.15,373.15,303.15,0,0,1,0,0
886,275.428,393.15,393.15,373.15,393.15,373.15,303.15,0,0,1,0,0
888,276.324,393.15,393.15,373.15,393.15,373.15,303.15,0,0,1,0,0
890,277.363,393.15,393.15,373.15,393.15,373.15,303.15,0,0,1,0,0
892,278.544,393.15,393.15,373.15,393.15,373.15,303.15,0,0,1,0,0
894,279.862,393.15,393.15,373.15,393.15,373.15,303.15,0,0,1,0,0
896,281.315,393.15,393.15,373.15,393.15,373.15,303.15,0,0,1,0,0
898,282.898,393.15,393.15,373.15,393.15,373.15,303.15,0,0,1,0,0
900,284.609,393.15,393.15,373.15,393.15,373.15,303.15,0,0,1,0,0
902,286.442,393.15,393.15,373.15,393.15,373.15,303.15,0,0,1,0,0
904,288.394,393.15,393.15,373.15,393.15,373.15,303.15,0,0,1,0,0
906,290.458,393.15,393.15,373.15,393.15,373.15,303.15,0,0,1,0,0
908,292.63,393.15,393.15,373.15,393.15,373.15,303.15,0,0,1,0,0
910,294.905,393.15,393.15,373.15,393.15,373.15,303.15,0,0,1,0,0
912,297.276,393.15,393.15,373.15,393.15,373.15,303.15,0,0,1,0,0
914,299.737,393.15,393.15,373.15,393.15,373.15,303.15,0,0,1,0,0
916,302.284,393.15,393.15,373.15,393.15,373.15,303.15,0,0,1,0,0
918,304.908,393.15,393.15,373.15,393.15,373.15,303.15,0,0,1,0,0
920,307.603,393.15,393.15,373.15,393.15,373.15,303.15,0,0,1,0,0
922,310.363,393.15,393.15,373.15,393.15,373.15,303.15,0,0,1,0,0
924,313.181,393.15,393.15,373.15,393.15,373.15,303.15,0,0,1,0,0
926,316.049,393.15,393.15,373.15,393.15,373.15,303.15,0,0,1,0,0
928,318.96,393.15,393.15,373.15,393.15,373.15,303.15,0,0,1,0,0
930,321.907,393.15,393.15,373.15,393.15,373.15,303.15,0,0,1,0,0
932,324.883,393.15,393.15,373.15,393.15,373.15,303.15,0,0,1,0,0
934,327.879,393.15,393.15,373.15,393.15,373.15,303.15,0,0,1,0,0
936,330.889,393.15,393.15,373.15,393.15,373.15,303.15,0,0,1,0,0
938,333.904,393.15,393.15,373.15,393.15,373.15,303.15,0,0,1,0,0
940,336.917,393.15,393.15,373.15,393.15,373.15,303.15,0,0,1,0,0
942,339.921,393.15,393.15,373.15,393.15,373.15,303.15,0,0,1,0,0
944,342.908,393.15,393.15,373.15,393.15,373.15,303.15,0,0,1,0,0
946,345.87,393.15,393.15,373.15,393.15,373.15,303.15,0,0,1,0,0
948,348.8,393.15,393.15,373.15,393.15,373.15,303.15,0,0,1,0,0
950,351.691,393.15,393.15,373.15,393.15,373.15,303.15,0,0,1,0,0
952,354.535,393.15,393.15,373.15,393.15,373.15,303.15,0,0,1,0,0
954,357.324,393.15,393.15,373.15,393.15,373.15,303.15,0,0,1,0,0
956,360.053,393.15,393.15,373.15,393.15,373.15,303.15,0,0,1,0,0
958,362.714,393.15,393.15,373.15,393.15,373.15,303.15,0,0,1,0,0
960,365.3,393.15,393.15,373.15,393.15,373.15,303.15,0,0,1,0,0
962,367.804,393.15,393.15,373.15,393.15,373.15,303.15,0,0,1,0,0
964,370.222,393.15,393.15,373.15,393.15,373.15,303.15,0,0,1,0,0
966,372.545,393.15,393.15,373.15,393.15,373.15,303.15,0,0,1,0,0
966.535,373.15,393.15,393.15,373.15,393.15,373.15,303.15,0,0,1,0,0
966.535,373.15,393.15,393.15,373.15,391.15,371.15,301.15,0,1,1,1,1
968,374.769,393.15,393.15,373.15,391.15,371.15,301.15,0,1,1,1,1
970,376.888,393.15,393.15,373.15,391.15,371.15,301.15,0,1,1,1,1
972,378.897,393.15,393.15,373.15,391.15,371.15,301.15,0,1,1,1,1
974,380.789,393.15,393.15,373.15,391.15,371.15,301.15,0,1,1,1,1
976,382.562,393.15,393.15,373.15,391.15,371.15,301.15,0,1,1,1,1
978,384.21,393.15,393.15,373.15,391.15,371.15,301.15,0,1,1,1,1
980,385.728,393.15,393.15,373.15,391.15,371.15,301.15,0,1,1,1,1
982,387.114,393.15,393.15,373.15,391.15,371.15,301.15,0,1,1,1,1
984,388.364,393.15,393.15,373.15,391.15,371.15,301.15,0,1,1,1,1
986,389.474,393.15,393.15,373.15,391.15,371.15,301.15,0,1,1,1,1
988,390.442,393.15,393.15,373.15,391.15,371.15,301.15,0,1,1,1,1
989.698,391.15,393.15,393.15,373.15,391.15,371.15,301.15,0,1,1,1,1
989.698,391.15,393.15,393.15,373.15,391.15,371.15,301.15,1,1,1,1,1
990,391.265,393.15,393.15,373.15,391.15,371.15,301.15,1,1,1,1,1
992,391.941,393.15,393.15,373.15,391.15,371.15,301.15,1,1,1,1,1
994,392.469,393.15,393.15,373.15,391.15,371.15,301.15,1,1,1,1,1
996,392.847,393.15,393.15,373.15,391.15,371.15,301.15,1,1,1,1,1
998,393.074,393.15,393.15,373.15,391.15,371.15,301.15,1,1,1,1,1
1000,393.15,393.15,393.15,373.15,391.15,371.15,301.15,1,1,1,1,1
1000,393.15,393.15,393.15,373.15,391.15,371.15,301.15,1,1,1,1,1
